Sex,Division,Equipment,Event,Name,BodyweightKg,WeightClassKg,Squat1Kg,Squat2Kg,Squat3Kg,Best3SquatKg,Bench1Kg,Bench2Kg,Bench3Kg,Best3BenchKg,Deadlift1Kg,Deadlift2Kg,Deadlift3Kg,Best3DeadliftKg,TotalKg,Place
F,F-J1R,Raw,SBD,April Wells,59.5,60,-92.5,97,102,102,57.5,-62.5,62.5,62.5,122.5,130,135,135,299.5,1
F,F-J1R,Raw,SBD,Scout Symmons,73.2,75,110,117.5,125,125,90,95,100,100,115,125,-140,125,350,1
F,F-J1R,Raw,SBD,Bonnie Townsend,74.2,75,122.5,127.5,132.5,132.5,62.5,-67.5,70,70,140,147.5,-150,147.5,350,2
F,F-J1R,Raw,SBD,Jamison Collier,80.1,82.5,140,147.5,-152.5,147.5,-65,-65,65,65,145,155,-170,155,367.5,1
F,F-M1R,Raw,B,Lorell Nelson,55.6,56,,,,,50,55,-57.5,55,,,,,55,1
F,F-M1R,Raw,BD,Gaye Miller,66.3,67.5,,,,,52.5,-55,-55,52.5,100,105,-110,105,157.5,1
F,F-M1R,Raw,BD,Lisa Donoghue,87.9,90,,,,,40,45,47.5,47.5,115,122.5,130,130,177.5,1
F,F-M1R,Raw,SBD,Helene Faccio,54.4,56,90,95,-102.5,95,45,50,52.5,52.5,130,137.5,145,145,292.5,1
F,F-M1R,Raw,SBD,Leesa Langley,62.8,67.5,85,90,95,95,55,57.5,-60,57.5,130,140,145,145,297.5,2
F,F-M1R,Raw,SBD,Lina Vukojevic,66.3,67.5,95,105,115,115,75,-80,85,85,130,140,150,150,350,1
F,F-M1R,Raw,SBD,Robyn Morgan,74.1,75,100,105,107.5,107.5,57.5,62.5,-67.5,62.5,145,155,-160,155,325,1
F,F-M1R,Raw,SBD,Blazenka Stewart,80,82.5,95,102.5,110,110,70,75,-77.5,75,145,152.5,160,160,345,1
F,F-M1R,Raw,SBD,Amanda Hart,87.2,90,85,92.5,-100,92.5,60,65,-67.5,65,120,125,130,130,287.5,1
F,F-OCR,Wraps,SBD,Amanda Gleeson,59.6,60,80,90,-95,90,45,-50,-50,45,-100,100,-105,100,235,1
F,F-OCR,Wraps,SBD,Kayleigh de Jong,74.9,75,120,132.5,140,140,67.5,72.5,-77.5,72.5,120,135,140,140,352.5,1
F,F-OCR,Wraps,SBD,Katherine Birrer,89.9,90,142.5,147.5,152.5,152.5,80,85,-87.5,85,155,162.5,170,170,407.5,1
F,F-OR,Raw,D,Leesa Langley,62.8,67.5,,,,,,,,,135,150,155,155,155,1
F,F-OR,Raw,SBD,Zhara Krine,44,44,72.5,-77.5,77.5,77.5,40,42.5,-45,42.5,90,95,100,100,220,1
F,F-OR,Raw,B,Angelina Poole,49.8,52,,,,,55,-57.5,-57.5,55,,,,,55,1
F,F-OR,Raw,SBD,Jade Harling,58.3,60,107,115,120,120,60,-62.5,-62.5,60,142.5,-150,-150,142.5,322.5,1
F,F-OR,Raw,SBD,Renee Pascall,64.6,67.5,85,92.5,-97.5,92.5,52.5,55,-60,55,120,-125,-125,120,267.5,2
F,F-OR,Raw,SBD,Perdita Barrington,67,67.5,115,-122.5,122.5,122.5,45,-50,52.5,52.5,115,122.5,-127.5,122.5,297.5,1
F,F-OR,Raw,SBD,Kelsey Morgan,72.7,75,120,125,130,130,55,57.5,-60,57.5,120,130,-140,130,317.5,5
F,F-OR,Raw,SBD,Anna Murphy,70.1,75,110,117.5,125,125,75,80,82.5,82.5,130,142.5,-150,142.5,350,3
F,F-OR,Raw,SBD,Dakoda Plumridge,74.8,75,115,117.5,125,125,65,-70,-75,65,140,150,160,160,350,4
F,F-OR,Raw,SBD,Christina Polatajko,69.7,75,105,110,115,115,60,65,-67.5,65,165,175,180,180,360,2
F,F-OR,Raw,SBD,Kellie Donaldson,74.9,75,110,117.5,-125,117.5,75,80,85,85,155,165,-172.5,165,367.5,1
F,F-OR,Raw,SBD,Shannon Hastings,79.2,82.5,95,115,125,125,70,80,82.5,82.5,110,120,130,130,337.5,1
F,F-OR,Raw,SBD,Margaret Maher,89.9,90,115,117.5,120,120,60,62.5,-65,62.5,120,125,130,130,312.5,2
F,F-OR,Raw,SBD,Sandra Tricola,87.9,90,120,127.5,135,135,50,52.5,55,55,125,135,145,145,335,1
F,F-OR,Raw,SBD,Tea Pascoe,115.3,90+,110,120,135,135,90,95,100,100,115,125,-140,125,360,1
F,F-OR,Raw,SBD,Denise Rimoni,112.9,90+,-140,-160,-160,,-65,75,-85,75,150,170,185,185,,DQ
M,M-OR,Raw,D,Corey Pomery,81.1,82.5,,,,,,,,,200,220,232.5,232.5,232.5,1
M,M-OR,Raw,D,Ryan Buchanan,86.7,90,,,,,,,,,220,-240,-250,220,220,1
M,M-OR,Raw,D,Brent Prichard,109.8,110,,,,,,,,,220,240,262.5,262.5,262.5,1
M,M-J1CR,Wraps,SBD,Jack Lehfeldt,92,100,180,200,210,210,120,130,-137.5,130,230,250,-260,250,590,1
M,M-J1R,Raw,SBD,Sam Butterworth,106,110,210,217.5,225,225,125,130,135,135,220,235,245,245,605,2
M,M-J1R,Raw,SBD,Nick King,108,110,205,220,235,235,100,105,110,110,250,270,-290,270,615,1
M,M-J1R,Raw,SBD,Julian Faccio,62.6,67.5,70,85,-100,85,60,65,70,70,90,110,125,125,280,1
M,M-J1R,Raw,SBD,Andreas Pelosi,70,75,160,175,-185,175,90,100,-105,100,170,190,-207.5,190,465,1
M,M-J1R,Raw,SBD,Dean Panopoulos,81,82.5,160,167.5,-177.5,167.5,100,-105,-105,100,200,220,-240,220,487.5,3
M,M-J1R,Raw,SBD,Callum Mccoy,79.9,82.5,155,165,170,170,100,105,-110,105,210,225,-232.5,225,500,2
M,M-J1R,Raw,SBD,Mitch Farquhar,82.3,82.5,175,187.5,200,200,115,120,-125,120,200,210,220,220,540,1
M,M-J1R,Raw,SBD,Dean Passaris,87.9,90,160,-165,-165,160,100,-105,-105,100,190,200,-205,200,460,2
M,M-J1R,Raw,SBD,Jesse Peak,87.9,90,205,-217.5,220,220,110,120,-130,120,210,225,235,235,575,1
M,M-M1R,Raw,BD,Kevin Rogers,61.9,67.5,,,,,85,90,-92.5,90,125,135,-142.5,135,225,1
M,M-M1R,Raw,BD,Ian Wilson,79.8,82.5,,,,,90,100,105,105,100,120,140,140,245,1
M,M-M1R,Raw,B,Troy Nelson,87.9,90,,,,,130,140,150,150,,,,,150,1
M,M-M1R,Raw,SBD,Scott Phillips,94.4,100,150,160,170,170,165,170,175,175,265,285,300,300,645,1
M,M-M1R,Raw,SBD,Goran Vokojevic,76.4,82.5,110,130,140,140,105,115,122.5,122.5,185,202.5,210,210,472.5,1
M,M-M1R,Raw,SBD,Peter Baskeville,89,90,155,162.5,170,170,60,70,,70,200,210,-220,210,450,2
M,M-M1R,Raw,SBD,Paul James,89.2,90,160,-170,170,170,110,120,125,125,205,220,230,230,525,1
M,M-OCR,Wraps,SBD,Jharryd Nemec,99.3,100,220,232.5,-240,232.5,135,142.5,150,150,260,270,280,280,662.5,2
M,M-OCR,Wraps,SBD,Elliot Webb,95.3,100,230,245,260,260,140,150,-165,150,245,255,265,265,675,1
M,M-OCR,Wraps,SBD,Matthew Maher,102.2,110,155,-170,170,170,95,102.5,107.5,107.5,200,212.5,220,220,497.5,2
M,M-OCR,Wraps,SBD,Aaron Scarborough,107.3,110,235,250,,250,165,170,-175,170,260,280,-300,280,700,1
M,M-OCR,Wraps,SBD,Robert Earl,124,125,240,-250,-250,240,140,145,-150,145,240,250,-260,250,635,1
M,M-OCR,Wraps,SBD,Michael Watt,66.9,67.5,165,182.5,185,185,125,135,-140,135,-210,220,235,235,555,1
M,M-OCR,Wraps,SBD,Jordan Oliva,80.5,82.5,155,162.5,170,170,100,105,-110,105,185,197.5,210,210,485,1
M,M-OCR,Wraps,SBD,Cyl Duncan,88.6,90,170,180,185,185,110,112.5,115,115,190,200,210,210,510,1
M,M-OR,Raw,B,Thomas Birmingham,87.1,90,,,,,115,125,135,135,,,,,135,1
M,M-OR,Raw,SBD,Matthew Amato,95.6,100,140,150,160,160,85,90,-95,90,190,200,205,205,455,4
M,M-OR,Raw,SBD,Warrick Heron,92.5,100,145,155,165,165,95,100,107.5,107.5,210,220,230,230,502.5,3
M,M-OR,Raw,SBD,Sym Puskaric,99.4,100,-185,185,-190,185,160,165,170,170,200,220,-230,220,575,2
M,M-OR,Raw,SBD,Jamie Cougan,99.6,100,195,205,212.5,212.5,132.5,140,147.5,147.5,255,267.5,,267.5,627.5,1
M,M-OR,Raw,B,Jonny Bbad,108.4,110,,,,,145,150,152.5,152.5,,,,,152.5,1
M,M-OR,Raw,SBD,Edward Burton,108.2,110,220,240,250,250,170,180,-190,180,250,270,280,280,710,2
M,M-OR,Raw,SBD,John Pappas #1,110,110,260,275,282.5,282.5,180,-195,-195,180,230,250,-260,250,712.5,1
M,M-OR,Raw,SBD,Fabian Lee,118,125,240,-250,-250,240,180,190,195,195,260,275,290,290,725,2
M,M-OR,Raw,SBD,Mathew Procak,122.6,125,270,-280,-280,270,175,180,,180,280,300,-325,300,750,1
M,M-OR,Raw,SBD,Rhyss Keane,128,140,260,275,285,285,195,205,-212.5,205,320,,,320,810,1
M,M-OSP,Single-ply,B,Shane Atta-Singh,164,140+,,,,,275,-290,-290,275,,,,,275,1
M,M-OR,Raw,SBD,Daniel Winter,58.6,60,145,155,-162.5,155,65,70,-75,70,160,170,-175,170,395,2
M,M-OR,Raw,SBD,Maninder Singh,59.6,60,140,150,155,155,90,95,100,100,180,190,200,200,455,1
M,M-OR,Raw,SBD,Tim Mayes,81.7,82.5,155,165,-170,165,105,110,-112.5,110,160,167.5,-172.5,167.5,442.5,1
M,M-OR,Raw,SBD,Sam Hodby,87.7,90,150,-160,160,160,110,120,122.5,122.5,180,190,200,200,482.5,2
M,M-OR,Raw,SBD,Adam Bergurnik,89.9,90,155,165,170,170,112.5,117.5,-120,117.5,207.5,212.5,-220,212.5,500,1
