Place,Name,Sex,Age,Country,State,Equipment,Division,BodyweightKg,WeightClassKg,Squat1Kg,Squat2Kg,Squat3Kg,Best3SquatKg,Bench1Kg,Bench2Kg,Bench3Kg,Bench4Kg,Best3BenchKg,Deadlift1Kg,Deadlift2Kg,Deadlift3Kg,Deadlift4Kg,Best3DeadliftKg,TotalKg,Event,Tested
1,Alyssa Haws,F,35,USA,ID,Raw,F_OR_AWPC,69.8,75,72.5,-82.5,82.5,82.5,-47.5,50,-52.5,,50,117.5,127.5,135,,135,267.5,SBD,Yes
1,Alyssa Haws,F,35,USA,ID,Raw,F_SR_AWPC,69.8,75,72.5,-82.5,82.5,82.5,-47.5,50,-52.5,,50,117.5,127.5,135,,135,267.5,SBD,Yes
1,Chanel Gailey,F,21,USA,UT,Wraps,F_JCR_WPC,43.9,44,105,112.5,-120.5,112.5,57.5,-60,60,-63,60,135,140,-142.5,,140,312.5,SBD,
1,Chanel Gailey,F,21,USA,UT,Wraps,F_JCR_AWPC,43.9,44,105,112.5,-120.5,112.5,57.5,-60,60,-63,60,135,140,-142.5,,140,312.5,SBD,Yes
1,Aysia Lopez,F,20,USA,ID,Wraps,F_JCR_AWPC,56.9,60,75,77.5,82.5,82.5,42.5,45,52.5,,52.5,85,90,-95,,90,225,SBD,Yes
1,Chanel Gailey,F,21,USA,UT,Wraps,F_OCR_WPC,43.9,44,105,112.5,-120.5,112.5,57.5,-60,60,-63,60,135,140,-142.5,,140,312.5,SBD,
1,Perla Badillo,F,32,Mexico,,Wraps,F_OCR_WPC,50.3,52,130,-140,-140,130,55,-62.5,-62.5,,55,130,140,150.5,,150.5,335.5,SBD,
1,Chanel Gailey,F,21,USA,UT,Wraps,F_OCR_AWPC,43.9,44,105,112.5,-120.5,112.5,57.5,-60,60,-63,60,135,140,-142.5,,140,312.5,SBD,Yes
1,Perla Badillo,F,32,Mexico,,Wraps,F_OCR_AWPC,50.3,52,130,-140,-140,130,55,-62.5,-62.5,,55,130,140,150.5,,150.5,335.5,SBD,Yes
1,Brittney Shawver,F,33,USA,ID,Wraps,F_SCR_AWPC,59.7,60,60,72.5,82.5,82.5,50,57.5,-62.5,,57.5,97.5,110,115,,115,255,SBD,Yes
1,Jami Grove,F,35,USA,UT,Single-ply,F_OES_AWPC,74,75,160,172.5,182.5,182.5,-105,105,115,-122.5,115,137.5,147.5,157.5,,157.5,455,SBD,Yes
1,Jami Grove,F,35,USA,UT,Single-ply,F_SES_AWPC,74,75,160,172.5,182.5,182.5,-105,105,115,-122.5,115,137.5,147.5,157.5,,157.5,455,SBD,Yes
1,Lynn Basselt,F,53,USA,UT,Raw,F_MR_3_AWPC,113.9,90+,,,,,85,87.5,90,,90,,,,,,90,B,Yes
1,Angel Gamroth,F,32,USA,WI,Single-ply,F_OES_WPC,73.8,75,,,,,92.5,100,-110,,100,,,,,,100,B,
1,Amanda Harris,F,28,USA,TX,Single-ply,F_OES_AWPC,63,67.5,,,,,95,-112.5,-115,,95,,,,,,95,B,Yes
1,Jami Grove,F,35,USA,UT,Single-ply,F_OES_AWPC,74,75,,,,,-105,105,115,-122.5,115,,,,,,115,B,Yes
1,Jami Grove,F,35,USA,UT,Single-ply,F_SES_AWPC,74,75,,,,,-105,105,115,-122.5,115,,,,,,115,B,Yes
1,Lynn Basselt,F,53,USA,UT,Raw,F_MR_3_AWPC,113.9,90+,,,,,,,,,,140.5,145,147.5,,147.5,147.5,D,Yes
1,Nathaniel Breese,M,21,USA,ID,Raw,M_JR_AWPC,86,90,160,180,187.5,187.5,130,137.5,-145,,137.5,215,225,-230,,225,550,SBD,Yes
1,Winslow Bent,M,46,USA,WY,Raw,M_MR_2_WPC,97.8,100,-180,180,190,190,100,110,120,,120,190,200,210,,210,520,SBD,
1,Aaron Knaus,M,25,USA,UT,Raw,M_OR_WPC,79.8,82.5,160,165,177.5,177.5,120,-127.5,-127.5,,120,205,215,222.5,,222.5,520,SBD,
2,Raleigh Anderson,M,22,,ID,Raw,M_OR_WPC,82.5,82.5,135,147.5,-157.5,147.5,100,105,110,,110,187.5,200,-215,,200,457.5,SBD,
1,Raleigh Anderson,M,22,,ID,Raw,M_OR_AWPC,82.5,82.5,135,147.5,-157.5,147.5,100,105,110,,110,187.5,200,-215,,200,457.5,SBD,Yes
1,Nathaniel Breese,M,21,USA,ID,Raw,M_OR_AWPC,86,90,160,180,187.5,187.5,130,137.5,-145,,137.5,215,225,-230,,225,550,SBD,Yes
1,Russell Jardine,M,28,USA,ID,Raw,M_OR_AWPC,104,110,205,215,227.5,227.5,167.5,-175,177.5,,177.5,217.5,230,-242.5,,230,635,SBD,Yes
1,Rocky Jardine,M,26,USA,ID,Raw,M_OR_AWPC,124.3,125,182.5,-195,202.5,202.5,140,-147.5,-155,,140,212.5,227.5,237.5,,237.5,580,SBD,Yes
1,Matt Slate,M,38,USA,NV,Raw,M_OR_AWPC,140,140,265,272.5,,272.5,195,207.5,215,,215,265,275,-280,,275,762.5,SBD,Yes
1,Kyle Reader,M,28,USA,ID,Raw,M_OR_AWPC,170,140+,-200,-200,215,215,112.5,120,-130,,120,200,220,230,,230,565,SBD,Yes
1,Trent Sabo,M,37,,,Raw,M_SR_AWPC,100,100,167.5,-177.5,187.5,187.5,120,130,137.5,,137.5,215,227.5,-242.5,,227.5,552.5,SBD,Yes
1,Matt Slate,M,38,USA,NV,Raw,M_SR_AWPC,140,140,265,272.5,,272.5,195,207.5,215,,215,265,275,-280,,275,762.5,SBD,Yes
1,Akeem McDaniel,M,22,USA,UT,Wraps,M_JCR_AWPC,97,100,215,-235,235,235,175,-185.5,-185.5,,175,260,-280,-280,,260,670,SBD,Yes
1,Michael Coleman #1,M,40,USA,ID,Wraps,M_MCR_1_AWPC,74.6,75,127.5,137.5,-145,137.5,115,120,-122.5,,120,177.5,195,-210,,195,452.5,SBD,Yes
1,Brian Higginson,M,53,USA,ID,Wraps,M_MCR_3_AWPC,81.5,82.5,105,115,130,130,100,115,-120,,115,137.5,152.5,170,192.5,170,415,SBD,Yes
1,Dennis Weathers,M,67,USA,OR,Wraps,M_MCR_6_WPC,86.1,90,150,172.5,,172.5,137.5,142.5,150,157.5,150,152.5,175,185,192.5,185,507.5,SBD,
1,Saul Ivan Badillo,M,34,Mexico,,Wraps,M_OCR_WPC,73.8,75,180,-190,-190,180,95,-102.5,-102.5,,95,210,225,-240.5,,225,500,SBD,
1,Jayden Chase,M,26,USA,ID,Wraps,M_OCR_AWPC,74.6,75,185,192.5,-200,192.5,-130,-132.5,132.5,,132.5,202.5,205,212.5,,212.5,537.5,SBD,Yes
2,Saul Ivan Badillo,M,34,Mexico,,Wraps,M_OCR_AWPC,73.8,75,180,-190,-190,180,95,-102.5,-102.5,,95,210,225,-240.5,,225,500,SBD,Yes
1,Steven Grow,M,24,USA,ID,Wraps,M_OCR_AWPC,81.3,82.5,165,175,182.5,182.5,115,125,132.5,,132.5,182.5,200,207.5,,207.5,522.5,SBD,Yes
1,David May #1,M,31,USA,UT,Wraps,M_OCR_AWPC,88.5,90,162.5,-175,175,175,115,120,-122.5,,120,210,217.5,227.5,,227.5,522.5,SBD,Yes
1,Saul Ivan Badillo,M,34,Mexico,,Wraps,M_SCR_WPC,73.8,75,180,-190,-190,180,95,-102.5,-102.5,,95,210,225,-240.5,,225,500,SBD,
1,David Stensland,M,34,USA,ND,Wraps,M_SCR_WPC,98.4,100,250,265,-275,265,160,170,172.5,,172.5,272.5,290,-295.5,,290,727.5,SBD,
1,Cody Nielsen,M,34,USA,ID,Wraps,M_SCR_AWPC,74.8,75,160,175,-182.5,175,115,127.5,135,,135,225,240,252.5,260,252.5,562.5,SBD,Yes
2,Saul Ivan Badillo,M,34,Mexico,,Wraps,M_SCR_AWPC,73.8,75,180,-190,-190,180,95,-102.5,-102.5,,95,210,225,-240.5,,225,500,SBD,Yes
1,Lane Marley,M,39,USA,ID,Wraps,M_SCR_AWPC,99.3,100,230,235,242.5,242.5,145,150,155,,155,232.5,237.5,245,,245,642.5,SBD,Yes
1,Mitch Parker,M,19,USA,UT,Wraps,M_TCR_3_AWPC,66.3,67.5,142.5,150,-157.5,150,102.5,105,,,105,182.5,200.5,-205,,200.5,455.5,SBD,Yes
1,Jay Bakke,M,62,USA,MT,Single-ply,M_MES_5_WPC,98.9,100,205,225,-237.5,225,150,162.5,167.5,-182.5,167.5,215,240,252.5,-265.5,252.5,645,SBD,
1,Jay Bakke,M,62,USA,MT,Single-ply,M_MES_5_AWPC,98.9,100,205,225,-237.5,225,150,162.5,167.5,-182.5,167.5,215,240,252.5,-265.5,252.5,645,SBD,Yes
1,Luke Shawver,M,37,USA,ID,Single-ply,M_OES_AWPC,74.5,75,157.5,172.5,190,190,95,105,112.5,,112.5,200,217.5,230,-235,230,532.5,SBD,Yes
1,Luke Shawver,M,37,USA,ID,Single-ply,M_SES_AWPC,74.5,75,157.5,172.5,190,190,95,105,112.5,,112.5,200,217.5,230,-235,230,532.5,SBD,Yes
1,David Woolley,M,38,USA,ID,Multi-ply,M_SEM_WPC,118.8,125,-320,-320,345,345,230,-240,-240,,230,300,320,-332.5,,320,895,SBD,
DQ,Mike Brownfield,M,46,USA,OR,Raw,M_MR_2_WPC,115.4,125,,,,,-210,-210,,,,,,,,,,B,
1,Doug Clayton,M,62,USA,WY,Raw,M_MR_5_AWPC,85.8,90,,,,,115,120,125,,125,,,,,,125,B,Yes
1,Dario Mikic,M,31,USA,ID,Raw,M_OR_WPC,124.8,125,,,,,175,185,195,,195,,,,,,195,B,
DQ,Mike Brownfield,M,46,USA,OR,Raw,M_OR_WPC,115.4,125,,,,,-210,-210,,,,,,,,,,B,
1,Matt Slate,M,38,USA,NV,Raw,M_OR_AWPC,140,140,,,,,195,207.5,215,,215,,,,,,215,B,Yes
1,Matt Slate,M,38,USA,NV,Raw,M_SR_AWPC,140,140,,,,,195,207.5,215,,215,,,,,,215,B,Yes
1,Michael Coleman #1,M,40,USA,ID,Raw,M_MR_1_AWPC,74.6,75,,,,,115,120,-122.5,,120,,,,,,120,B,Yes
1,Thomas Ponzio,M,49,USA,UT,Single-ply,M_MES_2_WPC,97.6,100,,,,,242.5,250,260,272.5,260,,,,,,260,B,
1,Jay Bakke,M,62,USA,MT,Single-ply,M_MES_5_WPC,98.9,100,,,,,150,162.5,167.5,-182.5,167.5,,,,,,167.5,B,
1,Jay Bakke,M,62,USA,MT,Single-ply,M_MES_5_AWPC,98.9,100,,,,,150,162.5,167.5,-182.5,167.5,,,,,,167.5,B,Yes
1,Scott Saluzzi,M,70,USA,WI,Single-ply,M_MES_7_WPC,95.2,100,,,,,167.5,172.5,175,-180,175,,,,,,175,B,
DQ,Dana Walker,M,42,USA,WY,Multi-ply,M_OEM_WPC,89,90,,,,,-302.5,-302.5,-320,,,,,,,,,B,
1,Ryan Marble,M,33,USA,UT,Multi-ply,M_OEM_WPC,100,100,,,,,358,-377.5,-377.5,,358,,,,,,358,B,
DQ,River Newman,M,30,USA,MT,Multi-ply,M_OEM_WPC,129,140,,,,,-280,-280,-280,,,,,,,,,B,
1,Ryan Marble,M,33,USA,UT,Multi-ply,M_OEM_AWPC,100,100,,,,,358,-377.5,-377.5,,358,,,,,,358,B,Yes
1,David Woolley,M,38,USA,ID,Multi-ply,M_SEM_WPC,118.8,125,,,,,230,-240,-240,,230,,,,,,230,B,
1,Lance Davis,M,52,USA,UT,Raw,M_MR_3_AWPC,99.9,100,,,,,,,,,,230,-240,,,230,230,D,Yes
1,Cody Nielsen,M,34,USA,ID,Raw,M_OR_WPC,74.8,75,,,,,,,,,,225,240,252.5,,252.5,252.5,D,
1,Aaron Knaus,M,25,USA,UT,Raw,M_OR_WPC,79.8,82.5,,,,,,,,,,205,215,222.5,,222.5,222.5,D,
1,Dario Mikic,M,31,USA,ID,Raw,M_OR_WPC,124.8,125,,,,,,,,,,290,300,-320,,300,300,D,
1,Cody Nielsen,M,34,USA,ID,Raw,M_SR_WPC,74.8,75,,,,,,,,,,225,240,252.5,,252.5,252.5,D,
1,Cody Nielsen,M,34,USA,ID,Raw,M_SR_AWPC,74.8,75,,,,,,,,,,225,240,252.5,,252.5,252.5,D,Yes
1,Taryn Reader,M,6,USA,ID,Raw,M_YR_AWPC,28.9,52,,,,,,,,,,35,40,-45,,40,40,D,Yes
1,Kai Kobashigawa,M,10,,,Raw,M_YR_AWPC,33,52,,,,,,,,,,37.5,42.5,47.5,,47.5,47.5,D,Yes
2,Gralson Kobashigawa,M,7,,,Raw,M_YR_AWPC,26.3,52,,,,,,,,,,20,32.5,37.5,,37.5,37.5,D,Yes
1,Michael Coleman #1,M,40,USA,ID,Raw,M_MR_1_AWPC,74.6,75,,,,,,,,,,177.5,195,-210,,195,195,D,Yes
1,Jay Bakke,M,62,USA,MT,Single-ply,M_MES_5_WPC,98.9,100,,,,,,,,,,215,240,252.5,-265.5,252.5,252.5,D,
1,Jay Bakke,M,62,USA,MT,Single-ply,M_MES_5_AWPC,98.9,100,,,,,,,,,,215,240,252.5,-265.5,252.5,252.5,D,Yes
1,Luke Shawver,M,37,USA,ID,Single-ply,M_OES_AWPC,74.5,75,,,,,,,,,,200,217.5,230,-235,230,230,D,Yes
1,Luke Shawver,M,37,USA,ID,Single-ply,M_SES_AWPC,74.5,75,,,,,,,,,,200,217.5,230,-235,230,230,D,Yes
1,Terry Baldwin #1,M,56,USA,UT,Single-ply,M_MES_4_WPC,95.7,100,,,,,,,,,,250,262.5,272.5,277.5,272.5,272.5,D,
1,Terry Baldwin #1,M,56,USA,UT,Multi-ply,M_MEM_4_WPC,95.7,100,,,,,,,,,,250,262.5,272.5,277.5,272.5,272.5,D,
1,River Newman,M,30,USA,MT,Multi-ply,M_OEM_WPC,129,140,,,,,,,,,,240,-275,-275,,240,240,D,
1,David Woolley,M,38,USA,ID,Multi-ply,M_SEM_WPC,118.8,125,,,,,,,,,,300,320,-332.5,,320,320,D,
