Division,WeightClassKg,Place,Name,Team,BodyweightKg,Best3SquatKg,Best3BenchKg,Best3DeadliftKg,TotalKg,Equipment,Event,Sex
Boys,51.71,1,Jaime Aguilar,Carrollton Turner,50.35,77.11,49.9,81.65,208.65,Single-ply,SBD,M
Boys,55.79,1,Camron Gray,Carrollton Creekview,55.79,108.86,61.23,124.74,294.84,Single-ply,SBD,M
Boys,55.79,2,Treavon Jones,Carrollton Turner,54.66,79.38,52.16,88.45,219.99,Single-ply,SBD,M
Boys,59.87,1,Zach Dixon,Carrollton Ranchview,59.65,122.47,79.38,145.15,347,Single-ply,SBD,M
Boys,59.87,2,Darryn Brossett,Carrollton Ranchview,59.19,104.33,63.5,124.74,292.57,Single-ply,SBD,M
Boys,59.87,3,Evan Miller #3,Carrollton Creekview,56.25,102.06,58.97,127.01,288.03,Single-ply,SBD,M
Boys,59.87,4,Zach Sasser,Lake Dallas,59.65,97.52,61.23,129.27,288.03,Single-ply,SBD,M
Boys,59.87,5,Stephen Garcia,Carrollton Creekview,57.61,102.06,52.16,106.59,260.82,Single-ply,SBD,M
Boys,59.87,6,Isaac Bergum,Carrollton Ranchview,56.93,74.84,45.36,104.33,224.53,Single-ply,SBD,M
Boys,67.13,1,Dylan Tcheng,Carrollton Creekview,66.45,129.27,81.65,165.56,376.48,Single-ply,SBD,M
Boys,67.13,2,Jason You,Carrollton Creekview,66,136.08,90.72,147.42,374.21,Single-ply,SBD,M
Boys,67.13,3,Kolby Davis,Lake Dallas,66,120.2,92.99,149.69,362.87,Single-ply,SBD,M
Boys,67.13,4,Eric Umana,Carrollton Turner,62.82,145.15,70.31,129.27,344.73,Single-ply,SBD,M
Boys,67.13,5,Ricky Villanueva,Carrollton Turner,64.41,129.27,81.65,129.27,340.19,Single-ply,SBD,M
Boys,67.13,6,Caine Vasquez,Lake Dallas,67.13,127.01,61.23,142.88,331.12,Single-ply,SBD,M
Boys,67.13,7,Gonzalo Gaytan,Carrollton Creekview,65.09,117.93,74.84,136.08,328.85,Single-ply,SBD,M
Boys,67.13,8,Josh Rebecek,Lake Dallas,61.92,111.13,74.84,136.08,322.05,Single-ply,SBD,M
Boys,67.13,9,Tye Studhalter,Lake Dallas,66.22,113.4,58.97,124.74,297.1,Single-ply,SBD,M
Boys,67.13,10,Zach Blake,Lake Dallas,61.46,102.06,54.43,113.4,269.89,Single-ply,SBD,M
Boys,67.13,11,Genesis Solomon,Carrollton Turner,66.22,83.91,61.23,113.4,258.55,Single-ply,SBD,M
Boys,74.84,1,Guilermo Saldana,Carrollton Turner,72.8,165.56,106.59,192.78,464.93,Single-ply,SBD,M
Boys,74.84,2,Darion Carter,Carrollton Ranchview,73.71,161.03,102.06,176.9,439.98,Single-ply,SBD,M
Boys,74.84,3,Elias Sanchez,Carrollton Turner,72.12,154.22,104.33,174.63,433.18,Single-ply,SBD,M
Boys,74.84,4,Matt Stockard,Lake Dallas,69.63,161.03,92.99,163.29,417.3,Single-ply,SBD,M
Boys,74.84,5,Jagger McCarty,Lake Dallas,73.26,142.88,81.65,170.1,394.63,Single-ply,SBD,M
Boys,74.84,6,Camdent Driver,Carrollton Creekview,69.85,120.2,83.91,163.29,367.41,Single-ply,SBD,M
Boys,74.84,7,Brian Julian,Carrollton Turner,68.95,127.01,81.65,142.88,351.53,Single-ply,SBD,M
Boys,74.84,8,Christian Gomez,Lake Dallas,68.72,127.01,70.31,142.88,340.19,Single-ply,SBD,M
Boys,74.84,9,Olig Kirksey,Carrollton Creekview,69.63,102.06,74.84,163.29,340.19,Single-ply,SBD,M
Boys,74.84,10,Colby Cruz,Carrollton Creekview,72.12,79.38,68.04,111.13,258.55,Single-ply,SBD,M
Boys,82.1,1,Dalton Anderson,Lake Dallas,82.1,192.78,122.47,208.65,523.9,Single-ply,SBD,M
Boys,82.1,2,Brayson Romine,Carrollton Ranchview,78.02,154.22,79.38,170.1,403.7,Single-ply,SBD,M
Boys,82.1,3,Tristan Myers,Carrollton Creekview,81.65,142.88,102.06,142.88,387.82,Single-ply,SBD,M
Boys,82.1,4,Owen Orozco,Carrollton Creekview,76.66,142.88,88.45,154.22,385.55,Single-ply,SBD,M
Boys,82.1,5,Edwin Silva,Carrollton Turner,79.15,117.93,79.38,165.56,362.87,Single-ply,SBD,M
Boys,82.1,6,Arley Thomas,Carrollton Creekview,80.51,131.54,74.84,151.95,358.34,Single-ply,SBD,M
Boys,82.1,7,Carlos Rodriguez,Lake Dallas,76.66,136.08,79.38,140.61,356.07,Single-ply,SBD,M
Boys,82.1,8,Ruben Ramirez,Carrollton Turner,78.02,127.01,83.91,142.88,353.8,Single-ply,SBD,M
Boys,82.1,9,Dakota Smith,Lake Dallas,81.19,136.08,72.57,142.88,351.53,Single-ply,SBD,M
Boys,82.1,10,Zach Douglas,Carrollton Ranchview,76.88,136.08,81.65,131.54,349.27,Single-ply,SBD,M
Boys,82.1,11,Hernan Rodriguez,Lake Dallas,77.34,117.93,83.91,138.35,340.19,Single-ply,SBD,M
Boys,82.1,12,Angel Ramirez,Carrollton Turner,81.19,136.08,65.77,136.08,337.93,Single-ply,SBD,M
Boys,89.81,1,Jordan Simpson,Carrollton Creekview,89.58,233.6,138.35,235.87,607.81,Single-ply,SBD,M
Boys,89.81,2,Cash Latta,Carrollton Creekview,88,183.7,122.47,176.9,483.08,Single-ply,SBD,M
Boys,89.81,3,DeAndre Hawkins,Carrollton Ranchview,83.01,170.1,102.06,204.12,476.27,Single-ply,SBD,M
Boys,89.81,4,Orlando Garcia,Carrollton Creekview,88.45,158.76,106.59,158.76,424.11,Single-ply,SBD,M
Boys,89.81,5,Jayson Ginn,Carrollton Ranchview,89.81,154.22,92.99,167.83,415.04,Single-ply,SBD,M
Boys,89.81,6,Joshua Bejarano,Carrollton Turner,85.28,136.08,102.06,170.1,408.23,Single-ply,SBD,M
Boys,89.81,7,Garren Schantz,Lake Dallas,83.23,149.69,92.99,163.29,405.97,Single-ply,SBD,M
Boys,89.81,8,Juan Weaver,Carrollton Turner,84.82,158.76,90.72,142.88,392.36,Single-ply,SBD,M
Boys,89.81,9,DL Roberson,Lake Dallas,89.81,145.15,77.11,147.42,369.68,Single-ply,SBD,M
Boys,89.81,10,Logan Nocktonick,Lake Dallas,82.78,124.74,97.52,133.81,356.07,Single-ply,SBD,M
Boys,89.81,11,Kayvon Bernstein,Lake Dallas,83.46,127.01,68.04,136.08,331.12,Single-ply,SBD,M
Boys,89.81,12,Seydina Diop,Carrollton Creekview,86.86,113.4,61.23,136.08,310.71,Single-ply,SBD,M
Boys,99.79,1,Victor Benavides,Carrollton Turner,98.2,204.12,102.06,181.44,487.61,Single-ply,SBD,M
Boys,99.79,2,Jose Hernandez,Carrollton Turner,96.62,181.44,104.33,181.44,467.2,Single-ply,SBD,M
Boys,99.79,3,Colby Hall,Carrollton Turner,95.93,181.44,120.2,161.03,462.66,Single-ply,SBD,M
Boys,99.79,4,Renan Oliveria,Carrollton Ranchview,96.16,147.42,92.99,181.44,421.84,Single-ply,SBD,M
Boys,99.79,5,Andres Castillo,Carrollton Creekview,95.71,147.42,77.11,195.04,419.57,Single-ply,SBD,M
Boys,99.79,6,Trevon Williams,Carrollton Ranchview,96.39,131.54,70.31,140.61,342.46,Single-ply,SBD,M
Boys,99.79,7,Robert Espinosa,Lake Dallas,98.88,106.59,61.23,131.54,299.37,Single-ply,SBD,M
Boys,109.77,1,Jacob Biggerstaff,Lake Dallas,101.6,199.58,133.81,217.72,551.11,Single-ply,SBD,M
Boys,109.77,2,Julian Cueto,Carrollton Creekview,107.95,206.38,127.01,213.19,546.58,Single-ply,SBD,M
Boys,109.77,3,Obed Guerrero,Carrollton Turner,101.38,210.92,129.27,174.63,514.83,Single-ply,SBD,M
Boys,109.77,4,Tyron Rhone,Carrollton Creekview,102.97,181.44,120.2,199.58,501.22,Single-ply,SBD,M
Boys,109.77,5,Brian Gallegos,Carrollton Turner,106.14,172.37,102.06,185.97,460.4,Single-ply,SBD,M
Boys,109.77,6,Steven Rico,Carrollton Turner,108.41,170.1,102.06,181.44,453.59,Single-ply,SBD,M
Boys,109.77,7,Tristan Lafrienier,Carrollton Turner,106.59,136.08,90.72,165.56,392.36,Single-ply,SBD,M
Boys,109.77,8,Dominique Spencer,Carrollton Turner,100.47,120.2,97.52,136.08,353.8,Single-ply,SBD,M
Boys,109.77,9,Jorge Cuesta,Lake Dallas,106.14,120.2,72.57,136.08,328.85,Single-ply,SBD,M
Boys,124.74,1,Nicholas Carbajal,Carrollton Turner,124.28,219.99,151.95,229.06,601.01,Single-ply,SBD,M
Boys,124.74,2,Even Lea,Lake Dallas,112.94,183.7,97.52,204.12,485.34,Single-ply,SBD,M
Boys,124.74,3,Dominick Weston,Lake Dallas,112.26,181.44,115.67,183.7,480.81,Single-ply,SBD,M
Boys,124.74,4,Dayo Odeyingbo,Carrollton Ranchview,110.22,167.83,99.79,190.51,458.13,Single-ply,SBD,M
Boys,124.74,5,Cameron Officer,Carrollton Creekview,112.26,158.76,90.72,197.31,446.79,Single-ply,SBD,M
Boys,124.74,6,Claudio Torres,Carrollton Ranchview,113.4,136.08,81.65,167.83,385.55,Single-ply,SBD,M
Boys,124.74,7,Erwin Cooper,Lake Dallas,116.8,136.08,90.72,124.74,351.53,Single-ply,SBD,M
Boys,124.74+,1,CJ Mendoza,Carrollton Ranchview,141.29,219.99,120.2,238.14,578.33,Single-ply,SBD,M
Boys,124.74+,2,Zalen Long,Lake Dallas,154.22,226.8,133.81,201.85,562.45,Single-ply,SBD,M
Boys,124.74+,3,Max Hahn,Carrollton Ranchview,129.27,204.12,111.13,226.8,542.04,Single-ply,SBD,M
Boys,124.74+,4,Brandon Resendez,Carrollton Turner,136.98,204.12,113.4,181.44,498.95,Single-ply,SBD,M
Boys,124.74+,5,Sach Baetz,Lake Dallas,136.76,183.7,104.33,183.7,471.74,Single-ply,SBD,M
Boys,124.74+,6,Tyler Kay,Lake Dallas,131.77,172.37,102.06,181.44,455.86,Single-ply,SBD,M
Boys,124.74+,DQ,Francisco Quintero,Carrollton Creekview,134.72,190.51,124.74,,,Single-ply,SBD,M
