Division,WeightClassKg,Place,Name,Team,BodyweightKg,Best3SquatKg,Best3BenchKg,Best3DeadliftKg,TotalKg,Equipment,Event,Sex,BirthDate
Boys,51.71,1,Jonah Lopez,San Antonio Memorial,49.44,145.15,65.77,140.61,351.53,Single-ply,SBD,M,
Boys,51.71,2,Derrick Valadez,Center Point,50.17,113.4,68.04,124.74,306.17,Single-ply,SBD,M,
Boys,51.71,3,Tyler Williams,Center Point,46.45,111.13,52.16,95.25,258.55,Single-ply,SBD,M,
Boys,51.71,DQ,Alfred Garcia,San Antonio Southwest,44,113.4,,,,Single-ply,SBD,M,
Boys,55.79,1,Chase Chapa,Port Lavaca Calhoun,53.98,183.7,117.93,217.72,519.36,Single-ply,SBD,M,
Boys,55.79,2,Eric Lopez,Castroville Medina Valley,55.16,174.63,106.59,192.78,474,Single-ply,SBD,M,
Boys,55.79,3,Carlos García,San Antonio Southwest Legacy,55.43,163.29,77.11,167.83,408.23,Single-ply,SBD,M,
Boys,55.79,4,Felix Lopez,San Antonio Southwest,54.79,142.88,79.38,163.29,385.55,Single-ply,SBD,M,
Boys,55.79,5,Luis Perez,San Antonio East Central,55.79,145.15,72.57,140.61,358.34,Single-ply,SBD,M,
Boys,55.79,6,Daniel García,Floresville,55.79,120.2,70.31,149.69,340.19,Single-ply,SBD,M,
Boys,55.79,7,Ryan Jimenez,Crystal City,55.25,127.01,77.11,127.01,331.12,Single-ply,SBD,M,
Boys,55.79,8,Juan Peralta,Del Rio,52.62,102.06,58.97,117.93,278.96,Single-ply,SBD,M,
Boys,55.79,DQ,Hugo Rosales,Del Rio,55.61,113.4,,,,Single-ply,SBD,M,
Boys,55.79,DQ,Cameron Johns,Floresville,55.79,,,,,Single-ply,SBD,M,
Boys,59.87,1,Diego Morales,Castroville Medina Valley,57.61,226.8,117.93,201.85,546.58,Single-ply,SBD,M,
Boys,59.87,2,Jakob Cortez,Port Lavaca Calhoun,58.97,222.26,108.86,213.19,544.31,Single-ply,SBD,M,
Boys,59.87,3,Lupe Ibarra,Floresville,58.97,172.37,111.13,181.44,464.93,Single-ply,SBD,M,
Boys,59.87,4,Tommy Huerta,Crystal City,58.79,163.29,102.06,170.1,435.45,Single-ply,SBD,M,
Boys,59.87,5,Corey Francis,Beeville Jones,59.87,145.15,113.4,161.03,419.57,Single-ply,SBD,M,
Boys,59.87,6,Rene Jimenez,San Antonio Memorial,59.6,149.69,90.72,176.9,417.3,Single-ply,SBD,M,
Boys,59.87,7,John Contreras,Beeville Jones,56.97,151.95,65.77,179.17,396.89,Single-ply,SBD,M,
Boys,59.87,8,Samuel Flores,Del Rio,58.24,122.47,88.45,133.81,344.73,Single-ply,SBD,M,
Boys,67.13,1,Josh Bazan,Castroville Medina Valley,64.95,208.65,117.93,210.92,537.51,Single-ply,SBD,M,
Boys,67.13,2,Vincent Villanueva,Floresville,65.5,210.92,108.86,190.51,510.29,Single-ply,SBD,M,
Boys,67.13,3,Ethan Bierschwale,San Antonio East Central,65.59,192.78,102.06,190.51,485.34,Single-ply,SBD,M,
Boys,67.13,4,Alex Villarreal,San Antonio Memorial,66.86,181.44,102.06,192.78,476.27,Single-ply,SBD,M,
Boys,67.13,5,Angel Rodríguez,Crystal City,66.04,188.24,108.86,176.9,474,Single-ply,SBD,M,
Boys,67.13,6,Gavin LaFleur,Floresville,60.78,172.37,95.25,158.76,426.38,Single-ply,SBD,M,
Boys,67.13,7,Virgil Luna,Crystal City,65.5,156.49,97.52,172.37,426.38,Single-ply,SBD,M,
Boys,67.13,8,Eh Ler Moo,Port Lavaca Calhoun,63.05,140.61,79.38,165.56,385.55,Single-ply,SBD,M,
Boys,67.13,9,Guadalupe Tovar,San Antonio Southwest Legacy,66.77,136.08,88.45,151.95,376.48,Single-ply,SBD,M,
Boys,67.13,DQ,Ernesto Rangel,San Antonio Southwest Legacy,66.13,226.8,147.42,,,Single-ply,SBD,M,
Boys,67.13,DQ,Hector Frausto,Del Rio,64.14,154.22,102.06,,,Single-ply,SBD,M,
Boys,67.13,DQ,Fabian Bazan,Castroville Medina Valley,64.86,,,,,Single-ply,SBD,M,
Boys,74.84,1,Daniel Wyrwich,San Antonio East Central,73.12,195.04,108.86,201.85,505.76,Single-ply,SBD,M,
Boys,74.84,2,Eduardo Garcia-Ocampo,San Antonio East Central,72.39,192.78,106.59,204.12,503.49,Single-ply,SBD,M,
Boys,74.84,3,Jose Raynaga,Port Lavaca Calhoun,73.12,192.78,106.59,197.31,496.68,Single-ply,SBD,M,
Boys,74.84,4,Samuel Torres,Port Lavaca Calhoun,73.84,195.04,117.93,183.7,496.68,Single-ply,SBD,M,
Boys,74.84,5,Sammy Bustamante,Center Point,67.68,197.31,104.33,188.24,489.88,Single-ply,SBD,M,
Boys,74.84,6,Zack Nelson,Floresville,68.67,170.1,120.2,170.1,460.4,Single-ply,SBD,M,
Boys,74.84,7,Micheal Garza,San Antonio Southwest,72.94,183.7,92.99,174.63,451.32,Single-ply,SBD,M,
Boys,74.84,8,Jesus Tellez,Crystal City,73.48,154.22,90.72,172.37,417.3,Single-ply,SBD,M,
Boys,74.84,DQ,JR Bustamante,Center Point,72.94,185.97,,,,Single-ply,SBD,M,
Boys,74.84,DQ,Ron Resendiz,San Antonio Memorial,74.84,,,,,Single-ply,SBD,M,
Boys,74.84,DQ,Hector Elizondo,San Antonio Southwest,74.84,,,,,Single-ply,SBD,M,
Boys,82.1,1,Ryan Pena,San Antonio Southwest,80.74,226.8,145.15,226.8,598.74,Single-ply,SBD,M,
Boys,82.1,2,Xavier Smith,Port Lavaca Calhoun,80.83,204.12,122.47,215.46,542.04,Single-ply,SBD,M,
Boys,82.1,3,Leroy Lima,Floresville,79.02,197.31,117.93,210.92,526.17,Single-ply,SBD,M,
Boys,82.1,4,Hector Gomez,Del Rio,81.65,199.58,127.01,188.24,514.83,Single-ply,SBD,M,
Boys,82.1,5,Tristan Real,San Antonio East Central,80.38,204.12,117.93,190.51,512.56,Single-ply,SBD,M,
Boys,82.1,6,Caden Bosanko,San Antonio East Central,80.83,222.26,106.59,174.63,503.49,Single-ply,SBD,M,
Boys,82.1,7,Raul Maldonado,Crystal City,80.65,172.37,104.33,170.1,446.79,Single-ply,SBD,M,
Boys,82.1,8,R Tavius Gonzales,San Antonio Southwest Legacy,78.11,147.42,113.4,174.63,435.45,Single-ply,SBD,M,
Boys,82.1,9,Steve Arreola,Center Point,78.93,183.7,68.04,163.29,415.04,Single-ply,SBD,M,
Boys,82.1,10,Gilbert Martinez,Crystal City,81.28,142.88,65.77,142.88,351.53,Single-ply,SBD,M,
Boys,82.1,DQ,Victor Barrera,San Antonio Southside,81.19,226.8,,,,Single-ply,SBD,M,
Boys,82.1,DQ,Haiden Hass,Center Point,82.1,,,,,Single-ply,SBD,M,
Boys,89.81,1,David Guajardo,San Antonio East Central,88.54,272.16,161.03,281.23,714.41,Single-ply,SBD,M,
Boys,89.81,2,Jaime Rios,Port Lavaca Calhoun,88.9,278.96,174.63,251.74,705.34,Single-ply,SBD,M,
Boys,89.81,3,Micah Young,San Antonio Southside,86,254.01,124.74,240.4,619.15,Single-ply,SBD,M,
Boys,89.81,4,Seth Bullard,Castroville Medina Valley,88,240.4,142.88,222.26,605.55,Single-ply,SBD,M,
Boys,89.81,5,Martin Rios,Crystal City,89.27,244.94,145.15,215.46,605.55,Single-ply,SBD,M,
Boys,89.81,6,Isaac Garcia,Crystal City,88.36,238.14,129.27,231.33,598.74,Single-ply,SBD,M,
Boys,89.81,7,Joe D Montoya,Beeville Jones,89.45,229.06,149.69,192.78,571.53,Single-ply,SBD,M,
Boys,89.81,8,Marshall Clark,San Antonio East Central,88.63,226.8,133.81,208.65,569.26,Single-ply,SBD,M,
Boys,89.81,9,Marcus Gutierrez,Beeville Jones,86.45,206.38,108.86,208.65,523.9,Single-ply,SBD,M,
Boys,89.81,10,Jason Coronado,Floresville,89.09,204.12,97.52,219.99,521.63,Single-ply,SBD,M,
Boys,89.81,11,Abel Bustamante,Center Point,85.64,210.92,88.45,195.04,494.42,Single-ply,SBD,M,
Boys,89.81,12,Bryan Arreola,Center Point,88.63,174.63,102.06,199.58,476.27,Single-ply,SBD,M,
Boys,89.81,13,Matthew Salinas,Beeville Jones,83.55,172.37,115.67,183.7,471.74,Single-ply,SBD,M,
Boys,89.81,14,Josh Munoz,Castroville Medina Valley,88,179.17,90.72,183.7,453.59,Single-ply,SBD,M,
Boys,89.81,15,Carlos Reyes,Beeville Jones,85,156.49,108.86,131.54,396.89,Single-ply,SBD,M,
Boys,89.81,DQ,Jared Sandoval,San Antonio Memorial,89.81,,,,,Single-ply,SBD,M,
Boys,89.81,DQ,Salomon Vasquez,San Antonio Southwest Legacy,83.91,,,,,Single-ply,SBD,M,
Boys,99.79,1,Ambrose Patton,Beeville Jones,98.34,249.48,145.15,235.87,630.49,Single-ply,SBD,M,
Boys,99.79,2,Tristan Medrano,Del Rio,98.43,215.46,151.95,226.8,594.21,Single-ply,SBD,M,
Boys,99.79,3,Jake Arroyos,Beeville Jones,98.16,229.06,142.88,219.99,591.94,Single-ply,SBD,M,
Boys,99.79,4,Joseph Beebe,Port Lavaca Calhoun,94.08,226.8,136.08,226.8,589.67,Single-ply,SBD,M,
Boys,99.79,5,Travis Pehl,San Antonio East Central,95.8,226.8,149.69,213.19,589.67,Single-ply,SBD,M,
Boys,99.79,6,Martelo Villarreal,Beeville Jones,94.89,217.72,145.15,197.31,560.19,Single-ply,SBD,M,
Boys,99.79,7,Cody Wilkerson,San Antonio Southside,97.43,226.8,113.4,208.65,548.85,Single-ply,SBD,M,
Boys,99.79,8,Alex Flood,Port Lavaca Calhoun,97.43,204.12,122.47,208.65,535.24,Single-ply,SBD,M,
Boys,99.79,9,Fabian Alvarez,San Antonio Southwest Legacy,94.17,195.04,106.59,226.8,528.44,Single-ply,SBD,M,
Boys,99.79,10,Jake Laque,Center Point,92.9,229.06,108.86,183.7,521.63,Single-ply,SBD,M,
Boys,99.79,11,Corey Poole,Beeville Jones,94.35,190.51,124.74,185.97,501.22,Single-ply,SBD,M,
Boys,99.79,12,Alex Gaona,Beeville Jones,97.16,167.83,120.2,181.44,469.47,Single-ply,SBD,M,
Boys,99.79,13,Hipolito Salazar,San Antonio Southwest,90.36,158.76,90.72,167.83,417.3,Single-ply,SBD,M,
Boys,99.79,DQ,Alejandro Flores,Del Rio,91.63,,,,,Single-ply,SBD,M,
Boys,99.79,DQ,Francisco Osoria,San Antonio Memorial,99.79,,,,,Single-ply,SBD,M,
Boys,109.77,1,Geo Villafane,Castroville Medina Valley,108.86,283.5,172.37,226.8,682.66,Single-ply,SBD,M,
Boys,109.77,2,Alfonzo Mata,Crystal City,108.59,265.35,158.76,238.14,662.24,Single-ply,SBD,M,
Boys,109.77,3,Abraham Rosas,Del Rio,107.41,256.28,138.35,244.94,639.57,Single-ply,SBD,M,
Boys,109.77,4,Rene De Hoyos,San Antonio Southwest Legacy,106.5,240.4,136.08,204.12,580.6,Single-ply,SBD,M,
Boys,109.77,5,Marcus Zamora,San Antonio East Central,109.77,219.99,149.69,208.65,578.33,Single-ply,SBD,M,
Boys,109.77,6,Nicolas Velez,San Antonio Southwest Legacy,108.86,195.04,147.42,215.46,557.92,Single-ply,SBD,M,
Boys,109.77,7,Kevin Ceineceros,Center Point,103.42,238.14,108.86,192.78,539.77,Single-ply,SBD,M,
Boys,109.77,8,Issac Salazar,Del Rio,108.68,201.85,122.47,210.92,535.24,Single-ply,SBD,M,
Boys,109.77,9,Brent Gillespie,San Antonio Southwest,104.33,206.38,113.4,204.12,523.9,Single-ply,SBD,M,
Boys,109.77,10,Reymundo Arellano,San Antonio Memorial,109.77,156.49,106.59,167.83,430.91,Single-ply,SBD,M,
Boys,109.77,DQ,Jerry Kirkpatrick,San Antonio Southwest,103.42,,,,,Single-ply,SBD,M,
Boys,109.77,DQ,Joe Vega,Crystal City,109.68,247.21,174.63,,,Single-ply,SBD,M,
Boys,109.77,DQ,Clark Griffin,San Antonio Southwest,109.77,,,,,Single-ply,SBD,M,
Boys,109.77,DQ,Eric Diaz,San Antonio Southside,104.33,,,,,Single-ply,SBD,M,
Boys,124.74,1,Michael Pinones,San Antonio East Central,118.3,226.8,138.35,247.21,612.35,Single-ply,SBD,M,
Boys,124.74,2,Paul Zertuche,Castroville Medina Valley,117.03,226.8,151.95,217.72,596.47,Single-ply,SBD,M,
Boys,124.74,3,Josue Reyes,Del Rio,114.94,238.14,129.27,224.53,591.94,Single-ply,SBD,M,
Boys,124.74,4,Fernando Martinez,San Antonio Southwest Legacy,123.83,249.48,124.74,213.19,587.4,Single-ply,SBD,M,
Boys,124.74,5,Anthony Huizar,Del Rio,121.29,206.38,129.27,197.31,532.97,Single-ply,SBD,M,
Boys,124.74,6,Joshua Serenil,Floresville,114.58,217.72,111.13,201.85,530.7,Single-ply,SBD,M,
Boys,124.74,7,Mike Haese,Center Point,110.68,192.78,86.18,201.85,480.81,Single-ply,SBD,M,
Boys,124.74,DQ,Nathan Palacio,San Antonio Memorial,124.74,,,,,Single-ply,SBD,M,
Boys,124.74,DQ,Ivan Garcia,San Antonio Memorial,124.74,,,,,Single-ply,SBD,M,
Boys,124.74,DQ,Matt Polasek,Floresville,124.74,,,,,Single-ply,SBD,M,
Boys,124.74+,1,Spencer Payne,Castroville Medina Valley,128.37,319.78,213.19,265.35,798.32,Single-ply,SBD,M,
Boys,124.74+,2,Damian Chavez,Port Lavaca Calhoun,141.43,310.71,145.15,219.99,675.85,Single-ply,SBD,M,
Boys,124.74+,3,Jesus Borroel,San Antonio Memorial,144.7,272.16,138.35,251.74,662.24,Single-ply,SBD,M,
Boys,124.74+,4,Matt Garces,Castroville Medina Valley,181.44,294.84,170.1,181.44,646.37,Single-ply,SBD,M,
Boys,124.74+,5,Daniel García,Port Lavaca Calhoun,145.24,272.16,136.08,219.99,628.23,Single-ply,SBD,M,
Boys,124.74+,6,Isaiah Ulibarri,San Antonio Southwest Legacy,127.46,258.55,133.81,224.53,616.89,Single-ply,SBD,M,
Boys,124.74+,7,Adam Delgado,San Antonio Southwest,135.9,190.51,124.74,199.58,514.83,Single-ply,SBD,M,
Boys,124.74+,8,Manuel Belmarez,San Antonio Memorial,125.19,204.12,127.01,172.37,503.49,Single-ply,SBD,M,
Boys,124.74+,9,Jaidyn Birts,San Antonio Southwest,136.71,190.51,97.52,197.31,485.34,Single-ply,SBD,M,
Boys,124.74+,10,Juan Huizar,San Antonio Southwest Legacy,129.18,195.04,97.52,149.69,442.25,Single-ply,SBD,M,
Boys,124.74+,DQ,Trace Ferguson,Castroville Medina Valley,126.55,,,,,Single-ply,SBD,M,
