Division,WeightClassKg,Place,Name,Team,BodyweightKg,Best3SquatKg,Best3BenchKg,Best3DeadliftKg,TotalKg,Equipment,Event,Sex,BirthDate
Boys,51.71,1,Vandon Lassiter,Paris North Lamar,51.44,124.74,70.31,124.74,319.78,Single-ply,SBD,M,
Boys,51.71,2,Jose Martinez,Quinlan Ford,48.44,120.2,56.7,136.08,312.98,Single-ply,SBD,M,
Boys,51.71,3,Avery Roberts,Brownsboro,47.81,88.45,47.63,95.25,231.33,Single-ply,SBD,M,
Boys,51.71,4,Austin McCain,Sulphur Springs,43.91,68.04,45.36,90.72,204.12,Single-ply,SBD,M,
Boys,51.71,DQ,Colton Cowan,Gladewater Union Grove,49.08,79.38,45.36,,,Single-ply,SBD,M,
Boys,55.79,1,Bryan Rodriquez,Greenville,54.88,185.97,99.79,176.9,462.66,Single-ply,SBD,M,
Boys,55.79,2,Jakovi Dabbs,Paris,54.61,158.76,83.91,165.56,408.23,Single-ply,SBD,M,
Boys,55.79,3,Alan Landazuri,Quinlan Ford,54.07,151.95,95.25,156.49,403.7,Single-ply,SBD,M,
Boys,55.79,4,Steven Cantu,Brownsboro,54.88,147.42,95.25,145.15,387.82,Single-ply,SBD,M,
Boys,55.79,5,Leonal Padron,Quinlan Ford,55.79,142.88,70.31,156.49,369.68,Single-ply,SBD,M,
Boys,55.79,6,Anthony Cuellar,Brownsboro,54.79,145.15,79.38,140.61,365.14,Single-ply,SBD,M,
Boys,55.79,7,Logan Jensen,Brownsboro,55.7,90.72,65.77,127.01,283.5,Single-ply,SBD,M,
Boys,55.79,8,Charlie Goodman,Gladewater Union Grove,52.8,108.86,52.16,113.4,274.42,Single-ply,SBD,M,
Boys,55.79,9,Journey Sweet,Paris,53.07,81.65,58.97,104.33,244.94,Single-ply,SBD,M,
Boys,59.87,1,Blayce Lassiter,Paris North Lamar,59.24,179.17,81.65,170.1,430.91,Single-ply,SBD,M,
Boys,59.87,2,Deuntre Adamson,Paris,58.33,151.95,92.99,179.17,424.11,Single-ply,SBD,M,
Boys,59.87,3,Darwin Acosta,Quinlan Ford,59.6,158.76,83.91,172.37,415.04,Single-ply,SBD,M,
Boys,59.87,4,Jeremy Griffin,Quinlan Ford,58.79,151.95,86.18,165.56,403.7,Single-ply,SBD,M,
Boys,59.87,5,JaMichael Harris,Greenville,57.97,158.76,83.91,158.76,401.43,Single-ply,SBD,M,
Boys,59.87,6,Avodrian King,Mesquite Poteet,59.78,133.81,97.52,154.22,385.55,Single-ply,SBD,M,
Boys,59.87,7,Luke Elrod,Paris North Lamar,57.15,136.08,79.38,163.29,378.75,Single-ply,SBD,M,
Boys,59.87,8,Everitt Eccles,Brownsboro,58.79,133.81,83.91,142.88,360.61,Single-ply,SBD,M,
Boys,59.87,9,Lane Davis,Mount Pleasant Chapel Hill,57.61,115.67,77.11,129.27,322.05,Single-ply,SBD,M,
Boys,59.87,10,Ryan Bell,Paris North Lamar,56.34,102.06,58.97,129.27,290.3,Single-ply,SBD,M,
Boys,59.87,DQ,Isreal Ramirez,Emory Rains,59.42,117.93,,,,Single-ply,SBD,M,
Boys,59.87,DQ,Stone Smith,Brownsboro,59.33,124.74,,,,Single-ply,SBD,M,
Boys,67.13,1,Jesse Carrillo,Sulphur Springs,66.59,192.78,120.2,201.85,514.83,Single-ply,SBD,M,
Boys,67.13,2,GiTaeus Young,Paris,65.77,192.78,97.52,192.78,483.08,Single-ply,SBD,M,
Boys,67.13,3,Alejandro Vasquez,Greenville,66.13,195.04,102.06,181.44,478.54,Single-ply,SBD,M,
Boys,67.13,4,Hayden Justice,Paris North Lamar,65.95,183.7,115.67,174.63,474,Single-ply,SBD,M,
Boys,67.13,5,Vincent Miller,Gladewater Union Grove,65.86,183.7,102.06,158.76,444.52,Single-ply,SBD,M,
Boys,67.13,6,Landon Fretwell,Brownsboro,63.68,154.22,90.72,167.83,412.77,Single-ply,SBD,M,
Boys,67.13,7,Juan Munoz,Quinlan Ford,66.22,163.29,83.91,161.03,408.23,Single-ply,SBD,M,
Boys,67.13,8,Johnathan Jones,Paris,61.23,163.29,74.84,165.56,403.7,Single-ply,SBD,M,
Boys,67.13,9,Jesse Crutcher,Kaufman,63.41,158.76,77.11,167.83,403.7,Single-ply,SBD,M,
Boys,67.13,10,Brenden Fink,Sulphur Springs,67.13,142.88,79.38,163.29,385.55,Single-ply,SBD,M,
Boys,67.13,11,DeAndre Doss,Diana New Diana,64.77,147.42,79.38,151.95,378.75,Single-ply,SBD,M,
Boys,67.13,12,Nathan Huckabay,Gladewater Union Grove,64.23,136.08,92.99,142.88,371.95,Single-ply,SBD,M,
Boys,67.13,13,Kadyn McDonald,Paris,66.41,149.69,74.84,145.15,369.68,Single-ply,SBD,M,
Boys,67.13,14,Amir Fells,Mesquite Poteet,63.59,138.35,90.72,138.35,367.41,Single-ply,SBD,M,
Boys,67.13,15,William Pederson,Kemp,62.87,127.01,95.25,140.61,362.87,Single-ply,SBD,M,
Boys,67.13,16,Landon Kelley,Kaufman,65.5,117.93,79.38,145.15,342.46,Single-ply,SBD,M,
Boys,67.13,17,Julian Santoyo,Kaufman,67.13,117.93,77.11,136.08,331.12,Single-ply,SBD,M,
Boys,67.13,18,Cameron Aguilar,Gladewater Union Grove,64.5,106.59,81.65,136.08,324.32,Single-ply,SBD,M,
Boys,67.13,19,Brayden McCormack,Paris North Lamar,64.86,124.74,72.57,117.93,315.25,Single-ply,SBD,M,
Boys,67.13,20,Carson Shott,Gladewater Union Grove,65.95,106.59,72.57,113.4,292.57,Single-ply,SBD,M,
Boys,74.84,1,Jose Acosta,Quinlan Ford,73.12,213.19,127.01,192.78,532.97,Single-ply,SBD,M,
Boys,74.84,2,Devin Walters,Mount Pleasant Chapel Hill,73.48,185.97,120.2,197.31,503.49,Single-ply,SBD,M,
Boys,74.84,3,Kyle Stewart,Greenville,68.76,185.97,117.93,195.04,498.95,Single-ply,SBD,M,
Boys,74.84,4,Trent McBride,Kemp,74.03,192.78,108.86,181.44,483.08,Single-ply,SBD,M,
Boys,74.84,5,Jesus Mendez,Emory Rains,68.95,188.24,99.79,179.17,467.2,Single-ply,SBD,M,
Boys,74.84,6,Corbin Martin,Paris,71.49,158.76,108.86,190.51,458.13,Single-ply,SBD,M,
Boys,74.84,7,Reggie Ellis,Paris,72.12,161.03,99.79,181.44,442.25,Single-ply,SBD,M,
Boys,74.84,8,Matthew Wisdom,Quinlan Ford,72.57,183.7,90.72,167.83,442.25,Single-ply,SBD,M,
Boys,74.84,9,Donavan Throneberry,Emory Rains,74.84,181.44,104.33,149.69,435.45,Single-ply,SBD,M,
Boys,74.84,10,Patrick Roland,Paris,72.76,145.15,83.91,154.22,383.29,Single-ply,SBD,M,
Boys,74.84,11,Carter Smith,Gladewater Union Grove,68.31,138.35,92.99,142.88,374.21,Single-ply,SBD,M,
Boys,74.84,12,Joe Scott,Brownsboro,74.57,111.13,68.04,117.93,297.1,Single-ply,SBD,M,
Boys,74.84,13,Dustin Holbert,Paris North Lamar,68.58,56.7,34.02,86.18,176.9,Single-ply,SBD,M,
Boys,74.84,NS,Samuel Netro,Mount Pleasant Chapel Hill,,,,,,Single-ply,SBD,M,
Boys,74.84,DQ,Davy Branscom,Gladewater Union Grove,74.84,170.1,,,,Single-ply,SBD,M,
Boys,74.84,DQ,Matthew Bower,Gladewater Union Grove,74.03,,108.86,154.22,,Single-ply,SBD,M,
Boys,82.1,1,Dustin Newman,Mount Pleasant Chapel Hill,80.92,260.82,151.95,242.67,655.44,Single-ply,SBD,M,
Boys,82.1,2,Jesus Portillo,Kemp,80.65,235.87,138.35,199.58,573.79,Single-ply,SBD,M,
Boys,82.1,3,Zane Freeman,Diana New Diana,81.01,210.92,124.74,219.99,555.65,Single-ply,SBD,M,
Boys,82.1,4,Colton Gable,Emory Rains,77.56,215.46,122.47,208.65,546.58,Single-ply,SBD,M,
Boys,82.1,5,Ryan Carrillo #2,Sulphur Springs,81.01,204.12,129.27,192.78,526.17,Single-ply,SBD,M,
Boys,82.1,6,Dylan Dodson,Diana New Diana,76.66,210.92,106.59,204.12,521.63,Single-ply,SBD,M,
Boys,82.1,7,Aaron Carrillo,Quinlan Ford,76.48,188.24,115.67,197.31,501.22,Single-ply,SBD,M,
Boys,82.1,8,Jose Villanueva,Kemp,75.66,199.58,115.67,170.1,485.34,Single-ply,SBD,M,
Boys,82.1,9,David Walters,Mount Pleasant Chapel Hill,78.2,174.63,115.67,192.78,483.08,Single-ply,SBD,M,
Boys,82.1,10,Kaleb Hernandez,Brownsboro,79.47,183.7,113.4,183.7,480.81,Single-ply,SBD,M,
Boys,82.1,11,Matthew Mitchel,Sulphur Springs,79.65,181.44,102.06,195.04,478.54,Single-ply,SBD,M,
Boys,82.1,12,Wyatt Smithson,Sulphur Springs,82.1,190.51,97.52,170.1,458.13,Single-ply,SBD,M,
Boys,82.1,13,D'Shaud Turner,Mesquite Poteet,76.66,165.56,95.25,170.1,430.91,Single-ply,SBD,M,
Boys,82.1,14,Jimmmy Turner,Kemp,78.02,147.42,104.33,172.37,424.11,Single-ply,SBD,M,
Boys,82.1,15,Reese Chaffin,Paris North Lamar,75.66,138.35,86.18,151.95,376.48,Single-ply,SBD,M,
Boys,82.1,16,Logan McClunn,Sulphur Springs,79.47,124.74,81.65,156.49,362.87,Single-ply,SBD,M,
Boys,82.1,17,Clayton Boykin,Sulphur Springs,81.37,117.93,83.91,142.88,344.73,Single-ply,SBD,M,
Boys,82.1,18,Benji Walters,Kemp,79.65,124.74,70.31,142.88,337.93,Single-ply,SBD,M,
Boys,82.1,DQ,Cannon Cowan,Gladewater Union Grove,80.92,,,,,Single-ply,SBD,M,
Boys,89.81,1,Tucker Moman,Greenville,88.18,249.48,136.08,281.23,666.78,Single-ply,SBD,M,
Boys,89.81,2,Giancarlos Belteton,Greenville,87.18,258.55,158.76,219.99,637.3,Single-ply,SBD,M,
Boys,89.81,3,Blake Holloway,Mesquite Poteet,87.91,206.38,122.47,226.8,555.65,Single-ply,SBD,M,
Boys,89.81,4,Jonny Knighton,Emory Rains,87.09,192.78,142.88,181.44,517.1,Single-ply,SBD,M,
Boys,89.81,5,Keelan Clark,Diana New Diana,89.27,190.51,111.13,210.92,512.56,Single-ply,SBD,M,
Boys,89.81,6,Jailen Franklin,Paris,83.73,188.24,113.4,195.04,496.68,Single-ply,SBD,M,
Boys,89.81,7,Chandler Sikes,Paris,89.81,183.7,102.06,192.78,478.54,Single-ply,SBD,M,
Boys,89.81,8,Blake Martinez,Mesquite Poteet,84.82,181.44,122.47,172.37,476.27,Single-ply,SBD,M,
Boys,89.81,9,Jaden Wilson,Diana New Diana,88.63,176.9,124.74,174.63,476.27,Single-ply,SBD,M,
Boys,89.81,10,Josh Martinez,Mesquite Poteet,88.09,174.63,106.59,170.1,451.32,Single-ply,SBD,M,
Boys,89.81,11,Garrison Conner,Diana New Diana,86.73,158.76,97.52,183.7,439.98,Single-ply,SBD,M,
Boys,89.81,12,Justin Neal,Kaufman,87.63,136.08,74.84,158.76,369.68,Single-ply,SBD,M,
Boys,89.81,13,Nicholas Olvera,Kaufman,85.37,117.93,95.25,154.22,367.41,Single-ply,SBD,M,
Boys,89.81,14,Kolton Crawford,Emory Rains,89.36,111.13,74.84,154.22,340.19,Single-ply,SBD,M,
Boys,89.81,DQ,Tyler Rodgers,Gladewater Union Grove,88.45,183.7,,,,Single-ply,SBD,M,
Boys,99.79,1,Colt Cooper,Quinlan Ford,99.25,283.5,174.63,263.08,721.21,Single-ply,SBD,M,
Boys,99.79,2,George Greenway,Sulphur Springs,90.36,290.3,136.08,260.82,687.19,Single-ply,SBD,M,
Boys,99.79,3,Kaden Roden,Quinlan Ford,93.53,208.65,136.08,199.58,544.31,Single-ply,SBD,M,
Boys,99.79,4,Chad Maynard,Sulphur Springs,96.07,229.06,111.13,192.78,532.97,Single-ply,SBD,M,
Boys,99.79,5,Trent Tennon,Paris,93.35,190.51,108.86,219.99,519.36,Single-ply,SBD,M,
Boys,99.79,6,Caden Lambert,Diana New Diana,98.34,192.78,108.86,204.12,505.76,Single-ply,SBD,M,
Boys,99.79,7,LaJaylan Brown,Mesquite Poteet,93.71,224.53,104.33,167.83,496.68,Single-ply,SBD,M,
Boys,99.79,8,Brandton Cooksey,Mesquite Poteet,93.35,176.9,113.4,188.24,478.54,Single-ply,SBD,M,
Boys,99.79,9,Caleb Leija,Greenville,98.07,188.24,106.59,174.63,469.47,Single-ply,SBD,M,
Boys,99.79,10,Elisha Higginbotham,Diana New Diana,96.34,183.7,102.06,174.63,460.4,Single-ply,SBD,M,
Boys,99.79,11,Grayson Craine,Kemp,92.71,188.24,102.06,165.56,455.86,Single-ply,SBD,M,
Boys,99.79,12,Tanner Mullins,Kemp,92.62,154.22,90.72,185.97,430.91,Single-ply,SBD,M,
Boys,99.79,13,Maverick Brown,Paris North Lamar,95.53,147.42,102.06,149.69,399.16,Single-ply,SBD,M,
Boys,99.79,14,Remington Brown,Paris North Lamar,93.44,149.69,90.72,149.69,390.09,Single-ply,SBD,M,
Boys,99.79,15,Dominic Pecina,Mesquite Poteet,90.81,142.88,102.06,124.74,369.68,Single-ply,SBD,M,
Boys,99.79,16,Joseph Nelson,Kaufman,93.08,140.61,79.38,136.08,356.07,Single-ply,SBD,M,
Boys,99.79,17,Hunter Olivarez,Emory Rains,96.62,102.06,52.16,102.06,256.28,Single-ply,SBD,M,
Boys,99.79,DQ,Kaiden O'Neal,Paris North Lamar,99.34,,,,,Single-ply,SBD,M,
Boys,99.79,DQ,Reed Cooper,Gladewater Union Grove,94.26,,,,,Single-ply,SBD,M,
Boys,109.77,1,Harley Manders,Kemp,102.24,229.06,140.61,190.51,560.19,Single-ply,SBD,M,
Boys,109.77,2,Daniel Jimenez,Greenville,104.96,231.33,113.4,206.38,551.11,Single-ply,SBD,M,
Boys,109.77,3,Jordon Montalvo,Emory Rains,101.15,208.65,117.93,190.51,517.1,Single-ply,SBD,M,
Boys,109.77,4,Somjai Pryor,Sulphur Springs,102.97,199.58,108.86,190.51,498.95,Single-ply,SBD,M,
Boys,109.77,5,Caleb Longnecker,Kaufman,108.32,124.74,106.59,158.76,390.09,Single-ply,SBD,M,
Boys,109.77,6,Sunney Adams,Kaufman,107.14,142.88,90.72,138.35,371.95,Single-ply,SBD,M,
Boys,109.77,7,Morgan Thrapp,Mount Pleasant Chapel Hill,107.59,136.08,77.11,138.35,351.53,Single-ply,SBD,M,
Boys,109.77,DQ,Quincy Watson,Brownsboro,107.05,,,,,Single-ply,SBD,M,
Boys,124.74,1,Daniel Bueno,Greenville,124.74,263.08,142.88,229.06,635.03,Single-ply,SBD,M,
Boys,124.74,2,Willie Henderson,Mesquite Poteet,119.57,244.94,142.88,231.33,619.15,Single-ply,SBD,M,
Boys,124.74,3,Satchel Swain,Paris,121.93,244.94,149.69,213.19,607.81,Single-ply,SBD,M,
Boys,124.74,4,Dalton Barker,Emory Rains,118.84,210.92,136.08,213.19,560.19,Single-ply,SBD,M,
Boys,124.74,5,Ty Jacobs,Emory Rains,117.93,231.33,129.27,181.44,542.04,Single-ply,SBD,M,
Boys,124.74,6,Bryce Hollenshead,Paris North Lamar,117.84,204.12,111.13,188.24,503.49,Single-ply,SBD,M,
Boys,124.74,7,Hayden Buchannan,Emory Rains,120.66,226.8,106.59,170.1,503.49,Single-ply,SBD,M,
Boys,124.74,8,Alec Mullins,Kemp,111.22,163.29,111.13,215.46,489.88,Single-ply,SBD,M,
Boys,124.74,9,Will Claugue,Brownsboro,123.2,188.24,138.35,156.49,483.08,Single-ply,SBD,M,
Boys,124.74,10,Paul Ebbert,Kemp,124.74,185.97,102.06,181.44,469.47,Single-ply,SBD,M,
Boys,124.74,11,Braeden Wilkins,Paris North Lamar,119.02,185.97,111.13,163.29,460.4,Single-ply,SBD,M,
Boys,124.74,12,Joshua Sutton,Sulphur Springs,114.67,147.42,106.59,170.1,424.11,Single-ply,SBD,M,
Boys,124.74,13,Presley Hawkins,Kaufman,112.22,138.35,86.18,131.54,356.07,Single-ply,SBD,M,
Boys,124.74,14,Abraham Ortega,Mesquite Poteet,117.48,147.42,88.45,120.2,356.07,Single-ply,SBD,M,
Boys,124.74,15,Issac Maulupe,Mesquite Poteet,123.83,124.74,90.72,131.54,347,Single-ply,SBD,M,
Boys,124.74+,1,Elion Perea,Kaufman,138.07,240.4,147.42,217.72,605.55,Single-ply,SBD,M,
Boys,124.74+,2,James Robles,Greenville,127.91,192.78,102.06,170.1,464.93,Single-ply,SBD,M,
Boys,124.74+,3,Garrick Felsberg,Paris North Lamar,132,181.44,113.4,158.76,453.59,Single-ply,SBD,M,
Boys,124.74+,4,Ryan Giberson,Paris North Lamar,174.27,138.35,83.91,149.69,371.95,Single-ply,SBD,M,
Boys,124.74+,5,Javen Aguilar,Mesquite Poteet,146.24,140.61,88.45,117.93,347,Single-ply,SBD,M,
Boys,124.74+,DQ,Luke Hohenberger,Paris North Lamar,140.07,,,,,Single-ply,SBD,M,
