Name,WeightClassKg,Division,AgeRange,Sex,Age,Country,BodyweightKg,Bench1Kg,Bench2Kg,Bench3Kg,Best3BenchKg,Bench4Kg,Best3DeadliftKg,Deadlift4Kg,TotalKg,Event,Equipment,Place
Paul Kaiser,56,Submasters 34-39,34-39,M,,,,,,,105,112.5,,,105,B,Multi-ply,1
Mike O'Hora,67.5,Submasters 34-39,34-39,M,,,,,,,185,187.5,,,185,B,Multi-ply,1
Steve Ward,75,Submasters 34-39,34-39,M,,,,,,,190,,,,190,B,Multi-ply,1
Eric Lumpkin,75,Submasters 34-39,34-39,M,,,,,,,167.5,,,,167.5,B,Multi-ply,2
Vilmar Oliveira,75,Submasters 34-39,34-39,M,,Brazil,,,,,165,,,,165,B,Multi-ply,3
Sakari Selkäinaho,75,Submasters 34-39,34-39,M,,,,,,,160,,,,160,B,Multi-ply,4
Bob Bish,75,Submasters 34-39,34-39,M,,,,,,,160,,,,160,B,Multi-ply,5
Ashok Sharma,75,Submasters 34-39,34-39,M,,,,,,,155,,,,155,B,Multi-ply,6
Steve Hodge,75,Submasters 34-39,34-39,M,,,,,,,132.5,,,,132.5,B,Multi-ply,7
Allen Berry,82.5,Submasters 34-39,34-39,M,,,,,,,180,,,,180,B,Multi-ply,1
Dan Belanger,82.5,Submasters 34-39,34-39,M,,,,,,,170,,,,170,B,Multi-ply,2
Frank Peters,82.5,Submasters 34-39,34-39,M,,,,,,,,,,,,B,Multi-ply,DQ
Dean Iverson,90,Submasters 34-39,34-39,M,,,,,,,210,,,,210,B,Multi-ply,1
Johnny Hernandez,90,Submasters 34-39,34-39,M,,,,,,,200,,,,200,B,Multi-ply,2
Craig Pilmer,90,Submasters 34-39,34-39,M,,,,,,,200,,,,200,B,Multi-ply,3
Wendall Omura,90,Submasters 34-39,34-39,M,,,,,,,195,,,,195,B,Multi-ply,4
Roderick Rogers,100,Submasters 34-39,34-39,M,,,,,,,192.5,,,,192.5,B,Multi-ply,1
Dale Skidmore,100,Submasters 34-39,34-39,M,,,,,,,182.5,,,,182.5,B,Multi-ply,2
Eric Doublin,125,Submasters 34-39,34-39,M,,,,,,,250,,,,250,B,Multi-ply,1
Bob Vessels,125,Submasters 34-39,34-39,M,,,,,,,237.5,,,,237.5,B,Multi-ply,2
Phil Morrison,125,Submasters 34-39,34-39,M,,,,,,,202.5,,,,202.5,B,Multi-ply,3
Mark Jackson,125,Submasters 34-39,34-39,M,,,,,,,200,,,,200,B,Multi-ply,4
Victor Shaw,125,Submasters 34-39,34-39,M,,,,,,,187.5,,,,187.5,B,Multi-ply,5
Malcolm Ahlo,140,Submasters 34-39,34-39,M,,,,,,,250,,,,250,B,Multi-ply,1
John Barada,140,Submasters 34-39,34-39,M,,,,,,,245,,,,245,B,Multi-ply,2
Jim Cunningham,140,Submasters 34-39,34-39,M,,,,,,,237.5,,,,237.5,B,Multi-ply,3
Randy Shepard,140+,Submasters 34-39,34-39,M,,,,,,,260,,,,260,B,Multi-ply,1
Ron Philips,140+,Submasters 34-39,34-39,M,,,,,,,217.5,,,,217.5,B,Multi-ply,2
James Young,140+,Submasters 34-39,34-39,M,,,,,,,212.5,,,,212.5,B,Multi-ply,3
Jon Bellino,140+,Submasters 34-39,34-39,M,,,,,,,192.5,,,,192.5,B,Multi-ply,4
Allen Young,60,Masters 40-46,40-46,M,,,,,,,137.5,,,,137.5,B,Multi-ply,1
Alfredo Evangelista,67.5,Masters 40-46,40-46,M,,,,,,,165,,,,165,B,Multi-ply,1
Clyde Higa,67.5,Masters 40-46,40-46,M,,,,,,,162.5,172.5,,,162.5,B,Multi-ply,2
Dan Marxheimer,75,Masters 40-46,40-46,M,,,,,,,152.5,,,,152.5,B,Multi-ply,1
Robert Avery #2,75,Masters 40-46,40-46,M,,,,,,,137.5,,,,137.5,B,Multi-ply,2
Byron Beebe,82.5,Masters 40-46,40-46,M,,,,,,,200,,,,200,B,Multi-ply,1
Richard Hagedorn,82.5,Masters 40-46,40-46,M,,,,,,,152.5,,,,152.5,B,Multi-ply,2
Darris Piggee,90,Masters 40-46,40-46,M,,,,,,,220,225,,,220,B,Multi-ply,1
Rocky Gingg,90,Masters 40-46,40-46,M,,,,,,,182.5,,,,182.5,B,Multi-ply,2
Dean Wilson,90,Masters 40-46,40-46,M,,,,,,,170,,,,170,B,Multi-ply,3
Steven Gall,90,Masters 40-46,40-46,M,,,,,,,165,,,,165,B,Multi-ply,4
Steve Beaudoin,100,Masters 40-46,40-46,M,,,,,,,247.5,,,,247.5,B,Multi-ply,1
Willard Crossen Jr,110,Masters 40-46,40-46,M,,,,,,,230,,,,230,B,Multi-ply,1
Roger Nelson,110,Masters 40-46,40-46,M,,,,,,,197.5,,,,197.5,B,Multi-ply,2
Tim Elbert,110,Masters 40-46,40-46,M,,,,,,,142.5,,,,142.5,B,Multi-ply,3
Don Frosland Jr,125,Masters 40-46,40-46,M,,,,,,,222.5,,,,222.5,B,Multi-ply,1
David McCreary,125,Masters 40-46,40-46,M,,,,,,,,,,,,B,Multi-ply,DQ
Bill Gillespie,140,Masters 40-46,40-46,M,40,,,,,,267.5,,,,267.5,B,Single-ply,1
Steve Brown #8,140,Masters 40-46,40-46,M,,,,,,,205,,,,205,B,Multi-ply,2
Art Ramsey,140+,Masters 40-46,40-46,M,,,,,,,260,,,,260,B,Single-ply,1
Paul Ratsch,140+,Masters 40-46,40-46,M,,,,,,,205,,,,205,B,Multi-ply,2
Brian Rehberg,140+,Masters 40-46,40-46,M,,,,,,,192.5,,,,192.5,B,Multi-ply,3
Larry Muth,56,Masters 47-53,47-53,M,,,,,,,92.5,,,,92.5,B,Multi-ply,1
Satoru Ebihara,56,Masters 47-53,47-53,M,,,,,,,90,,,,90,B,Multi-ply,2
Leonard McAllister,75,Masters 47-53,47-53,M,,,,,,,160,,,,160,B,Multi-ply,1
Ashok Sharma,75,Masters 47-53,47-53,M,,India,,,,,155,,,,155,B,Multi-ply,2
Warren Orbaugh,90,Masters 47-53,47-53,M,,Guatemala,,,,,165,,,,165,B,Multi-ply,1
Steve Ramey,100,Masters 47-53,47-53,M,,,,,,,210,,,,210,B,Multi-ply,1
Bill Sekermestrovich,100,Masters 47-53,47-53,M,,,,,,,200,,,,200,B,Multi-ply,2
Rainer Gessmann,100,Masters 47-53,47-53,M,,,,,,,165,,,,165,B,Multi-ply,3
Mike Magruder,110,Masters 47-53,47-53,M,,,,,,,197.5,,,,197.5,B,Single-ply,1
P. Markel,110,Masters 47-53,47-53,M,,,,,,,,,,,,B,Multi-ply,DQ
Bennie Dooley,125,Masters 47-53,47-53,M,,,,,,,235,,,,235,B,Multi-ply,1
Austin Webb,125,Masters 47-53,47-53,M,,,,,,,182.5,,,,182.5,B,Multi-ply,2
Paul Goodwin,140,Masters 47-53,47-53,M,,,,,,,190,,,,190,B,Multi-ply,1
Carl Rosborough,140+,Masters 47-53,47-53,M,,,,,,,212.5,,,,212.5,B,Multi-ply,1
Moses Timbal,75,Masters 54-60,54-60,M,,,,,,,127.5,,,,127.5,B,Multi-ply,1
Ken Scheuer,82.5,Masters 54-60,54-60,M,,,,,,,147.5,,,,147.5,B,Multi-ply,1
James Reynolds,82.5,Masters 54-60,54-60,M,,,,,,,125,,,,125,B,Multi-ply,2
Richard Schuller,82.5,Masters 54-60,54-60,M,,,,,,,110,,,,110,B,Multi-ply,3
Jimmy Young,100,Masters 54-60,54-60,M,,,,,,,170,,,,170,B,Multi-ply,1
Brian O'Toole,110,Masters 54-60,54-60,M,,,,,,,100,,,,100,B,Multi-ply,1
George Nelson,125,Masters 54-60,54-60,M,55,,118.39,267.5,-272.5,-272.5,267.5,,,,267.5,B,Multi-ply,1
Robert O. Smith,140,Masters 54-60,54-60,M,,Canada,,,,,192.5,,,,192.5,B,Single-ply,1
Donald James,140+,Masters 54-60,54-60,M,,,,,,,200,,,,200,B,Multi-ply,1
Precious McKenzie,60,Masters 61-67,61-67,M,,,,,,,112.5,,,,112.5,B,Raw,1
Larry Vincent,67.5,Masters 61-67,61-67,M,,,,,,,115,,,,115,B,Multi-ply,1
George Johnson,75,Masters 61-67,61-67,M,,,,,,,147.5,,,,147.5,B,Multi-ply,1
Jerry Gladson,75,Masters 61-67,61-67,M,,,,,,,102.5,,,,102.5,B,Multi-ply,2
Don West,75,Masters 61-67,61-67,M,,,,,,,87.5,,,,87.5,B,Multi-ply,3
Donald Barden,82.5,Masters 61-67,61-67,M,,,,,,,132.5,,,,132.5,B,Multi-ply,1
Earl Cotton Jr,90,Masters 61-67,61-67,M,,,,,,,142.5,,,,142.5,B,Multi-ply,1
John Herbein,90,Masters 61-67,61-67,M,,,,,,,122.5,,,,122.5,B,Multi-ply,2
Gordon Brand,100,Masters 61-67,61-67,M,,,,,,,92.5,,,,92.5,B,Multi-ply,1
W. Caldwell,110,Masters 61-67,61-67,M,,,,,,,,,,,,B,Multi-ply,DQ
David Johnson,125,Masters 61-67,61-67,M,,,,,,,170,,,,170,B,Multi-ply,1
Ross Phillips,82.5,Masters 68-74,68-74,M,,,,,,,120,,,,120,B,Multi-ply,1
George Stimac,82.5,Masters 68-74,68-74,M,,,,,,,112.5,,,,112.5,B,Multi-ply,2
Otis Whitehead,90,Masters 75+,75-999,M,,,,,,,100,,,,100,B,Multi-ply,1
Bob Woods,100,Masters 75+,75-999,M,,,,,,,130,,,,130,B,Multi-ply,1
Cal Davis,125,Masters 75+,75-999,M,,,,,,,120,,,,120,B,Multi-ply,1
Kerwin Unten,60,Open,,M,,,,,,,165,,,,165,B,Multi-ply,1
Mike O'Hora,67.5,Open,,M,,,,,,,185,187.5,,,185,B,Multi-ply,1
Evan Davidson,67.5,Open,,M,,,,,,,175,,,,175,B,Multi-ply,2
Wesley Kampen,67.5,Open,,M,,,,,,,167.5,,,,167.5,B,Multi-ply,3
Alfredo Evangelista,67.5,Open,,M,,,,,,,165,,,,165,B,Multi-ply,4
Kimo Luna,67.5,Open,,M,,,,,,,160,,,,160,B,Multi-ply,5
Joe Luther,75,Open,,M,,,,,,,197.5,,,,197.5,B,Multi-ply,1
Steve Ward,75,Open,,M,,,,,,,190,,,,190,B,Multi-ply,2
Jason Yoshimura,75,Open,,M,,,,,,,190,,,,190,B,Multi-ply,3
Sakari Selkäinaho,75,Open,,M,,Finland,,,,,160,,,,160,B,Multi-ply,4
Tolan Furusho,75,Open,,M,,,,,,,160,,,,160,B,Multi-ply,5
Lee Luther,75,Open,,M,,,,,,,155,,,,155,B,Multi-ply,6
John Korn III,82.5,Open,,M,,,,,,,222.5,,,,222.5,B,Multi-ply,1
Joe Bruno,82.5,Open,,M,,,,,,,197.5,,,,197.5,B,Multi-ply,2
Brian Vales,82.5,Open,,M,,,,,,,187.5,,,,187.5,B,Multi-ply,3
Allen Berry,82.5,Open,,M,,,,,,,187.5,,,,187.5,B,Multi-ply,4
Jeff Hoiby,82.5,Open,,M,,,,,,,177.5,,,,177.5,B,Multi-ply,5
Bill Love,82.5,Open,,M,,,,,,,172.5,,,,172.5,B,Multi-ply,6
Mike Miner,82.5,Open,,M,,,,,,,137.5,,,,137.5,B,Multi-ply,7
Don Gulick,82.5,Open,,M,,,,,,,135,,,,135,B,Multi-ply,8
Todd Birkhead,82.5,Open,,M,,,,,,,120,,,,120,B,Multi-ply,9
Byron Beebe,82.5,Open,,M,,,,,,,,,,,,B,Multi-ply,DQ
Mike Saito,82.5,Open,,M,,,,,,,,,,,,B,Multi-ply,DQ
Gustavo Warrington,90,Open,,M,,,,,,,237.5,,,,237.5,B,Multi-ply,1
Rodney Shrum,90,Open,,M,,,,,,,227.5,,,,227.5,B,Multi-ply,2
Eric Thomas,90,Open,,M,,,,,,,187.5,,,,187.5,B,Multi-ply,3
Steve Beaudoin,100,Open,,M,,,,,,,247.5,,,,247.5,B,Multi-ply,1
Jeremy Winters,100,Open,,M,,,,,,,225,,,,225,B,Multi-ply,2
Matt LaMarque,100,Open,,M,,,,,,,217.5,,,,217.5,B,Multi-ply,3
Roderick Rogers,100,Open,,M,,,,,,,192.5,,,,192.5,B,Multi-ply,4
Simon Mantel,100,Open,,M,,,,,,,172.5,,,,172.5,B,Multi-ply,5
Larry Birgado,110,Open,,M,,,,,,,265,,,,265,B,Multi-ply,1
Frank Wakakuwa,110,Open,,M,,,,,,,260,,,,260,B,Multi-ply,2
Shane McShane,110,Open,,M,,,,,,,255,,,,255,B,Multi-ply,3
Shane Ahlo Sr,110,Open,,M,,,,,,,240,,,,240,B,Multi-ply,4
Casey Gallagher,110,Open,,M,,,,,,,237.5,,,,237.5,B,Multi-ply,5
Matt Crosby,110,Open,,M,,,,,,,210,,,,210,B,Multi-ply,6
Tajinder Singh,110,Open,,M,,India,,,,,180,,,,180,B,Raw,7
George Nelson,125,Open,,M,55,,118.39,267.5,-272.5,-272.5,267.5,,,,267.5,B,Multi-ply,1
Todd Love,125,Open,,M,,,,,,,250,,,,250,B,Multi-ply,2
Tomonari Yamanaka,125,Open,,M,,Japan,,,,,227.5,,,,227.5,B,Multi-ply,3
Steve Wong,140,Open,,M,,,,,,,272.5,,,,272.5,B,Single-ply,1
Tiny Meeker,140,Open,,M,,,,,,,267.5,,,,267.5,B,Single-ply,2
Jim Cunningham,140,Open,,M,,,,,,,245,,,,245,B,Multi-ply,3
Lonny Haywood,140,Open,,M,,,,,,,237.5,,,,237.5,B,Multi-ply,4
Tim Isaac,140,Open,,M,,,,,,,-305,,,,,B,Multi-ply,DQ
Kiu Tuita,140+,Open,,M,,Tonga,163.75,,,,317.5,-327.5,,,317.5,B,Single-ply,1
Mike Kromer,140+,Open,,M,,,,,,,255,,,,255,B,Multi-ply,2
Brian Jackson,140+,Open,,M,,,,,,,222.5,,,,222.5,B,Multi-ply,3
Thom Chase,140+,Open,,M,,,,,,,217.5,,,,217.5,B,Multi-ply,4
Steve Hudson,44,Teen 13-15,13-15,M,,,,,,,25,,,,25,B,Multi-ply,1
Gary Remiticado,60,Teen 13-15,13-15,M,15,,,,,,97.5,,,,97.5,B,Multi-ply,1
Robert Chu,67.5,Teen 13-15,13-15,M,,,,,,,42.5,,,,42.5,B,Multi-ply,1
Ray Hughes,75,Teen 13-15,13-15,M,,,,,,,47.5,,,,47.5,B,Multi-ply,1
Chad Crossen,90,Teen 13-15,13-15,M,,,,,,,102.5,,,,102.5,B,Multi-ply,1
Keenan Browne,100,Teen 13-15,13-15,M,,,,,,,60,,,,60,B,Multi-ply,1
Jordan Cam,110,Teen 13-15,13-15,M,,,,,,,147.5,,,,147.5,B,Multi-ply,1
Sean McElroy,125,Teen 13-15,13-15,M,,,,,,,120,,,,120,B,Multi-ply,1
Daniel Weekley,67.5,Teen 16-19,16-19,M,,,,,,,127.5,,,,127.5,B,Multi-ply,1
Ryan Snelling,67.5,Teen 16-19,16-19,M,,,,,,,127.5,,,,127.5,B,Multi-ply,2
Greg Vanison,75,Teen 16-19,16-19,M,,,,,,,147.5,,,,147.5,B,Multi-ply,1
Chris Pagdilao,82.5,Teen 16-19,16-19,M,,,,,,,165,,,,165,B,Multi-ply,1
Anthony Palombo,82.5,Teen 16-19,16-19,M,,,,,,,150,,,,150,B,Multi-ply,2
J. Murphy,82.5,Teen 16-19,16-19,M,,,,,,,,,,,,B,Multi-ply,DQ
Phil Davi,90,Teen 16-19,16-19,M,,,,,,,165,,,,165,B,Multi-ply,1
Spencer Murphy,90,Teen 16-19,16-19,M,,,,,,,155,,,,155,B,Multi-ply,2
Greg Rose,90,Teen 16-19,16-19,M,,,,,,,152.5,,,,152.5,B,Multi-ply,3
Jordan Pelletier,90,Teen 16-19,16-19,M,,,,,,,145,,,,145,B,Multi-ply,4
Nick Mortier,90,Teen 16-19,16-19,M,,,,,,,132.5,,,,132.5,B,Multi-ply,5
Ed Sun,90,Teen 16-19,16-19,M,,,,,,,127.5,,,,127.5,B,Multi-ply,6
Ryan Myers,100,Teen 16-19,16-19,M,,,,,,,195,,,,195,B,Multi-ply,1
Brian Clare,100,Teen 16-19,16-19,M,,,,,,,120,,,,120,B,Multi-ply,2
Brant Hill,100,Teen 16-19,16-19,M,,,,,,,82.5,,,,82.5,B,Multi-ply,3
Adrian Larsen,110,Teen 16-19,16-19,M,,,,,,,212.5,,,,212.5,B,Multi-ply,1
Dustin Wick,110,Teen 16-19,16-19,M,,,,,,,137.5,,,,137.5,B,Multi-ply,2
David Onishi,125,Teen 16-19,16-19,M,,,,,,,145,,,,145,B,Multi-ply,1
Jacob Clifton,140,Teen 16-19,16-19,M,,,,,,,150,,,,150,B,Multi-ply,1
Barry Kunkel,60,Juniors 20-24,20-24,M,,,,,,,127.5,,,,127.5,B,Multi-ply,1
Anthony Carroll,67.5,Juniors 20-24,20-24,M,,,,,,,152.5,,,,152.5,B,Multi-ply,1
Don Engles,67.5,Juniors 20-24,20-24,M,,,,,,,140,,,,140,B,Multi-ply,2
Ross Johnson,67.5,Juniors 20-24,20-24,M,,,,,,,85,,,,85,B,Multi-ply,3
Joe Luther,75,Juniors 20-24,20-24,M,,,,,,,197.5,,,,197.5,B,Multi-ply,1
Lee Luther,75,Juniors 20-24,20-24,M,,,,,,,155,,,,155,B,Multi-ply,2
Duane Travis,75,Juniors 20-24,20-24,M,,,,,,,,,,,,B,Multi-ply,DQ
John Korn III,82.5,Juniors 20-24,20-24,M,,,,,,,222.5,,,,222.5,B,Multi-ply,1
Joe Bruno,82.5,Juniors 20-24,20-24,M,,,,,,,197.5,,,,197.5,B,Multi-ply,2
Ryan Harris,82.5,Juniors 20-24,20-24,M,,,,,,,167.5,,,,167.5,B,Multi-ply,3
Shawn Rainey,82.5,Juniors 20-24,20-24,M,,,,,,,137.5,,,,137.5,B,Multi-ply,4
D. Travis,82.5,Juniors 20-24,20-24,M,,,,,,,,,,,,B,Multi-ply,DQ
Chris Bogart,90,Juniors 20-24,20-24,M,,,,,,,187.5,,,,187.5,B,Multi-ply,1
Austin Slater,90,Juniors 20-24,20-24,M,,,,,,,182.5,,,,182.5,B,Multi-ply,2
John Anthony,90,Juniors 20-24,20-24,M,,,,,,,140,,,,140,B,Multi-ply,3
Kevin Rose,100,Juniors 20-24,20-24,M,,,,,,,187.5,,,,187.5,B,Multi-ply,1
Joe Farmer,100,Juniors 20-24,20-24,M,,,,,,,170,,,,170,B,Multi-ply,2
Cody Smith,110,Juniors 20-24,20-24,M,,,,,,,185,,,,185,B,Multi-ply,1
Bryan Dodge,110,Juniors 20-24,20-24,M,,,,,,,185,,,,185,B,Multi-ply,2
Surinder Singh Jagder,110,Juniors 20-24,20-24,M,,India,,,,,110,,,,110,B,Multi-ply,3
Andrew Snider,125,Juniors 20-24,20-24,M,,,,,,,205,,,,205,B,Multi-ply,1
Joel Thiessen,125,Juniors 20-24,20-24,M,,,,,,,195,,,,195,B,Multi-ply,2
Trevor Crandall,140,Juniors 20-24,20-24,M,,,,,,,237.5,245,,,237.5,B,Multi-ply,1
Sakari Selkäinaho,75,Law-Fire Open,,M,,,,,,,160,,,,160,B,Multi-ply,1
Bob Bish,75,Law-Fire Open,,M,,,,,,,160,,,,160,B,Multi-ply,2
Barry Duran,82.5,Law-Fire Open,,M,,,,,,,192.5,,,,192.5,B,Multi-ply,1
Erick Kuskie,82.5,Law-Fire Open,,M,,,,,,,157.5,,,,157.5,B,Multi-ply,2
Mike Miner,82.5,Law-Fire Open,,M,,,,,,,137.5,,,,137.5,B,Multi-ply,3
Craig Palmer,90,Law-Fire Open,,M,,,,,,,200,,,,200,B,Multi-ply,1
Robert Derringer,90,Law-Fire Open,,M,,,,,,,172.5,,,,172.5,B,Multi-ply,2
Simon Mantel,100,Law-Fire Open,,M,,,,,,,140,,,,140,B,Multi-ply,1
Frank Wakakuwa,110,Law-Fire Open,,M,,,,,,,260,,,,260,B,Multi-ply,1
Rasoula Muhammud,110,Law-Fire Open,,M,,,,,,,212.5,,,,212.5,B,Multi-ply,2
Todd Love,125,Law-Fire Open,,M,,,,,,,250,,,,250,B,Multi-ply,1
Malcolm Ahlo,140,Law-Fire Open,,M,,,,,,,250,,,,250,B,Multi-ply,1
Rick Russell,140,Law-Fire Open,,M,,,,,,,177.5,,,,177.5,B,Multi-ply,2
Craig Palmer,90,Law-Fire 38-47,38-47,M,,,,,,,200,,,,200,B,Multi-ply,1
Jeff Holloway,90,Law-Fire 38-47,38-47,M,,,,,,,142.5,,,,142.5,B,Multi-ply,2
Jeff Jones,100,Law-Fire 38-47,38-47,M,,,,,,,160,,,,160,B,Multi-ply,1
Rene Phillips,140+,Law-Fire 38-47,38-47,M,,,,,,,217.5,227.5,,,217.5,B,Multi-ply,1
Bob Keynon,90,Law-Fire 48+,48-999,M,,,,,,,152.5,,,,152.5,B,Multi-ply,1
Les Peratrovich,100,Law-Fire 48+,48-999,M,,,,,,,150,,,,150,B,Multi-ply,1
Paul Goodwin,140,Law-Fire 48+,48-999,M,,,,,,,190,192.5,,,190,B,Multi-ply,1
Gina Anderson,75,Law-Fire Open,,F,,,,,,,105,,,,105,B,Multi-ply,1
JoAnn Bauer,67.5,Law-Fire Masters,38-999,F,,,,,,,75,,,,75,B,Multi-ply,1
Camellia Luprete,75,Law-Fire Masters,38-999,F,,,,,,,70,,,,70,B,Multi-ply,1
Roberta Hunt,56,Submasters 34-39,34-39,F,,,,,,,47.5,,,,47.5,B,Multi-ply,1
Jennifer Souders,60,Submasters 34-39,34-39,F,,,,,,,55,,,,55,B,Multi-ply,1
Susan Gill,67.5,Submasters 34-39,34-39,F,,,,,,,75,,,,75,B,Multi-ply,2
Kim Meeder,67.5,Submasters 34-39,34-39,F,,,,,,,82.5,,,,82.5,B,Multi-ply,1
Sharon Allen,90,Submasters 34-39,34-39,F,,,,,,,85,,,,85,B,Multi-ply,1
Taunya Malone,90+,Submasters 34-39,34-39,F,,,,,,,145,,,,145,B,Multi-ply,1
Cheng-Er Mehmedbasich,48,Masters 40-46,40-46,F,,,,,,,57.5,,,,57.5,B,Multi-ply,1
Jana Gedde,52,Masters 40-46,40-46,F,,,,,,,82.5,,,,82.5,B,Multi-ply,1
Sandra Hayes,56,Masters 40-46,40-46,F,,,,,,,72.5,,,,72.5,B,Multi-ply,1
Pam Jenkins,56,Masters 40-46,40-46,F,,,,,,,47.5,,,,47.5,B,Multi-ply,2
Sandy Gomez-Leon,60,Masters 40-46,40-46,F,,,,,,,92.5,,,,92.5,B,Multi-ply,1
Jean Turk,67.5,Masters 40-46,40-46,F,,,,,,,75,,,,75,B,Multi-ply,1
JoAnn Bauer,67.5,Masters 40-46,40-46,F,,,,,,,75,,,,75,B,Multi-ply,2
Mary Jacobson,75,Masters 40-46,40-46,F,45,,,,,,107.5,,,,107.5,B,Multi-ply,1
Janet May,60,Masters 47-53,47-53,F,,,,,,,60,,,,60,B,Multi-ply,1
Betty Heriford,75,Masters 47-53,47-53,F,,,,,,,75,,,,75,B,Multi-ply,1
Camellia Luprete,75,Masters 47-53,47-53,F,,,,,,,70,,,,70,B,Multi-ply,2
Marcia Turner,67.5,Masters 61-67,61-67,F,,,,,,,47.5,,,,47.5,B,Multi-ply,1
Gloria Tomlin,67.5,Masters 75+,75-999,F,,,,,,,35,,,,35,B,Multi-ply,1
Tracey Bryan,67.5,Juniors 20-24,20-24,F,,,,,,,92.5,,,,92.5,B,Multi-ply,1
Lisa Pollari-Kromer,75,Juniors 20-24,20-24,F,,,,,,,77.5,,,,77.5,B,Multi-ply,1
Julie Kimoto,82.5,Juniors 20-24,20-24,F,,,,,,,102.5,,,,102.5,B,Multi-ply,1
Emily Schneider,52,Teen 13-15,13-15,F,,,,,,,47.5,,,,47.5,B,Multi-ply,1
Kayleigh Haff,60,Teen 13-15,13-15,F,,,,,,,27.5,,,,27.5,B,Multi-ply,1
Jill Remiticado,56,Teen 16-19,16-19,F,18,,,,,,87.5,,,,87.5,B,Multi-ply,1
Christie Hansen,67.5,Teen 16-19,16-19,F,,,,,,,87.5,,,,87.5,B,Multi-ply,1
Lupe Aguilar,48,Open,,F,,,,,,,92.5,,,,92.5,B,Multi-ply,1
Cheng-Er Mehmedbasich,48,Open,,F,,,,,,,57.5,,,,57.5,B,Multi-ply,2
Jana Gedde,52,Open,,F,42,,,,,,82.5,,,,82.5,B,Multi-ply,1
Shelley Radcliffe,56,Open,,F,,,,,,,95,,,,95,B,Multi-ply,1
Jill Remiticado,56,Open,,F,18,,,,,,87.5,,,,87.5,B,Multi-ply,2
Jerri-Lynn Lippert,60,Open,,F,,,,,,,120,,,,120,B,Multi-ply,1
Amy Hughes,60,Open,,F,,,,,,,107.5,,,,107.5,B,Multi-ply,2
Mary Jacobson,75,Open,,F,,,,,,,107.5,,,,107.5,B,Multi-ply,1
Gina Anderson,75,Open,,F,,,,,,,105,,,,105,B,Multi-ply,2
Julie Kimoto,82.5,Open,,F,,,,,,,102.5,,,,102.5,B,Multi-ply,1
Gina Anderson,75,Law-Fire Open,,F,,,,,,,,,140,,140,D,Multi-ply,1
Susan Gill,67.5,Law-Fire Masters,38-999,F,,,,,,,,,150,155,150,D,Multi-ply,1
JoAnn Bauer,67.5,Law-Fire Masters,38-999,F,,,,,,,,,132.5,,132.5,D,Multi-ply,2
Camellia Luprete,75,Law-Fire Masters,38-999,F,,,,,,,,,125,127.5,125,D,Multi-ply,1
Cheng-Er Mehmedbasich,48,Masters 40-46,40-46,F,,,,,,,,,92.5,95,92.5,D,Multi-ply,1
Jana Gedde,52,Masters 40-46,40-46,F,,,,,,,,,160,162.5,160,D,Multi-ply,1
Janie Turnage,56,Masters 40-46,40-46,F,,,,,,,,,120,,120,D,Multi-ply,1
Sandra Hayes,56,Masters 40-46,40-46,F,,,,,,,,,,,,D,Multi-ply,DQ
Sandy Gomez-Leon,60,Masters 40-46,40-46,F,,,,,,,,,137.5,,137.5,D,Multi-ply,1
Julie Ridgway,60,Masters 40-46,40-46,F,,,,,,,,,115,,115,D,Multi-ply,2
JoAnn Bauer,67.5,Masters 40-46,40-46,F,,,,,,,,,132.5,,132.5,D,Multi-ply,1
Cirdy Cameron,67.5,Masters 40-46,40-46,F,,,,,,,,,130,,130,D,Multi-ply,2
Susan Gill,67.5,Masters 47-53,47-53,F,,,,,,,,,150,155,150,D,Multi-ply,1
Camellia Luprete,75,Masters 47-53,47-53,F,,,,,,,,,125,127.5,125,D,Multi-ply,1
Betty Heriford,75,Masters 47-53,47-53,F,,,,,,,,,117.5,,117.5,D,Multi-ply,2
Jo Walker,60,Masters 54-60,54-60,F,55,,,,,,,,180,,180,D,Multi-ply,1
Ana Santiago,44,Open,,F,,Guatemala,,,,,,,142.5,144.5,142.5,D,Multi-ply,1
Cheng-Er Mehmedbasich,48,Open,,F,,,,,,,,,92.5,95,92.5,D,Multi-ply,1
Jana Gedde,52,Open,,F,,,,,,,,,160,162.5,160,D,Multi-ply,1
Jill Remiticado,56,Open,,F,,,,,,,,,137.5,139.5,137.5,D,Multi-ply,1
Jo Walker,60,Open,,F,,,,,,,,,180,,180,D,Multi-ply,1
Flozzell Thomas-Stewart,60,Open,,F,,,,,,,,,165,,165,D,Multi-ply,2
Jerri-Lynn Lippert,60,Open,,F,,,,,,,,,150,165,150,D,Multi-ply,3
Rosemary Panza,67.5,Open,,F,,,,,,,,,127.5,,127.5,D,Multi-ply,1
Beth Mallory,75,Open,,F,,,,,,,,,147.5,,147.5,D,Multi-ply,1
Gina Anderson,75,Open,,F,,,,,,,,,140,,140,D,Multi-ply,2
Betty Heriford,75,Open,,F,47,,,,,,,,117.5,,117.5,D,Multi-ply,3
Julie Kimoto,82.5,Open,,F,20,,,,,,,,175,,175,D,Multi-ply,1
Sarah Murray,90+,Open,,F,,,,,,,,,187.5,,187.5,D,Multi-ply,1
Kayleigh Haff,60,Teen 13-15,13-15,F,,,,,,,,,67.5,,67.5,D,Multi-ply,1
Alisa Rowland,67.5,Teen 13-15,13-15,F,,,,,,,,,145,,145,D,Multi-ply,1
Jill Remiticado,56,Teen 16-19,16-19,F,,,,,,,,,137.5,139.5,137.5,D,Multi-ply,1
Brooke Ringe,60,Teen 16-19,16-19,F,,,,,,,,,117.5,,117.5,D,Multi-ply,1
Kandi Lukowski,56,Juniors 20-24,20-24,F,,,,,,,,,75,,75,D,Multi-ply,1
Julie Kimoto,82.5,Juniors 20-24,20-24,F,,,,,,,,,175,,175,D,Multi-ply,1
Theresa Hams,56,Submasters 34-39,34-39,F,,,,,,,,,122.5,125,122.5,D,Multi-ply,1
Roberta Hunt,56,Submasters 34-39,34-39,F,,,,,,,,,120,,120,D,Multi-ply,2
Jennifer Souders,60,Submasters 34-39,34-39,F,,,,,,,,,105,,105,D,Multi-ply,1
Susan Gill,67.5,Submasters 34-39,34-39,F,,,,,,,,,155,,155,D,Multi-ply,1
Teresa Hughes,75,Submasters 34-39,34-39,F,,,,,,,,,160,,160,D,Multi-ply,1
Sarah Murray,90+,Submasters 34-39,34-39,F,,,,,,,,,187.5,,187.5,D,Multi-ply,1
Dean Kaneshiro,67.5,Masters 40-46,40-46,M,,,,,,,,,220,,220,D,Multi-ply,1
Alfredo Evangelista,67.5,Masters 40-46,40-46,M,,,,,,,,,210,,210,D,Multi-ply,2
Dan Marxheimer,75,Masters 40-46,40-46,M,,,,,,,,,205,,205,D,Multi-ply,1
Robert Straker,75,Masters 40-46,40-46,M,,,,,,,,,182.5,,182.5,D,Multi-ply,2
Greg Zweig,82.5,Masters 40-46,40-46,M,,,,,,,,,280,,280,D,Multi-ply,1
Richard Hagedorn,82.5,Masters 40-46,40-46,M,,,,,,,,,250,,250,D,Multi-ply,2
Andrey Hoyos,82.5,Masters 40-46,40-46,M,,,,,,,,,240,,240,D,Multi-ply,3
Enrique Diaz,82.5,Masters 40-46,40-46,M,,,,,,,,,217.5,,217.5,D,Multi-ply,4
Mark Moore,82.5,Masters 40-46,40-46,M,,,,,,,,,215,,215,D,Multi-ply,5
Donnie Cole,90,Masters 40-46,40-46,M,,,,,,,,,327.5,,327.5,D,Multi-ply,1
Mark Bryant,90,Masters 40-46,40-46,M,,,,,,,,,237.5,,237.5,D,Multi-ply,2
Dean Wilson,90,Masters 40-46,40-46,M,,,,,,,,,220,,220,D,Multi-ply,3
Steven Gall,90,Masters 40-46,40-46,M,,,,,,,,,220,,220,D,Multi-ply,4
Joe Costa,100,Masters 40-46,40-46,M,,,,,,,,,297.5,,297.5,D,Multi-ply,1
Jim Waldo,100,Masters 40-46,40-46,M,,,,,,,,,260,,260,D,Multi-ply,2
Jerry Capello,110,Masters 40-46,40-46,M,,,,,,,,,312.5,,312.5,D,Multi-ply,1
Roger Nelson,110,Masters 40-46,40-46,M,,,,,,,,,,,,D,Multi-ply,DQ
Sam Pecktol,140,Masters 40-46,40-46,M,,,,,,,,,305,,305,D,Multi-ply,1
Paul Ratsch,140+,Masters 40-46,40-46,M,,,,,,,,,295,,295,D,Multi-ply,1
Brian Rehberg,140+,Masters 40-46,40-46,M,,,,,,,,,272.5,,272.5,D,Multi-ply,2
Terry Acers,140+,Masters 40-46,40-46,M,,,,,,,,,267.5,,267.5,D,Multi-ply,3
Jeff Holloway,90,Law-Fire 38-47,38-47,M,,,,,,,,,215,,215,D,Multi-ply,1
Rene Phillips,140+,Law-Fire 38-47,38-47,M,,,,,,,,,250,,250,D,Multi-ply,1
Ted Butler,90,Law-Fire 48+,48-999,M,,,,,,,,,272.5,,272.5,D,Multi-ply,1
Tommy Green,90,Law-Fire 48+,48-999,M,,,,,,,,,220,,220,D,Multi-ply,2
Bob Keynon,90,Law-Fire 48+,48-999,M,,,,,,,,,195,,195,D,Multi-ply,3
Les Peratrovich,100,Law-Fire 48+,48-999,M,,,,,,,,,250,,250,D,Multi-ply,1
Paul Goodwin,140,Law-Fire 48+,48-999,M,,,,,,,,,240,,240,D,Multi-ply,1
Sakari Selkäinaho,75,Law-Fire Open,,M,,,,,,,,,260,,260,D,Multi-ply,1
David Perkins,82.5,Law-Fire Open,,M,,,,,,,,,235,,235,D,Multi-ply,1
Erick Kuskie,82.5,Law-Fire Open,,M,,,,,,,,,222.5,,222.5,D,Multi-ply,2
Robert Derringer,90,Law-Fire Open,,M,,,,,,,,,240,,240,D,Multi-ply,1
Brent Howard,100,Law-Fire Open,,M,,,,,,,,,312.5,,312.5,D,Multi-ply,1
Calvin Mock,100,Law-Fire Open,,M,,,,,,,,,272.5,,272.5,D,Multi-ply,2
Rasoula Muhammud,110,Law-Fire Open,,M,,,,,,,,,277.5,,277.5,D,Multi-ply,1
Todd Love,125,Law-Fire Open,,M,,,,,,,,,250,,250,D,Multi-ply,1
Rick Russell,140,Law-Fire Open,,M,,,,,,,,,267.5,,267.5,D,Multi-ply,1
Chris Raffelson,140,Law-Fire Open,,M,,,,,,,,,250,,250,D,Multi-ply,2
Malcolm Ahlo,140,Law-Fire Open,,M,,,,,,,,,,,,D,Multi-ply,DQ
Larry Muth,56,Masters 47-53,47-53,M,,,,,,,,,182.5,,182.5,D,Multi-ply,1
Satoru Ebihara,56,Masters 47-53,47-53,M,,Japan,,,,,,,140,,140,D,Multi-ply,2
Kerry Long,75,Masters 47-53,47-53,M,,,,,,,,,220,,220,D,Multi-ply,1
Gene Alexander,82.5,Masters 47-53,47-53,M,,,,,,,,,250,,250,D,Multi-ply,1
Warren Orbaugh,90,Masters 47-53,47-53,M,,Guatemala,,,,,,,227.5,,227.5,D,Multi-ply,1
Dave Cheek,90,Masters 47-53,47-53,M,,,,,,,,,212.5,,212.5,D,Multi-ply,2
Godfrey Holzinger,90,Masters 47-53,47-53,M,,,,,,,,,207.5,,207.5,D,Multi-ply,3
Robert Ward,90,Masters 47-53,47-53,M,,,,,,,,,197.5,,197.5,D,Multi-ply,4
JV Askem,100,Masters 47-53,47-53,M,,,,,,,,,252.5,,252.5,D,Multi-ply,1
Craig DeSoto,100,Masters 47-53,47-53,M,,,,,,,,,250,,250,D,Multi-ply,2
Jon Wolbers,100,Masters 47-53,47-53,M,,Canada,,,,,,,245,,245,D,Multi-ply,3
Bill Anderberg,100,Masters 47-53,47-53,M,,,,,,,,,232.5,,232.5,D,Multi-ply,4
Mike Magruder,110,Masters 47-53,47-53,M,,,,,,,,,262.5,,262.5,D,Single-ply,1
Dale McPherson,110,Masters 47-53,47-53,M,,,,,,,,,260,,260,D,Multi-ply,2
James Christian #1,75,Masters 54-60,54-60,M,,,,,,,,,205,,205,D,Multi-ply,1
Moses Timbal,75,Masters 54-60,54-60,M,,,,,,,,,182.5,,182.5,D,Multi-ply,2
Jay Papish,82.5,Masters 54-60,54-60,M,,,,,,,,,220,,220,D,Multi-ply,1
Richard Schuller,82.5,Masters 54-60,54-60,M,,,,,,,,,185,,185,D,Multi-ply,2
Dennis Johnson,90,Masters 54-60,54-60,M,,,,,,,,,277.5,,277.5,D,Multi-ply,1
Jimmy Young,100,Masters 54-60,54-60,M,,,,,,,,,272.5,,272.5,D,Multi-ply,1
Brian O'Toole,110,Masters 54-60,54-60,M,,,,,,,,,202.5,,202.5,D,Multi-ply,1
Mike Fryar,125,Masters 54-60,54-60,M,,,,,,,,,262.5,,262.5,D,Multi-ply,1
Robert O. Smith,140,Masters 54-60,54-60,M,,Canada,,,,,,,242.5,,242.5,D,Single-ply,1
George Farren,140,Masters 54-60,54-60,M,,,,,,,,,172.5,,172.5,D,Multi-ply,2
Donald James,140+,Masters 54-60,54-60,M,,,,,,,,,232.5,,232.5,D,Multi-ply,1
Precious McKenzie,60,Masters 61-67,61-67,M,,,,,,,,,190,,190,D,Raw,1
Larry Vincent,67.5,Masters 61-67,61-67,M,,,,,,,,,162.5,,162.5,D,Multi-ply,1
Don West,75,Masters 61-67,61-67,M,,,,,,,,,190,,190,D,Multi-ply,1
Orville Kuipers,75,Masters 61-67,61-67,M,,,,,,,,,175,,175,D,Multi-ply,2
John Herbein,82.5,Masters 61-67,61-67,M,,,,,,,,,237.5,,237.5,D,Multi-ply,1
Jim Schall,75,Masters 68-74,68-74,M,,,,,,,,,155,,155,D,Multi-ply,1
Ross Phillips,82.5,Masters 68-74,68-74,M,,,,,,,,,227.5,,227.5,D,Multi-ply,1
Bob Woods,100,Masters 75+,75-999,M,,,,,,,,,202.5,204.5,202.5,D,Multi-ply,1
Cal Davis,125,Masters 75+,75-999,M,,,,,,,,,160,,160,D,Multi-ply,1
Paul Kaiser,56,Submasters 34-39,34-39,M,,,,,,,,,175,,175,D,Multi-ply,1
Sakari Selkäinaho,75,Submasters 34-39,34-39,M,,,,,,,,,260,,260,D,Multi-ply,1
Mark Freedman,75,Submasters 34-39,34-39,M,,,,,,,,,220,,220,D,Multi-ply,2
Vilmar Oliveira,75,Submasters 34-39,34-39,M,,Brazil,,,,,,,210,,210,D,Multi-ply,3
Arun Sharma,75,Submasters 34-39,34-39,M,,,,,,,,,210,,210,D,Multi-ply,4
Steve Hodge,75,Submasters 34-39,34-39,M,,,,,,,,,177.5,,177.5,D,Multi-ply,5
Dan Belanger,82.5,Submasters 34-39,34-39,M,,,,,,,,,260,,260,D,Multi-ply,1
Frank Peters,82.5,Submasters 34-39,34-39,M,,,,,,,,,252.5,,252.5,D,Multi-ply,2
Marty Sechrest,90,Submasters 34-39,34-39,M,,,,,,,,,292.5,,292.5,D,Multi-ply,1
Dean Iverson,90,Submasters 34-39,34-39,M,,,,,,,,,267.5,,267.5,D,Multi-ply,2
Brian Baertlein,90,Submasters 34-39,34-39,M,,,,,,,,,250,,250,D,Multi-ply,3
Johnny Hernandez,90,Submasters 34-39,34-39,M,,,,,,,,,,,,D,Multi-ply,DQ
Willis McCoy,100,Submasters 34-39,34-39,M,,,,,,,,,330,,330,D,Multi-ply,1
Dave Obaitek,100,Submasters 34-39,34-39,M,,,,,,,,,297.5,,297.5,D,Multi-ply,2
Buzz McCanse,100,Submasters 34-39,34-39,M,,,,,,,,,272.5,,272.5,D,Multi-ply,3
Todd Christensen,110,Submasters 34-39,34-39,M,,,,,,,,,272.5,,272.5,D,Multi-ply,1
Joe Garcia,110,Submasters 34-39,34-39,M,,,,,,,,,242.5,,242.5,D,Multi-ply,2
Bob Vessels,125,Submasters 34-39,34-39,M,,,,,,,,,332.5,,332.5,D,Multi-ply,1
Joe Fernandez,125,Submasters 34-39,34-39,M,,,,,,,,,317.5,,317.5,D,Multi-ply,2
Mark Jackson,125,Submasters 34-39,34-39,M,,,,,,,,,285,,285,D,Multi-ply,3
William Pontius,125,Submasters 34-39,34-39,M,,,,,,,,,275,,275,D,Multi-ply,4
Axel Adalsteinsson,140,Submasters 34-39,34-39,M,,Iceland,,,,,,,300,,300,D,Multi-ply,1
SJ Taylor,140,Submasters 34-39,34-39,M,,,,,,,,,250,,250,D,Multi-ply,2
Malcolm Ahlo,140,Submasters 34-39,34-39,M,,,,,,,,,,,,D,Multi-ply,DQ
Oscar Martinez,60,Open,,M,,,,,,,,,192.5,,192.5,D,Multi-ply,1
Ryan Snelling,67.5,Open,,M,,,,,,,,,230,,230,D,Multi-ply,1
Kimo Luna,67.5,Open,,M,,,,,,,,,227.5,,227.5,D,Multi-ply,2
Shane Kido,67.5,Open,,M,,,,,,,,,215,,215,D,Multi-ply,3
Tony Caprari,75,Open,,M,,,,,,,,,265,,265,D,Multi-ply,1
Sakari Selkäinaho,75,Open,,M,,,,,,,,,260,,260,D,Multi-ply,2
Richard House,75,Open,,M,,,,,,,,,245,,245,D,Multi-ply,3
Tolan Furusho,75,Open,,M,,,,,,,,,195,,195,D,Multi-ply,4
Robert Straker,75,Open,,M,,,,,,,,,182.5,,182.5,D,Multi-ply,5
Greg Zweig,82.5,Open,,M,,,,,,,,,280,,280,D,Multi-ply,1
Richard Hagedorn,82.5,Open,,M,,,,,,,,,250,,250,D,Multi-ply,2
Brian Vales,82.5,Open,,M,,,,,,,,,245,,245,D,Multi-ply,3
Bill Love,82.5,Open,,M,,,,,,,,,227.5,,227.5,D,Multi-ply,4
Shaun Miller,82.5,Open,,M,,,,,,,,,220,,220,D,Multi-ply,5
Shawn Rainey,82.5,Open,,M,,,,,,,,,210,,210,D,Multi-ply,6
Don Gulick,82.5,Open,,M,,,,,,,,,205,,205,D,Multi-ply,7
Jeff Hoiby,82.5,Open,,M,,,,,,,,,205,,205,D,Multi-ply,8
Vinson Keyhea,90,Open,,M,,,,,,,,,327.5,,327.5,D,Single-ply,1
Donnie Cole,90,Open,,M,,,,,,,,,327.5,,327.5,D,Single-ply,2
Eric Thomas,90,Open,,M,24,,,,,,,,315,,315,D,Multi-ply,3
Steve Manley,90,Open,,M,,,,,,,,,295,,295,D,Multi-ply,4
Marty Sechrest,90,Open,,M,,,,,,,,,292.5,,292.5,D,Multi-ply,5
Willis McCoy,100,Open,,M,,,,,,,,,330,,330,D,Multi-ply,1
Brent Howard,100,Open,,M,,,,,,,,,312.5,,312.5,D,Multi-ply,2
Joe Costa,100,Open,,M,,,,,,,,,297.5,,297.5,D,Multi-ply,3
Jeremy Winters,100,Open,,M,,,,,,,,,277.5,,277.5,D,Multi-ply,4
Lucas Crump,100,Open,,M,,,,,,,,,260,,260,D,Multi-ply,5
Rodney Trewin,100,Open,,M,,,,,,,,,250,,250,D,Multi-ply,6
Mike Camlin,110,Open,,M,,,,,,,,,312.5,,312.5,D,Multi-ply,1
Troy Fryar,110,Open,,M,,,,,,,,,287.5,,287.5,D,Multi-ply,2
Irby Campbell,110,Open,,M,,,,,,,,,282.5,,282.5,D,Multi-ply,3
Todd Christensen,110,Open,,M,,,,,,,,,272.5,,272.5,D,Multi-ply,4
Shane Ahlo Sr,110,Open,,M,,,,,,,,,262.5,,262.5,D,Multi-ply,5
Surinder Sahota,110,Open,,M,,India,,,,,,,170,,170,D,Multi-ply,6
Andrew Stewart #2,125,Open,,M,,,,,,,,,365,,365,D,Single-ply,1
Tomonari Yamanaka,125,Open,,M,,Japan,,,,,,,310,,310,D,Multi-ply,2
Todd Love,125,Open,,M,,,,,,,,,250,,250,D,Multi-ply,3
Tim Isaac,140,Open,,M,,,,,,,,,322.5,,322.5,D,Multi-ply,1
Dean Askanas,140,Open,,M,,,,,,,,,260,,260,D,Multi-ply,2
Brent Mikesell,140+,Open,,M,,,,,,,,,340,,340,D,Multi-ply,1
Dean Munsey,140+,Open,,M,,,,,,,,,317.5,,317.5,D,Multi-ply,2
Vincent Eldridge,140+,Open,,M,,,,,,,,,312.5,,312.5,D,Multi-ply,3
Rodney Hudson,140+,Open,,M,,,,,,,,,292.5,,292.5,D,Multi-ply,4
Steve Hudson,44,Teen 13-15,13-15,M,,,,,,,,,50,,50,D,Multi-ply,1
Gary Remiticado,60,Teen 13-15,13-15,M,,,,,,,,,165,169.5,165,D,Multi-ply,1
Robert Chu,67.5,Teen 13-15,13-15,M,,,,,,,,,102.5,,102.5,D,Multi-ply,1
Tyler Charouhas,75,Teen 13-15,13-15,M,,,,,,,,,187.5,,187.5,D,Multi-ply,1
Ray Hughes,75,Teen 13-15,13-15,M,,,,,,,,,102.5,,102.5,D,Multi-ply,2
Phillip Rainey,100,Teen 13-15,13-15,M,,,,,,,,,182.5,,182.5,D,Multi-ply,1
Keenan Browne,100,Teen 13-15,13-15,M,,,,,,,,,115,,115,D,Multi-ply,2
Jordan Cam,110,Teen 13-15,13-15,M,,,,,,,,,210,227.5,210,D,Multi-ply,1
Sean McElroy,125,Teen 13-15,13-15,M,,,,,,,,,185,187.5,185,D,Multi-ply,1
Robbie Walden,56,Teen 16-19,16-19,M,,,,,,,,,157.5,,157.5,D,Multi-ply,1
Ryan Snelling,67.5,Teen 16-19,16-19,M,,,,,,,,,230,,230,D,Multi-ply,1
Daniel Weekley,67.5,Teen 16-19,16-19,M,,,,,,,,,137.5,,137.5,D,Multi-ply,2
Tony Caprari,75,Teen 16-19,16-19,M,,,,,,,,,265,,265,D,Multi-ply,1
Shawn Alexander,75,Teen 16-19,16-19,M,,,,,,,,,227.5,,227.5,D,Multi-ply,2
Chris Pagdilao,82.5,Teen 16-19,16-19,M,,,,,,,,,250,-273,250,D,Multi-ply,1
Phil Davi,90,Teen 16-19,16-19,M,,,,,,,,,262.5,,262.5,D,Multi-ply,1
Kasey Eslick,90,Teen 16-19,16-19,M,,,,,,,,,252.5,,252.5,D,Multi-ply,2
Ed Sun,90,Teen 16-19,16-19,M,,,,,,,,,240,,240,D,Multi-ply,3
Shaun Dudley,100,Teen 16-19,16-19,M,,,,,,,,,192.5,,192.5,D,Multi-ply,1
Brant Hill,100,Teen 16-19,16-19,M,,,,,,,,,165,,165,D,Multi-ply,2
Dustin Wick,110,Teen 16-19,16-19,M,,,,,,,,,217.5,,217.5,D,Multi-ply,1
David Onishi,125,Teen 16-19,16-19,M,,,,,,,,,250,,250,D,Multi-ply,1
Jacob Clifton,140,Teen 16-19,16-19,M,,,,,,,,,250,,250,D,Multi-ply,1
Herbert Obbiel Garcia,56,Juniors 20-24,20-24,M,,Guatemala,,,,,,,205,209.5,205,D,Multi-ply,1
Barry Kunkel,60,Juniors 20-24,20-24,M,,,,,,,,,197.5,,197.5,D,Multi-ply,1
Shane Kido,67.5,Juniors 20-24,20-24,M,,,,,,,,,215,,215,D,Multi-ply,1
Derek Felch,75,Juniors 20-24,20-24,M,,,,,,,,,240,,240,D,Multi-ply,1
Duane Travis,75,Juniors 20-24,20-24,M,,,,,,,,,237.5,,237.5,D,Multi-ply,2
Steve McMillan,75,Juniors 20-24,20-24,M,,,,,,,,,185,,185,D,Multi-ply,3
David Perkins,82.5,Juniors 20-24,20-24,M,,,,,,,,,235,,235,D,Multi-ply,1
Shawn Rainey,82.5,Juniors 20-24,20-24,M,,,,,,,,,210,,210,D,Multi-ply,2
Steve Manley,90,Juniors 20-24,20-24,M,,,,,,,,,295,,295,D,Multi-ply,1
Chris Bogart,90,Juniors 20-24,20-24,M,,,,,,,,,272.5,,272.5,D,Multi-ply,2
Jonathan Lara,90,Juniors 20-24,20-24,M,,,,,,,,,230,,230,D,Multi-ply,3
Cody Ratliff,90,Juniors 20-24,20-24,M,,,,,,,,,227.5,,227.5,D,Multi-ply,4
Lucas Crump,100,Juniors 20-24,20-24,M,,,,,,,,,260,,260,D,Multi-ply,1
Travis Osborne,100,Juniors 20-24,20-24,M,,,,,,,,,252.5,,252.5,D,Multi-ply,2
Joe Farmer,100,Juniors 20-24,20-24,M,,,,,,,,,250,,250,D,Multi-ply,3
Kevin Rose,100,Juniors 20-24,20-24,M,,,,,,,,,227.5,,227.5,D,Multi-ply,4
Troy Hamilton,110,Juniors 20-24,20-24,M,,,,,,,,,272.5,,272.5,D,Multi-ply,1
Bryan Dodge,110,Juniors 20-24,20-24,M,,,,,,,,,237.5,,237.5,D,Multi-ply,2
Joel Thiessen,125,Juniors 20-24,20-24,M,,Canada,,,,,,,292.5,,292.5,D,Multi-ply,1
Andrew Snider,125,Juniors 20-24,20-24,M,,,,,,,,,227.5,,227.5,D,Multi-ply,2
Trevor Crandall,140,Juniors 20-24,20-24,M,,,,,,,,,312.5,,312.5,D,Multi-ply,1
Georgi Mindiashvili,140,Juniors 20-24,20-24,M,,Georgia,,,,,,,290,,290,D,Multi-ply,2
Chris Raffelson,140,Juniors 20-24,20-24,M,,,,,,,,,250,,250,D,Multi-ply,3
