Division,WeightClassKg,Place,Name,Team,BodyweightKg,Best3SquatKg,Best3BenchKg,Best3DeadliftKg,TotalKg,Equipment,Event,Sex
Boys,51.71,1,Billy Jackson,Odessa,51.71,158.76,92.99,161.03,412.77,Single-ply,SBD,M
Boys,51.71,2,David Carrasco,Big Lake Reagan County,49.53,145.15,77.11,158.76,381.02,Single-ply,SBD,M
Boys,51.71,3,Trey Wachsmann,Miles,51.62,133.81,61.23,129.27,324.32,Single-ply,SBD,M
Boys,51.71,4,Trey Phillips,San Angelo Grape Creek,40.82,63.5,22.68,68.04,154.22,Single-ply,SBD,M
Boys,55.79,1,Ryan Folds,San Angelo Grape Creek,53.07,161.03,83.91,167.83,412.77,Single-ply,SBD,M
Boys,55.79,2,Miguel Arroyo,San Angelo Lake View,55.52,145.15,83.91,156.49,385.55,Single-ply,SBD,M
Boys,55.79,3,Raul Rey,Big Lake Reagan County,54.61,151.95,68.04,156.49,376.48,Single-ply,SBD,M
Boys,55.79,4,Benny Dominguez,Odessa,52.34,129.27,52.16,120.2,301.64,Single-ply,SBD,M
Boys,59.87,1,Cody Coombs,San Angelo Lake View,59.6,165.56,97.52,165.56,428.64,Single-ply,SBD,M
Boys,59.87,2,Cade Cramer,Mertzon Irion County,59.24,181.44,90.72,145.15,417.3,Single-ply,SBD,M
Boys,59.87,3,David Corbin,San Angelo Grape Creek,57.06,136.08,72.57,158.76,367.41,Single-ply,SBD,M
Boys,67.13,1,Anthony Olivares,Eldorado,62.14,174.63,113.4,174.63,462.66,Single-ply,SBD,M
Boys,67.13,2,Jesus Villanueva,Odessa,67.13,161.03,95.25,195.04,451.32,Single-ply,SBD,M
Boys,67.13,3,Luis Morales,San Angelo Central,61.42,183.7,92.99,172.37,449.06,Single-ply,SBD,M
Boys,67.13,4,Aiden Brown,Midland,65.95,156.49,95.25,183.7,435.45,Single-ply,SBD,M
Boys,67.13,5,Aiden Fuentes,Ozona,66.41,147.42,86.18,149.69,383.29,Single-ply,SBD,M
Boys,67.13,6,Gavin DeLeon,San Angelo Grape Creek,61.78,151.95,70.31,154.22,376.48,Single-ply,SBD,M
Boys,67.13,7,Elias Luna,Eldorado,65.32,131.54,83.91,145.15,360.61,Single-ply,SBD,M
Boys,67.13,8,John Gonzales,Miles,63.78,120.2,83.91,145.15,349.27,Single-ply,SBD,M
Boys,74.84,1,Mario Martinez,San Angelo Central,74.21,206.38,120.2,201.85,528.44,Single-ply,SBD,M
Boys,74.84,2,Timothy Gates,Midland,74.66,201.85,111.13,188.24,501.22,Single-ply,SBD,M
Boys,74.84,3,Anthony Perez,Ozona,71.94,181.44,122.47,195.04,498.95,Single-ply,SBD,M
Boys,74.84,4,Elijah Turner,Midland,74.84,181.44,111.13,195.04,487.61,Single-ply,SBD,M
Boys,74.84,5,Leroy Garcia,Miles,73.48,174.63,106.59,195.04,476.27,Single-ply,SBD,M
Boys,74.84,6,Elliott Hilliard,Odessa,73.57,170.1,106.59,195.04,471.74,Single-ply,SBD,M
Boys,74.84,7,James Christensen,San Angelo Lake View,72.76,176.9,106.59,172.37,455.86,Single-ply,SBD,M
Boys,74.84,8,Emannuel Sarabia,Ozona,68.04,172.37,99.79,172.37,444.52,Single-ply,SBD,M
Boys,74.84,9,Justin Ortiz,Big Lake Reagan County,74.57,149.69,86.18,174.63,410.5,Single-ply,SBD,M
Boys,74.84,10,Austin Damian,Ozona,73.3,133.81,81.65,138.35,353.8,Single-ply,SBD,M
Boys,74.84,11,Lazaro Rodriguez,Ozona,68.67,136.08,63.5,142.88,342.46,Single-ply,SBD,M
Boys,74.84,12,Edgar Muniz,Eldorado,68.95,136.08,68.04,136.08,340.19,Single-ply,SBD,M
Boys,74.84,13,Mark Johnson,Miles,73.48,111.13,77.11,142.88,331.12,Single-ply,SBD,M
Boys,74.84,14,Teaggan DeLeon,San Angelo Grape Creek,72.57,117.93,77.11,124.74,319.78,Single-ply,SBD,M
Boys,74.84,15,John Paul Estrada,Midland,71.3,172.37,,,172.37,Single-ply,S,M
Boys,82.1,1,Tyler Gonzales,Midland,75.93,226.8,147.42,226.8,601.01,Single-ply,SBD,M
Boys,82.1,2,Steban Flores,Ozona,78.47,190.51,142.88,190.51,523.9,Single-ply,SBD,M
Boys,82.1,3,Julio Narvaez,Eldorado,79.83,208.65,120.2,192.78,521.63,Single-ply,SBD,M
Boys,82.1,4,Frank Muniz,San Angelo Lake View,79.47,176.9,113.4,226.8,517.1,Single-ply,SBD,M
Boys,82.1,5,Larry Steger,Odessa,75.84,183.7,120.2,192.78,496.68,Single-ply,SBD,M
Boys,82.1,6,Edgar Damian,Ozona,79.47,167.83,131.54,165.56,464.93,Single-ply,SBD,M
Boys,82.1,7,Coltyn Rich,San Angelo Central,78.02,170.1,102.06,140.61,412.77,Single-ply,SBD,M
Boys,82.1,8,Chris Smith #4,San Angelo Grape Creek,81.92,151.95,86.18,163.29,401.43,Single-ply,SBD,M
Boys,82.1,9,Issahia Valenzuela,Big Lake Reagan County,81.01,158.76,77.11,145.15,381.02,Single-ply,SBD,M
Boys,82.1,10,Nick Reyes,Big Lake Reagan County,76.75,129.27,92.99,138.35,360.61,Single-ply,SBD,M
Boys,89.81,1,Josh Chandler,Midland,87.54,240.4,163.29,231.33,635.03,Single-ply,SBD,M
Boys,89.81,2,Collin McCullough,Midland,87.91,192.78,149.69,215.46,557.92,Single-ply,SBD,M
Boys,89.81,3,Javarious Smith,San Angelo Lake View,89.72,226.8,117.93,192.78,537.51,Single-ply,SBD,M
Boys,89.81,4,Oscar Lucio,Odessa,88.27,192.78,115.67,206.38,514.83,Single-ply,SBD,M
Boys,89.81,5,Nico Ortiz,Big Lake Reagan County,88.72,204.12,111.13,195.04,510.29,Single-ply,SBD,M
Boys,89.81,6,Kodee Warriner,Big Lake Reagan County,86.91,188.24,102.06,206.38,496.68,Single-ply,SBD,M
Boys,89.81,7,Donatello Tovar,San Angelo Lake View,88.63,176.9,102.06,165.56,444.52,Single-ply,SBD,M
Boys,89.81,8,Coleton Williams,Miles,89.27,149.69,90.72,149.69,390.09,Single-ply,SBD,M
Boys,89.81,9,Chris Llanas,Miles,85.64,142.88,92.99,147.42,383.29,Single-ply,SBD,M
Boys,99.79,1,Keoni Garcia,Midland,99.16,276.69,170.1,249.48,696.26,Single-ply,SBD,M
Boys,99.79,2,Christian Baca,San Angelo Lake View,96.25,231.33,145.15,217.72,594.21,Single-ply,SBD,M
Boys,99.79,3,Anthony Gloria,San Angelo Lake View,93.71,215.46,138.35,215.46,569.26,Single-ply,SBD,M
Boys,99.79,4,Jacob Redwine,Odessa,93.98,192.78,151.95,204.12,548.85,Single-ply,SBD,M
Boys,99.79,5,Angel Gallegos,Big Lake Reagan County,99.06,226.8,117.93,201.85,546.58,Single-ply,SBD,M
Boys,99.79,6,Isaiah Vargas,Midland,96.98,201.85,145.15,183.7,530.7,Single-ply,SBD,M
Boys,99.79,7,Alvaro Leyva,Odessa,98.43,195.04,129.27,192.78,517.1,Single-ply,SBD,M
Boys,99.79,8,Josh Diaz,San Angelo Central,90.72,145.15,77.11,145.15,367.41,Single-ply,SBD,M
Boys,109.77,1,Angel DeLuna,Big Lake Reagan County,108.77,319.78,165.56,254.01,739.36,Single-ply,SBD,M
Boys,109.77,2,JD Esquivel,Big Lake Reagan County,104.33,276.69,142.88,263.08,682.66,Single-ply,SBD,M
Boys,109.77,3,Nathan Sanchez #2,Odessa,103.78,206.38,117.93,217.72,542.04,Single-ply,SBD,M
Boys,109.77,4,David Luera,San Angelo Lake View,101.7,183.7,131.54,210.92,526.17,Single-ply,SBD,M
Boys,109.77,5,Hunter Stelly,San Angelo Central,108.5,222.26,124.74,174.63,521.63,Single-ply,SBD,M
Boys,109.77,6,Chris Chappa,San Angelo Lake View,107.41,192.78,127.01,190.51,510.29,Single-ply,SBD,M
Boys,109.77,7,Albert Arispe,Eldorado,102.51,170.1,115.67,172.37,458.13,Single-ply,SBD,M
Boys,109.77,8,Dylan Mendoza,Ozona,102.15,129.27,77.11,122.47,328.85,Single-ply,SBD,M
Boys,124.74,1,Tristan Ortiz,Big Lake Reagan County,113.58,308.44,133.81,224.53,666.78,Single-ply,SBD,M
Boys,124.74,2,Bailey Perez,Odessa,114.85,226.8,124.74,231.33,582.87,Single-ply,SBD,M
Boys,124.74,3,Emiliano Hernandez,Eldorado,110.95,172.37,97.52,204.12,474,Single-ply,SBD,M
Boys,124.74+,1,Paxton Heiting,Midland,126.1,233.6,204.12,272.16,709.87,Single-ply,SBD,M
Boys,124.74+,2,Fidel Lopez,Midland,140.52,242.67,151.95,226.8,621.42,Single-ply,SBD,M
Boys,124.74+,3,Michael Jordan,San Angelo Lake View,140.61,226.8,127.01,258.55,612.35,Single-ply,SBD,M
Boys,124.74+,4,Donnie Bowers,San Angelo Central,125.19,265.35,131.54,206.38,603.28,Single-ply,SBD,M
Boys,124.74+,5,Taylor Elkins,Mertzon Irion County,137.26,226.8,151.95,195.04,573.79,Single-ply,SBD,M
Boys,124.74+,6,Malik Smith,San Angelo Central,125.28,219.99,142.88,204.12,566.99,Single-ply,SBD,M
Boys,124.74+,7,Brandon Jones,Odessa,156.85,233.6,124.74,174.63,532.97,Single-ply,SBD,M
Boys,124.74+,8,Jarrett Hill,San Angelo Central,130.36,222.26,113.4,190.51,526.17,Single-ply,SBD,M
Boys,,NS,Sedric Smith,San Angelo Central,,,,,,Single-ply,SBD,M
Boys,,NS,Marcus Perez,Ozona,,,,,,Single-ply,SBD,M
Boys,,NS,Christian Yruegas,Ozona,,,,,,Single-ply,SBD,M
Boys,,NS,Caleb Martinez,Ozona,,,,,,Single-ply,SBD,M
Boys,,NS,Caleb Wilson,Mertzon Irion County,,,,,,Single-ply,SBD,M
Boys,,NS,Zack Cook,Miles,,,,,,Single-ply,SBD,M
Boys,,NS,Kevin Yates,Christoval,,,,,,Single-ply,SBD,M
