Division,WeightClassKg,Place,Name,Team,BodyweightKg,Best3SquatKg,Best3BenchKg,Best3DeadliftKg,TotalKg,Equipment,Event,Sex,BirthDate
Boys,51.71,1,Alex Labrada,Whitesboro,51.17,136.08,79.38,151.95,367.41,Single-ply,SBD,M,
Boys,51.71,2,Blake Rogers,Wichita Falls Rider,51.62,115.67,77.11,124.74,317.51,Single-ply,SBD,M,
Boys,55.79,1,Conner Jacobs,Whitesboro,55.52,133.81,72.57,154.22,360.61,Single-ply,SBD,M,
Boys,55.79,2,Dominic Thomas,Archer City,54.7,113.4,86.18,127.01,326.59,Single-ply,SBD,M,
Boys,59.87,1,Don Todd,Iowa Park,58.88,145.15,86.18,147.42,378.75,Single-ply,SBD,M,
Boys,59.87,2,Francisco Balderas,Vernon,58.88,136.08,86.18,156.49,378.75,Single-ply,SBD,M,
Boys,59.87,3,Callon Yarbrough,Iowa Park,58.15,129.27,74.84,136.08,340.19,Single-ply,SBD,M,
Boys,59.87,4,Steven Harris,Burkburnett,57.88,111.13,56.7,117.93,285.76,Single-ply,SBD,M,
Boys,67.13,1,Creed Carter,Sanger,64.5,233.6,117.93,208.65,560.19,Single-ply,SBD,M,
Boys,67.13,2,Logan Leal,Iowa Park,66.32,181.44,106.59,185.97,474,Single-ply,SBD,M,
Boys,67.13,3,Jacob Smith,Whitesboro,66.13,181.44,99.79,188.24,469.47,Single-ply,SBD,M,
Boys,67.13,4,Zack Carter,Sanger,66.77,174.63,95.25,190.51,460.4,Single-ply,SBD,M,
Boys,67.13,5,John Nabors,Wichita Falls City View,66.77,167.83,104.33,185.97,458.13,Single-ply,SBD,M,
Boys,67.13,6,Kason Major,Burkburnett,66.22,183.7,90.72,176.9,451.32,Single-ply,SBD,M,
Boys,67.13,DQ,Christopher Laxamana,Wichita Falls Hirschi,66.86,,,,,Single-ply,SBD,M,
Boys,67.13,DQ,Ben Contreras,Wichita Falls Rider,67.04,,,,,Single-ply,SBD,M,
Boys,74.84,1,Chris Graham,Wichita Falls City View,70.76,254.01,120.2,229.06,603.28,Single-ply,SBD,M,
Boys,74.84,2,Carson Stevens,Iowa Park,74.3,215.46,120.2,195.04,530.7,Single-ply,SBD,M,
Boys,74.84,3,Jesse Pete,Stamford,74.3,195.04,122.47,199.58,517.1,Single-ply,SBD,M,
Boys,74.84,4,Parker Hooper,Wichita Falls Rider,74.75,190.51,115.67,181.44,487.61,Single-ply,SBD,M,
Boys,74.84,5,Jett Millsop,Strawn,72.57,190.51,104.33,172.37,467.2,Single-ply,SBD,M,
Boys,74.84,6,Nick Leon,Wichita Falls Hirschi,73.21,181.44,120.2,163.29,464.93,Single-ply,SBD,M,
Boys,74.84,7,Hyme Guzman,Vernon,71.4,140.61,95.25,142.88,378.75,Single-ply,SBD,M,
Boys,74.84,8,Ismael Trejo,Vernon,68.76,138.35,77.11,136.08,351.53,Single-ply,SBD,M,
Boys,74.84,9,Tin Nguyen,Wichita Falls City View,72.67,133.81,63.5,154.22,351.53,Single-ply,SBD,M,
Boys,74.84,10,Gaige Stevens,Iowa Park,74.75,127.01,90.72,111.13,328.85,Single-ply,SBD,M,
Boys,74.84,DQ,Cayden Resendez-Sigle,Wichita Falls Hirschi,68.95,,,,,Single-ply,SBD,M,
Boys,82.1,1,Chance Bledsoe,Wichita Falls Rider,80.92,226.8,124.74,206.38,557.92,Single-ply,SBD,M,
Boys,82.1,2,Coleman Bledsoe,Wichita Falls Rider,80.2,210.92,133.81,199.58,544.31,Single-ply,SBD,M,
Boys,82.1,3,Jd Craven,Iowa Park,80.65,185.97,129.27,210.92,526.17,Single-ply,SBD,M,
Boys,82.1,4,Bobby Copeland,Wichita Falls City View,81.47,192.78,102.06,201.85,496.68,Single-ply,SBD,M,
Boys,82.1,5,Kyler Hennan,Iowa Park,81.65,181.44,129.27,181.44,492.15,Single-ply,SBD,M,
Boys,82.1,6,Hunter Vanpelt,Burkburnett,81.65,158.76,81.65,176.9,417.3,Single-ply,SBD,M,
Boys,82.1,7,Jesse Franklin,Wichita Falls City View,77.29,104.33,72.57,122.47,299.37,Single-ply,SBD,M,
Boys,82.1,DQ,Reggie Jackson,Wichita Falls Hirschi,81.65,,,,,Single-ply,SBD,M,
Boys,89.81,1,Crafton Lindenborn,Wichita Falls City View,88.9,215.46,138.35,215.46,569.26,Single-ply,SBD,M,
Boys,89.81,2,Dominque Horton,Wichita Falls Rider,83.19,235.87,124.74,199.58,560.19,Single-ply,SBD,M,
Boys,89.81,3,Gunnar Valverde,Wichita Falls Hirschi,83.37,199.58,117.93,208.65,526.17,Single-ply,SBD,M,
Boys,89.81,4,Jordan Gibbs,Wichita Falls Rider,84.46,213.19,122.47,183.7,519.36,Single-ply,SBD,M,
Boys,89.81,5,Harley Cottingham,Wichita Falls Rider,83.01,210.92,113.4,188.24,512.56,Single-ply,SBD,M,
Boys,89.81,6,Kirk Finnell,Wichita Falls Rider,87.36,208.65,92.99,151.95,453.59,Single-ply,SBD,M,
Boys,89.81,7,Jeremiah Velten,Whitesboro,89.63,181.44,81.65,183.7,446.79,Single-ply,SBD,M,
Boys,89.81,8,Jacob Castillo,Whitesboro,87.36,151.95,90.72,176.9,419.57,Single-ply,SBD,M,
Boys,89.81,9,Marshall Knowlton,Whitesboro,89.09,170.1,99.79,149.69,419.57,Single-ply,SBD,M,
Boys,89.81,10,Mason Metcalf,Wichita Falls City View,88.72,140.61,81.65,170.1,392.36,Single-ply,SBD,M,
Boys,89.81,11,Jason Franks,Burkburnett,85.46,81.65,56.7,113.4,251.74,Single-ply,SBD,M,
Boys,89.81,DQ,Tinaye Mubvumba,Vernon,87.36,,,,,Single-ply,SBD,M,
Boys,89.81,DQ,Marcos Morales,Whitesboro,88.9,,,,,Single-ply,SBD,M,
Boys,99.79,1,Gordian Nzeh-Biko,Wichita Falls Hirschi,98.16,249.48,138.35,231.33,619.15,Single-ply,SBD,M,
Boys,99.79,2,Zach Clark,Iowa Park,99.61,217.72,165.56,208.65,591.94,Single-ply,SBD,M,
Boys,99.79,3,Jordain Durham,Wichita Falls City View,93.89,229.06,124.74,226.8,580.6,Single-ply,SBD,M,
Boys,99.79,4,Garrett Kemp,Whitesboro,89.9,213.19,124.74,215.46,553.38,Single-ply,SBD,M,
Boys,99.79,5,Hayden Meng,Burkburnett,98.25,222.26,102.06,217.72,542.04,Single-ply,SBD,M,
Boys,99.79,6,Kasen Miller,Burkburnett,92.71,163.29,90.72,181.44,435.45,Single-ply,SBD,M,
Boys,99.79,7,John Fulton,Burkburnett,91.72,165.56,88.45,161.03,415.04,Single-ply,SBD,M,
Boys,99.79,DQ,Tristan Perez,Wichita Falls Hirschi,90.9,238.14,124.74,,,Single-ply,SBD,M,
Boys,99.79,DQ,Will Straight,Wichita Falls Hirschi,99.7,,,,,Single-ply,SBD,M,
Boys,109.77,1,Conner Partridge,Wichita Falls Rider,108.14,240.4,129.27,179.17,548.85,Single-ply,SBD,M,
Boys,109.77,2,Mason Hill,Wichita Falls City View,106.87,215.46,97.52,226.8,539.77,Single-ply,SBD,M,
Boys,109.77,3,Max Hopkins,Strawn,106.96,226.8,104.33,204.12,535.24,Single-ply,SBD,M,
Boys,109.77,4,Cameron Hudson,Wichita Falls City View,100.88,208.65,129.27,167.83,505.76,Single-ply,SBD,M,
Boys,109.77,5,Caden Cobb,Whitesboro,101.06,188.24,111.13,176.9,476.27,Single-ply,SBD,M,
Boys,109.77,6,Adam Arredondo,Wichita Falls Rider,106.14,183.7,97.52,183.7,464.93,Single-ply,SBD,M,
Boys,109.77,7,Conner Markham,Whitesboro,99.88,165.56,95.25,172.37,433.18,Single-ply,SBD,M,
Boys,109.77,8,Ethan Bennett,Burkburnett,102.87,133.81,86.18,181.44,401.43,Single-ply,SBD,M,
Boys,109.77,9,David Hinkle,Burkburnett,106.05,113.4,61.23,102.06,276.69,Single-ply,SBD,M,
Boys,109.77,DQ,Hayden Graham,Burkburnett,101.79,,,,,Single-ply,SBD,M,
Boys,109.77,DQ,Tyler Willson,Burkburnett,104.78,,,,,Single-ply,SBD,M,
Boys,124.74,1,Lance Asmus,Wichita Falls Rider,116.3,278.96,163.29,240.4,682.66,Single-ply,SBD,M,
Boys,124.74,2,Austin Simmons,Strawn,112.04,226.8,122.47,226.8,576.06,Single-ply,SBD,M,
Boys,124.74,3,Chris Murray,Wichita Falls Hirschi,112.04,210.92,142.88,215.46,569.26,Single-ply,SBD,M,
Boys,124.74,4,Jeremiah Caldwell,Burkburnett,119.11,226.8,124.74,181.44,532.97,Single-ply,SBD,M,
Boys,124.74,5,D'Artaniyon Hernandez,Wichita Falls Hirschi,120.38,181.44,117.93,188.24,487.61,Single-ply,SBD,M,
Boys,124.74,DQ,Cameron Dandridge,Wichita Falls City View,111.58,,,,,Single-ply,SBD,M,
Boys,124.74+,1,Jayden Parsons,Iowa Park,130.36,324.32,188.24,258.55,771.11,Single-ply,SBD,M,
Boys,124.74+,2,Elijah Minson,Iowa Park,157.58,208.65,131.54,156.49,496.68,Single-ply,SBD,M,
Boys,124.74+,3,Wade Graves,Whitesboro,135.35,188.24,136.08,163.29,487.61,Single-ply,SBD,M,
Boys,124.74+,4,Jacob Wadley,Archer City,142.52,127.01,90.72,151.95,369.68,Single-ply,SBD,M,
