Division,WeightClassKg,Place,Name,Team,BodyweightKg,Best3SquatKg,Best3BenchKg,Best3DeadliftKg,TotalKg,Equipment,Event,Sex,BirthDate
Boys,51.71,1,Avery Whitlow,Atlanta,50.26,102.06,56.7,113.4,272.16,Single-ply,SBD,M,
Boys,51.71,2,Ty Phelps,Simms Bowie,50.35,83.91,49.9,90.72,224.53,Single-ply,SBD,M,
Boys,51.71,3,Gavin Cruise,Simms Bowie,48.44,70.31,54.43,88.45,213.19,Single-ply,SBD,M,
Boys,51.71,4,Zach Tucker,Redwater,48.53,70.31,40.82,102.06,213.19,Single-ply,SBD,M,
Boys,51.71,5,David Chavez,Mount Pleasant,50.53,70.31,45.36,97.52,213.19,Single-ply,SBD,M,
Boys,51.71,6,Landon Caudle,Maud,46.36,70.31,40.82,88.45,199.58,Single-ply,SBD,M,
Boys,51.71,7,Levinsky Cooper,Texarkana Texas,40.46,65.77,38.56,90.72,195.04,Single-ply,SBD,M,
Boys,51.71,8,James Day,Simms Bowie,51.71,61.23,34.02,86.18,181.44,Single-ply,SBD,M,
Boys,51.71,9,Alexander Jones,Texarkana Texas,39.19,56.7,24.95,70.31,151.95,Single-ply,SBD,M,
Boys,51.71,DQ,Gavin Bailey,Simms Bowie,47.36,81.65,,97.52,,Single-ply,SBD,M,
Boys,55.79,1,Xavier Edwards,Texarkana Liberty-Eylau,54.61,181.44,113.4,165.56,460.4,Single-ply,SBD,M,
Boys,55.79,2,Kadin Daniels,Maud,54.7,131.54,74.84,151.95,358.34,Single-ply,SBD,M,
Boys,55.79,3,Trevor Swink,Redwater,54.16,113.4,83.91,133.81,331.12,Single-ply,SBD,M,
Boys,55.79,4,Jared Bickham,Maud,55.25,102.06,56.7,117.93,276.69,Single-ply,SBD,M,
Boys,55.79,5,Preston Matlock,Tyler,52.89,90.72,54.43,113.4,258.55,Single-ply,SBD,M,
Boys,59.87,1,Nick Burns,Marshall,56.34,151.95,77.11,149.69,378.75,Single-ply,SBD,M,
Boys,59.87,2,Karson Bynum,Linden-Kildare,58.88,138.35,83.91,140.61,362.87,Single-ply,SBD,M,
Boys,59.87,3,Lane Davis,Mount Pleasant Chapel Hill,57.52,102.06,68.04,127.01,297.1,Single-ply,SBD,M,
Boys,59.87,4,Korben Singletary,Redwater,59.87,92.99,54.43,136.08,283.5,Single-ply,SBD,M,
Boys,59.87,5,Samual Harmon,Simms Bowie,58.88,86.18,43.09,92.99,222.26,Single-ply,SBD,M,
Boys,59.87,DQ,Mason Windham,Redwater,58.15,108.86,,136.08,,Single-ply,SBD,M,
Boys,67.13,1,Roman Roberts,Redwater,66.5,161.03,102.06,208.65,471.74,Single-ply,SBD,M,
Boys,67.13,2,Guy Johnson,Texarkana Texas,66.68,151.95,74.84,154.22,381.02,Single-ply,SBD,M,
Boys,67.13,3,Deshun White,Texarkana Texas,61.69,136.08,79.38,156.49,371.95,Single-ply,SBD,M,
Boys,67.13,4,Adrian Kennington,Atlanta,65.86,131.54,92.99,145.15,369.68,Single-ply,SBD,M,
Boys,67.13,5,Estevan Trejo,Mount Pleasant,67.13,129.27,61.23,131.54,322.05,Single-ply,SBD,M,
Boys,67.13,6,Grayson Smith,Maud,66.22,113.4,65.77,127.01,306.17,Single-ply,SBD,M,
Boys,67.13,7,Wyatt Clepper,Texarkana Liberty-Eylau,64.05,106.59,70.31,115.67,292.57,Single-ply,SBD,M,
Boys,67.13,8,Logan Brock,Redwater,65.05,95.25,65.77,106.59,267.62,Single-ply,SBD,M,
Boys,67.13,9,Jace Bramlett,Maud,62.23,90.72,56.7,115.67,263.08,Single-ply,SBD,M,
Boys,67.13,10,Oscar Otero,Mount Pleasant,66.77,90.72,49.9,108.86,249.48,Single-ply,SBD,M,
Boys,74.84,1,Aidan Alexander,Texarkana Liberty-Eylau,72.39,174.63,142.88,201.85,519.36,Single-ply,SBD,M,
Boys,74.84,2,Lleyton Reed,Texarkana Liberty-Eylau,74.57,188.24,117.93,201.85,508.02,Single-ply,SBD,M,
Boys,74.84,3,Zane Phillips,Mount Pleasant,69.22,185.97,90.72,199.58,476.27,Single-ply,SBD,M,
Boys,74.84,4,Paul Leal,De Kalb,74.3,165.56,117.93,174.63,458.13,Single-ply,SBD,M,
Boys,74.84,5,Logan Shelton,Atlanta,73.48,163.29,102.06,181.44,446.79,Single-ply,SBD,M,
Boys,74.84,6,Steven Turner,Texarkana Liberty-Eylau,69.04,158.76,102.06,181.44,442.25,Single-ply,SBD,M,
Boys,74.84,7,Dylan Thurmon,Marshall,73.39,158.76,113.4,158.76,430.91,Single-ply,SBD,M,
Boys,74.84,8,Austin Terry,Queen City,73.48,176.9,77.11,174.63,428.64,Single-ply,SBD,M,
Boys,74.84,9,Dillan Brown,New Boston,74.84,151.95,97.52,170.1,419.57,Single-ply,SBD,M,
Boys,74.84,10,Cruz Hernandez,De Kalb,68.04,165.56,102.06,149.69,417.3,Single-ply,SBD,M,
Boys,74.84,11,Tyler Thomas,Texarkana Texas,74.03,147.42,106.59,163.29,417.3,Single-ply,SBD,M,
Boys,74.84,12,Montrell Denmark,Texarkana Texas,71.58,142.88,90.72,167.83,401.43,Single-ply,SBD,M,
Boys,74.84,13,Caden Glass,New Boston,69.13,142.88,81.65,158.76,383.29,Single-ply,SBD,M,
Boys,74.84,14,Anthony Jeffery,Mount Pleasant,69.94,136.08,74.84,161.03,371.95,Single-ply,SBD,M,
Boys,74.84,15,Peyton Paul,Marshall,72.67,136.08,90.72,142.88,369.68,Single-ply,SBD,M,
Boys,74.84,16,Austin Roberts,Simms Bowie,68.86,140.61,79.38,140.61,360.61,Single-ply,SBD,M,
Boys,74.84,17,Andrew White,Redwater,70.58,129.27,90.72,140.61,360.61,Single-ply,SBD,M,
Boys,74.84,18,Brent White,Linden-Kildare,68.4,113.4,72.57,158.76,344.73,Single-ply,SBD,M,
Boys,74.84,19,James Byers,Texarkana Texas,70.31,111.13,61.23,122.47,294.84,Single-ply,SBD,M,
Boys,74.84,DQ,Jq David,Marshall,72.03,181.44,,174.63,,Single-ply,SBD,M,
Boys,74.84,DQ,Samuel Netro,Mount Pleasant Chapel Hill,70.4,97.52,,145.15,,Single-ply,SBD,M,
Boys,82.1,1,Dustin Newman,Mount Pleasant Chapel Hill,81.74,256.28,151.95,238.14,646.37,Single-ply,SBD,M,
Boys,82.1,2,Dillon Kizer,De Kalb,80.83,210.92,124.74,210.92,546.58,Single-ply,SBD,M,
Boys,82.1,3,Amar Love,De Kalb,80.83,210.92,113.4,210.92,535.24,Single-ply,SBD,M,
Boys,82.1,4,Ahmajay Carter,Texarkana Liberty-Eylau,77.11,190.51,115.67,197.31,503.49,Single-ply,SBD,M,
Boys,82.1,5,Kentrel Andrews,Atlanta,78.93,195.04,99.79,206.38,501.22,Single-ply,SBD,M,
Boys,82.1,6,Jorodan Stiger,Atlanta,79.56,188.24,102.06,190.51,480.81,Single-ply,SBD,M,
Boys,82.1,7,David Walters,Mount Pleasant Chapel Hill,78.29,170.1,111.13,192.78,474,Single-ply,SBD,M,
Boys,82.1,8,Dominic Williams,Marshall,78.83,163.29,90.72,192.78,446.79,Single-ply,SBD,M,
Boys,82.1,9,Xavier Turner,Marshall,77.02,151.95,92.99,163.29,408.23,Single-ply,SBD,M,
Boys,82.1,10,Caden Miller,Texarkana Texas,76.57,131.54,102.06,142.88,376.48,Single-ply,SBD,M,
Boys,82.1,11,Blade Green,Simms Bowie,79.74,142.88,77.11,149.69,369.68,Single-ply,SBD,M,
Boys,82.1,12,Brendan Clayton,Atlanta,80.38,124.74,79.38,140.61,344.73,Single-ply,SBD,M,
Boys,82.1,13,Jackson Kerr,Linden-Kildare,77.75,136.08,65.77,111.13,312.98,Single-ply,SBD,M,
Boys,82.1,14,I. Baker,Tyler,79.56,102.06,45.36,124.74,272.16,Single-ply,SBD,M,
Boys,82.1,DQ,Jamarious Burrius,Texarkana Liberty-Eylau,81.47,158.76,,136.08,,Single-ply,SBD,M,
Boys,89.81,1,John Collier,Redwater,87.18,254.01,127.01,238.14,619.15,Single-ply,SBD,M,
Boys,89.81,2,Arie Love,De Kalb,87.72,226.8,127.01,226.8,580.6,Single-ply,SBD,M,
Boys,89.81,3,Carron Eaton,Texarkana Liberty-Eylau,85.82,192.78,129.27,219.99,542.04,Single-ply,SBD,M,
Boys,89.81,4,Kole Dooley,De Kalb,89.81,215.46,120.2,192.78,528.44,Single-ply,SBD,M,
Boys,89.81,5,Londell Howard,De Kalb,86.27,183.7,115.67,222.26,521.63,Single-ply,SBD,M,
Boys,89.81,6,Demitri Coles,Texarkana Texas,86.91,188.24,111.13,204.12,503.49,Single-ply,SBD,M,
Boys,89.81,7,Elias Elizondo,Mount Pleasant,87.72,195.04,97.52,204.12,496.68,Single-ply,SBD,M,
Boys,89.81,8,Jeremiah Jefferson,Atlanta,82.64,176.9,99.79,199.58,476.27,Single-ply,SBD,M,
Boys,89.81,9,Easton Minter,Redwater,84.91,181.44,129.27,163.29,474,Single-ply,SBD,M,
Boys,89.81,10,Joshua Cheatham,Texarkana Liberty-Eylau,88,174.63,92.99,197.31,464.93,Single-ply,SBD,M,
Boys,89.81,11,Vontrey Anderson,Texarkana Texas,84.1,190.51,92.99,170.1,453.59,Single-ply,SBD,M,
Boys,89.81,12,Jerrian Cole,New Boston,82.64,167.83,83.91,181.44,433.18,Single-ply,SBD,M,
Boys,89.81,13,Ezekiel Ware,Texarkana Texas,89.81,136.08,102.06,161.03,399.16,Single-ply,SBD,M,
Boys,89.81,14,Gunner Minor,Linden-Kildare,87.45,165.56,86.18,145.15,396.89,Single-ply,SBD,M,
Boys,89.81,15,Amarian Thomas,Atlanta,86.27,158.76,79.38,147.42,385.55,Single-ply,SBD,M,
Boys,89.81,16,John Taylor #11,Tyler,84.1,111.13,74.84,120.2,306.17,Single-ply,SBD,M,
Boys,89.81,17,Hunter Dodson,Atlanta,88.09,106.59,61.23,113.4,281.23,Single-ply,SBD,M,
Boys,89.81,18,Alan Howard,Linden-Kildare,85.18,65.77,34.02,83.91,183.7,Single-ply,SBD,M,
Boys,99.79,1,Trey Adams,Atlanta,93.8,258.55,158.76,226.8,644.1,Single-ply,SBD,M,
Boys,99.79,2,Carlos Rojas,Redwater,95.53,238.14,142.88,238.14,619.15,Single-ply,SBD,M,
Boys,99.79,3,Tarik Hussien,Redwater,97.52,215.46,124.74,210.92,551.11,Single-ply,SBD,M,
Boys,99.79,4,Connor Samples,Atlanta,95.16,195.04,129.27,190.51,514.83,Single-ply,SBD,M,
Boys,99.79,5,Clay Fant,Atlanta,96.62,181.44,124.74,201.85,508.02,Single-ply,SBD,M,
Boys,99.79,6,Cole Williams,Marshall,92.44,204.12,113.4,188.24,505.76,Single-ply,SBD,M,
Boys,99.79,7,Ty Blizzard,Atlanta,94.53,176.9,129.27,195.04,501.22,Single-ply,SBD,M,
Boys,99.79,8,Nick Parker,Redwater,92.8,183.7,115.67,183.7,483.08,Single-ply,SBD,M,
Boys,99.79,9,Davion Dunn,Maud,96.62,183.7,113.4,185.97,483.08,Single-ply,SBD,M,
Boys,99.79,10,Cahari Weekly,Texarkana Texas,95.53,183.7,122.47,174.63,480.81,Single-ply,SBD,M,
Boys,99.79,11,Brandon Obenoskey,Simms Bowie,99.7,188.24,106.59,176.9,471.74,Single-ply,SBD,M,
Boys,99.79,12,Brennan Gaston,Atlanta,97.25,172.37,113.4,181.44,467.2,Single-ply,SBD,M,
Boys,99.79,13,Astin Ledbetter,Mount Pleasant,92.44,167.83,102.06,192.78,462.66,Single-ply,SBD,M,
Boys,99.79,14,Nate Gamble,Texarkana Liberty-Eylau,97.52,167.83,104.33,185.97,458.13,Single-ply,SBD,M,
Boys,99.79,15,Carson Dillinger,Atlanta,93.98,181.44,92.99,179.17,453.59,Single-ply,SBD,M,
Boys,99.79,16,Jawad Hussien,Redwater,94.08,183.7,102.06,161.03,446.79,Single-ply,SBD,M,
Boys,99.79,17,James Stacy,Redwater,98.88,170.1,92.99,151.95,415.04,Single-ply,SBD,M,
Boys,99.79,18,Ethan Lum,Simms Bowie,96.62,151.95,102.06,151.95,405.97,Single-ply,SBD,M,
Boys,99.79,19,Tate Mitchell,Linden-Kildare,95.35,161.03,92.99,149.69,403.7,Single-ply,SBD,M,
Boys,99.79,20,Samuel Fuentes,Tyler,98.07,156.49,88.45,156.49,401.43,Single-ply,SBD,M,
Boys,99.79,21,Reece Waddell,Redwater,97.16,136.08,61.23,156.49,353.8,Single-ply,SBD,M,
Boys,99.79,22,Charles Baker,Tyler,95.07,127.01,88.45,127.01,342.46,Single-ply,SBD,M,
Boys,109.77,1,Cade Fant,Atlanta,106.59,254.01,149.69,244.94,648.64,Single-ply,SBD,M,
Boys,109.77,2,Trestin Whitehead,Texarkana Texas,100.24,242.67,158.76,244.94,646.37,Single-ply,SBD,M,
Boys,109.77,3,Justin Lance,Queen City,106.78,272.16,131.54,206.38,610.08,Single-ply,SBD,M,
Boys,109.77,4,Isiah Alexander,Marshall,108.5,215.46,113.4,217.72,546.58,Single-ply,SBD,M,
Boys,109.77,5,Collin Shelley,Texarkana Texas,109.77,183.7,102.06,195.04,480.81,Single-ply,SBD,M,
Boys,109.77,6,Isaiah Harrison,Atlanta,106.32,181.44,117.93,165.56,464.93,Single-ply,SBD,M,
Boys,109.77,7,Antonio Tyson,Texarkana Texas,101.42,176.9,92.99,181.44,451.32,Single-ply,SBD,M,
Boys,109.77,8,Hayden Harrell,Texarkana Texas,108.95,172.37,83.91,183.7,439.98,Single-ply,SBD,M,
Boys,109.77,9,James Smith,Simms Bowie,105.23,158.76,83.91,181.44,424.11,Single-ply,SBD,M,
Boys,109.77,10,Jay Washington,Marshall,107.5,149.69,95.25,172.37,417.3,Single-ply,SBD,M,
Boys,109.77,11,DeAundre Mitchell,Atlanta,103.06,133.81,111.13,163.29,408.23,Single-ply,SBD,M,
Boys,109.77,12,Carlos Cortes,Atlanta,104.78,151.95,81.65,151.95,385.55,Single-ply,SBD,M,
Boys,109.77,13,Oscar Perez,Mount Pleasant,102.15,138.35,72.57,138.35,349.27,Single-ply,SBD,M,
Boys,109.77,14,KaDarius Tave,Tyler,103.69,138.35,72.57,138.35,349.27,Single-ply,SBD,M,
Boys,109.77,15,Richard Jackson,Texarkana Texas,109.5,124.74,72.57,129.27,326.59,Single-ply,SBD,M,
Boys,109.77,16,Morgan Thrapp,Mount Pleasant Chapel Hill,108.05,108.86,56.7,113.4,278.96,Single-ply,SBD,M,
Boys,109.77,DQ,Blake Mays,Mount Pleasant,107.68,174.63,111.13,,,Single-ply,SBD,M,
Boys,109.77,DQ,Maleik Riley,Texarkana Liberty-Eylau,100.97,201.85,,219.99,,Single-ply,SBD,M,
Boys,124.74,1,George Lias,Mount Pleasant,113.4,278.96,131.54,238.14,648.64,Single-ply,SBD,M,
Boys,124.74,2,Aiden Hunter,Texarkana Texas,124.38,226.8,129.27,208.65,564.72,Single-ply,SBD,M,
Boys,124.74,3,David Ardinger,Texarkana Liberty-Eylau,120.66,204.12,113.4,204.12,521.63,Single-ply,SBD,M,
Boys,124.74,4,Brandon Childs,Texarkana Texas,115.12,213.19,113.4,188.24,514.83,Single-ply,SBD,M,
Boys,124.74,5,Christian Surratt,Texarkana Texas,123.2,204.12,124.74,185.97,514.83,Single-ply,SBD,M,
Boys,124.74,6,Landon Liles,Linden-Kildare,118.84,190.51,113.4,204.12,508.02,Single-ply,SBD,M,
Boys,124.74,7,Jesus Gonzalez,Mount Pleasant,113.85,192.78,104.33,206.38,503.49,Single-ply,SBD,M,
Boys,124.74,8,Gabe Dials,Texarkana Liberty-Eylau,122.83,192.78,115.67,179.17,487.61,Single-ply,SBD,M,
Boys,124.74,9,LeTavion Erwin,Tyler,110.31,163.29,111.13,158.76,433.18,Single-ply,SBD,M,
Boys,124.74,10,Preston Johnson,Tyler,111.58,158.76,86.18,145.15,390.09,Single-ply,SBD,M,
Boys,124.74,11,John Jack,Texarkana Texas,110.86,145.15,74.84,161.03,381.02,Single-ply,SBD,M,
Boys,124.74,12,Morgan Bivens,Atlanta,117.3,136.08,92.99,140.61,369.68,Single-ply,SBD,M,
Boys,124.74+,1,Demarchus Day,Texarkana Texas,157.4,229.06,161.03,242.67,632.76,Single-ply,SBD,M,
Boys,124.74+,2,Cedric Davis,Queen City,162.66,260.82,131.54,240.4,632.76,Single-ply,SBD,M,
Boys,124.74+,3,Ashton Williams,Tyler,158.21,226.8,149.69,188.24,564.72,Single-ply,SBD,M,
Boys,124.74+,4,Cody Rutherford,New Boston,143.52,226.8,113.4,217.72,557.92,Single-ply,SBD,M,
Boys,124.74+,5,Lewis Dunn,Marshall,128.91,206.38,106.59,215.46,528.44,Single-ply,SBD,M,
Boys,124.74+,6,T Satchel,Marshall,132.54,204.12,120.2,204.12,528.44,Single-ply,SBD,M,
Boys,124.74+,7,Tyler Welborn,Mount Pleasant,150.68,204.12,108.86,199.58,512.56,Single-ply,SBD,M,
Boys,124.74+,8,LaTravion Hawkins,Tyler,127.19,192.78,124.74,188.24,505.76,Single-ply,SBD,M,
Boys,124.74+,9,Joshua Wright,Texarkana Liberty-Eylau,154.77,167.83,136.08,201.85,505.76,Single-ply,SBD,M,
Boys,124.74+,10,Josh Herrera,Mount Pleasant,140.16,219.99,95.25,181.44,496.68,Single-ply,SBD,M,
Boys,124.74+,11,Breoski Warren,Texarkana Texas,155.31,192.78,111.13,185.97,489.88,Single-ply,SBD,M,
Boys,124.74+,12,Nick Batton,Texarkana Texas,131.54,174.63,97.52,172.37,444.52,Single-ply,SBD,M,
Boys,124.74+,13,Mitchell Elder,Tyler,137.89,163.29,122.47,142.88,428.64,Single-ply,SBD,M,
Boys,124.74+,14,Qushawn Mcculloch,Texarkana Texas,139.25,145.15,95.25,185.97,426.38,Single-ply,SBD,M,
Boys,124.74+,15,Temarcus Brown,Texarkana Texas,155.95,142.88,92.99,102.06,337.93,Single-ply,SBD,M,
Boys,124.74+,DQ,Jason Murphy,Texarkana Liberty-Eylau,144.79,210.92,,185.97,,Single-ply,SBD,M,
Boys,,NS,Jarrell Pool,Texarkana Texas,,,,,,Single-ply,SBD,M,
