Place,Name,BirthYear,WeightClassKg,BodyweightKg,Country,Best3SquatKg,Best3BenchKg,Best3DeadliftKg,TotalKg,Event,Equipment,Sex,Division
1,Alexander Yartsev,1954,52,51.8,Russia,175,95,195,465,SBD,Single-ply,M,Masters 1
1,Johann Mandl,1949,56,52.1,Austria,105,60,135,300,SBD,Single-ply,M,Masters 1
2,Pavlo Tabatsky,1950,56,55.3,Ukraine,90,70,100,260,SBD,Single-ply,M,Masters 1
1,Burkhard Steffen,1950,60,60,Germany,177.5,117.5,162.5,457.5,SBD,Single-ply,M,Masters 1
1,Gennady Sayapin,1952,67.5,65.7,Russia,230,137.5,235,602.5,SBD,Single-ply,M,Masters 1
2,Peter Kravtsov,1946,67.5,66,Ukraine,240,137.5,217.5,595,SBD,Single-ply,M,Masters 1
3,Mikola Ogly,1949,67.5,67.3,Ukraine,220,130,242.5,592.5,SBD,Single-ply,M,Masters 1
4,Alain Cuvelier,1953,67.5,67,France,230,140,220,590,SBD,Single-ply,M,Masters 1
5,Janis Pavlukas,1946,67.5,67.2,Latvia,200,110,225,535,SBD,Single-ply,M,Masters 1
1,Leonid Lokhov,1948,75,74,Russia,245,155,261,661,SBD,Single-ply,M,Masters 1
2,Herbert Haas,1949,75,74.6,Austria,240,160,230,630,SBD,Single-ply,M,Masters 1
3,Vitaliy Krivtsov,1951,75,74.6,Ukraine,232.5,152.5,230,615,SBD,Single-ply,M,Masters 1
4,Olexan Nesterenko,1953,75,72.6,Ukraine,235,130,230,595,SBD,Single-ply,M,Masters 1
1,Alexand Nemchlnov,1951,82.5,82.5,Russia,272.5,160,270,702.5,SBD,Single-ply,M,Masters 1
2,Valeriy Glazunov,1948,82.5,81.5,Russia,272.5,185,240,697.5,SBD,Single-ply,M,Masters 1
3,Yaroslav Chala,1948,82.5,81,Ukraine,230,180.5,250,660.5,SBD,Single-ply,M,Masters 1
4,Volodi Leshchenko,1946,82.5,82,Ukraine,255,152.5,230,637.5,SBD,Single-ply,M,Masters 1
5,Vladimirs Belik,1947,82.5,80.7,Latvia,165,120,210,495,SBD,Single-ply,M,Masters 1
DQ,Loseb Charabadze,1952,82.5,81.2,Georgia,270,,,,SBD,Single-ply,M,Masters 1
1,Roland Martins,1953,90,83.8,France,230,155,270,655,SBD,Single-ply,M,Masters 1
2,Menfred Vetter,1952,90,88.8,Germany,230,137.5,265,632.5,SBD,Single-ply,M,Masters 1
3,Kārlis Bulāns,1952,90,87.2,Latvia,215,130,270,615,SBD,Single-ply,M,Masters 1
4,Reijo Jaakola,1948,90,89.6,Finland,210,165,240,615,SBD,Single-ply,M,Masters 1
5,Joachim Lehmann,1949,90,86.5,Germany,202.5,125,230,557.5,SBD,Single-ply,M,Masters 1
6,Margonis Zīberts,1950,90,86,Latvia,200,115,220,535,SBD,Single-ply,M,Masters 1
1,Vyachesi Piskunov,1951,100,98.7,Russia,330,180,330.5,840.5,SBD,Single-ply,M,Masters 1
2,Em Weixelgartner,1952,100,96,Austria,280,172.5,280,732.5,SBD,Single-ply,M,Masters 1
3,Siegmund Schiebe,1953,100,93.7,Germany,250,157.5,277.5,685,SBD,Single-ply,M,Masters 1
4,Michel Lefevre,1949,100,99.2,France,240,170,260,670,SBD,Single-ply,M,Masters 1
5,Yuriy Simonenko,1949,100,91.9,Ukraine,250,155,260,665,SBD,Single-ply,M,Masters 1
1,Mikail Bobkov,1950,110,107.8,Russia,290,205,302.5,797.5,SBD,Single-ply,M,Masters 1
2,Mark Borograd,1948,110,109,Russia,280,190,310,780,SBD,Single-ply,M,Masters 1
3,Volodomir Lebedev,1950,110,101.5,Ukraine,275,160,270,705,SBD,Single-ply,M,Masters 1
4,Helmut Platzer,1951,110,100.2,Germany,255,147.5,275,677.5,SBD,Single-ply,M,Masters 1
1,Viktor Naleykin,1953,125,123.1,Ukraine,370,227.5,350,947.5,SBD,Single-ply,M,Masters 1
2,Nikolai Sinev,1954,125,120.1,Russia,300,175,302.5,777.5,SBD,Single-ply,M,Masters 1
3,Olexiy Rokochiy,1951,125,115.4,Ukraine,290,170,270,730,SBD,Single-ply,M,Masters 1
1,Valery Schedrin,1954,125+,132.7,Russia,360,210,300,870,SBD,Single-ply,M,Masters 1
2,Leonid Emelyanov,1949,125+,127,Russia,300,215,285,800,SBD,Single-ply,M,Masters 1
3,Georg Boström,1947,125+,129.1,Sweden,225,150,225,600,SBD,Single-ply,M,Masters 1
1,Vladimir Denisov,1937,52,50.2,Russia,100,65,130,295,SBD,Single-ply,M,Masters 2
2,Heikki Mähönen,1924,52,51.2,Finland,57.5,52.5,100,210,SBD,Single-ply,M,Masters 2
1,Genadiy Potepun,1939,56,55.6,Ukraine,120,67.5,120,307.5,SBD,Single-ply,M,Masters 2
1,Lucien DeFaria,1942,60,59.7,France,170,125,215,510,SBD,Single-ply,M,Masters 2
2,Vladim Sadovnikov,1943,60,60,Russia,175,92.5,200,467.5,SBD,Single-ply,M,Masters 2
1,Yuriy Povetkin,1939,67.5,66.9,Russia,180,140.5,220,540.5,SBD,Single-ply,M,Masters 2
2,Vyacheslav Ditin,1944,67.5,67.4,Russia,165,110,200,475,SBD,Single-ply,M,Masters 2
3,Marcel Nivault,1933,67.5,61,France,180,72.5,205,457.5,SBD,Single-ply,M,Masters 2
4,Anatol Parkomenko,1941,67.5,64.6,Ukraine,150,115,180,445,SBD,Single-ply,M,Masters 2
1,Vyaches Bogomolov,1939,75,74.4,Russia,200,125,240,565,SBD,Single-ply,M,Masters 2
2,Yves Garcia,1942,75,72,France,205,110,205,520,SBD,Single-ply,M,Masters 2
3,Olexander Loginov,1938,75,74.1,Ukraine,140,80,165,385,SBD,Single-ply,M,Masters 2
1,Boris Zherebtsov,1937,82.5,82,Ukraine,215,145,250,610,SBD,Single-ply,M,Masters 2
2,Rene Germany,1941,82.5,81.2,France,200,140,252.5,592.5,SBD,Single-ply,M,Masters 2
3,Volodiml Burlakov,1927,82.5,81.9,Ukraine,150,130,180,460,SBD,Single-ply,M,Masters 2
1,Evgeny Khokhlov,1941,90,89,Russia,260,160,250,670,SBD,Single-ply,M,Masters 2
2,Klaus Zander,1935,90,88.4,France,220,150,235,605,SBD,Single-ply,M,Masters 2
3,Wolfgang Kolditz,1940,90,83.5,Germany,160,97.5,160,417.5,SBD,Single-ply,M,Masters 2
DQ,Leonid Lodkin,1934,90,88.5,Ukraine,205,,,,SBD,Single-ply,M,Masters 2
1,Willi Müller,1939,100,99.5,Germany,272.5,160,300,732.5,SBD,Single-ply,M,Masters 2
2,Yuri Lobachev,1936,100,98,Russia,220,150,255,625,SBD,Single-ply,M,Masters 2
1,Vsevolod Babenko,1937,110,100.1,Ukraine,270,167.5,282.5,720,SBD,Single-ply,M,Masters 2
2,Albert Shakhtarin,1937,110,100.3,Russia,270,180,270,720,SBD,Single-ply,M,Masters 2
3,Kyösti Mäkinen,1943,110,109.1,Finland,250,162.5,277.5,690,SBD,Single-ply,M,Masters 2
4,Mikola Yudin,1938,110,100.5,Ukraine,250,167.5,260,677.5,SBD,Single-ply,M,Masters 2
5,Hans Frece,1940,110,104.3,Germany,235,145,225,605,SBD,Single-ply,M,Masters 2
1,Yuriy Kalashnik,1940,125,119.7,Ukraine,290,180,290,760,SBD,Single-ply,M,Masters 2
2,Nikolay Shulyatev,1940,125,114.3,Russia,220,132.5,235,587.5,SBD,Single-ply,M,Masters 2
3,Reija Heino,1932,125,111.3,Finland,190,120,250,560,SBD,Single-ply,M,Masters 2
4,Evgeny Dimitriev,1940,125,111.4,Russia,190,150,210,550,SBD,Single-ply,M,Masters 2
5,Roberts Beitans,1939,125,119.6,Latvia,130,130,170,430,SBD,Single-ply,M,Masters 2
1,Victor Shepetko,1939,125+,156,Ukraine,280,170,270,720,SBD,Single-ply,M,Masters 2
2,Anatoly Yaramenko,1939,125+,131.2,Ukraine,255,165,255,675,SBD,Single-ply,M,Masters 2
3,Horst Volke,1938,125+,131.3,Germany,250,185,240,675,SBD,Single-ply,M,Masters 2
4,Vladimir Maramzin,1941,125+,133.3,Russia,240,150,250,640,SBD,Single-ply,M,Masters 2
5,Eduard Dobriy,1941,125+,125.6,Estonia,200,165,170,535,SBD,Single-ply,M,Masters 2
