Division,WeightClassKg,Place,Name,Team,BodyweightKg,Best3SquatKg,Best3BenchKg,Best3DeadliftKg,TotalKg,Equipment,Event,Sex
Girls,44.23,1,Guadalupe Gobellan,Hillsboro,40.82,113.4,47.63,111.13,272.16,Single-ply,SBD,F
Girls,44.23,2,Lori Olvera,Alvarado,43.77,86.18,49.9,95.25,231.33,Single-ply,SBD,F
Girls,44.23,3,Kirsten Boyd,Alvarado,40.01,81.65,40.82,83.91,206.38,Single-ply,SBD,F
Girls,44.23,4,Jessica Duque,Hillsboro,40.55,77.11,36.29,92.99,206.38,Single-ply,SBD,F
Girls,44.23,5,Clarissa Castaneda,Hillsboro,41.82,72.57,36.29,83.91,192.78,Single-ply,SBD,F
Girls,44.23,6,Britney Yannello,Springtown,44,70.31,29.48,81.65,181.44,Single-ply,SBD,F
Girls,44.23,7,Taylor Haas,Alvarado,43.68,74.84,34.02,65.77,174.63,Single-ply,SBD,F
Girls,47.85,1,Jacqueline Washington,Hillsboro,47.22,127.01,68.04,136.08,331.12,Single-ply,SBD,F
Girls,47.85,2,Cloei Adams,Springtown,46.9,104.33,61.23,92.99,258.55,Single-ply,SBD,F
Girls,47.85,3,Nellie Carruth,Waco Reicher Catholic,47.72,90.72,43.09,111.13,244.94,Single-ply,SBD,F
Girls,47.85,4,Judith Marcos,Hillsboro,47.08,90.72,31.75,83.91,206.38,Single-ply,SBD,F
Girls,47.85,5,Leana Bodovsky,Hillsboro,47.54,65.77,38.56,65.77,170.1,Single-ply,SBD,F
Girls,51.94,1,Kalen Ruiz,Venus,50.17,120.2,61.23,124.74,306.17,Single-ply,SBD,F
Girls,51.94,2,Destiny Martinez,Venus,51.71,124.74,52.16,113.4,290.3,Single-ply,SBD,F
Girls,51.94,3,Esmeralda Hernandez,Weatherford,50.62,108.86,49.9,113.4,272.16,Single-ply,SBD,F
Girls,51.94,4,Malisa Cruz,Hillsboro,51.89,115.67,52.16,104.33,272.16,Single-ply,SBD,F
Girls,51.94,5,Harley Hawk,Springtown,50.71,99.79,52.16,104.33,256.28,Single-ply,SBD,F
Girls,51.94,6,Harlee Owen,Alvarado,50.8,102.06,45.36,104.33,251.74,Single-ply,SBD,F
Girls,51.94,7,Ariana Hernández,Rogers,49.62,92.99,38.56,104.33,235.87,Single-ply,SBD,F
Girls,51.94,8,Olivia Hernandez,Alvarado,48.81,81.65,40.82,90.72,213.19,Single-ply,SBD,F
Girls,51.94,DQ,Mindy Mullens,Springtown,51.8,,,,,Single-ply,SBD,F
Girls,56.02,1,Trew Gaston,Springtown,52.8,124.74,74.84,136.08,335.66,Single-ply,SBD,F
Girls,56.02,2,Shyann Lewis,Venus,54.07,111.13,52.16,111.13,274.42,Single-ply,SBD,F
Girls,56.02,3,Karina Ramirez,Venus,54.43,104.33,63.5,106.59,274.42,Single-ply,SBD,F
Girls,56.02,4,Aryana Gober,Meridian,55.16,106.59,47.63,113.4,267.62,Single-ply,SBD,F
Girls,56.02,5,Lauren Osborne,Springtown,52.44,102.06,43.09,104.33,249.48,Single-ply,SBD,F
Girls,56.02,6,Kaitlyn Brown,Venus,55.34,122.47,,,122.47,Single-ply,S,F
Girls,60.1,1,Isabella Weatherby,Alvarado,59.06,183.7,81.65,142.88,408.23,Single-ply,SBD,F
Girls,60.1,2,Rachel Hellam,Springtown,58.6,151.95,70.31,136.08,358.34,Single-ply,SBD,F
Girls,60.1,3,Gissel Bustos,Venus,58.97,127.01,68.04,120.2,315.25,Single-ply,SBD,F
Girls,60.1,4,Angelica Sanchez,Venus,58.6,117.93,63.5,117.93,299.37,Single-ply,SBD,F
Girls,60.1,5,Lexy Ide,Rogers,56.88,99.79,43.09,108.86,251.74,Single-ply,SBD,F
Girls,67.36,1,Sheila Flores,Hillsboro,65.5,158.76,72.57,122.47,353.8,Single-ply,SBD,F
Girls,67.36,2,Madelyn Vining,Springtown,66.95,147.42,70.31,131.54,349.27,Single-ply,SBD,F
Girls,67.36,3,Kayla Gonzalez,Venus,65.41,145.15,65.77,136.08,347,Single-ply,SBD,F
Girls,67.36,4,Morgan Dunn,Weatherford,65.95,136.08,72.57,133.81,342.46,Single-ply,SBD,F
Girls,67.36,5,Sava Gagich,Alvarado,65.05,136.08,68.04,131.54,335.66,Single-ply,SBD,F
Girls,67.36,6,Hannah Naivar,Rogers,64.86,117.93,54.43,136.08,308.44,Single-ply,SBD,F
Girls,67.36,7,Emalie Arnold,Alvarado,66.04,111.13,72.57,122.47,306.17,Single-ply,SBD,F
Girls,67.36,8,Nancy Hernandez-Lara,Weatherford,66.5,113.4,72.57,117.93,303.91,Single-ply,SBD,F
Girls,67.36,9,Anahi Gaeta,Alvarado,65.77,115.67,58.97,113.4,288.03,Single-ply,SBD,F
Girls,67.36,10,A'nayja Saders,Hillsboro,64.05,90.72,54.43,104.33,249.48,Single-ply,SBD,F
Girls,67.36,11,Kate Youens,Waco Reicher Catholic,61.87,90.72,27.22,90.72,208.65,Single-ply,SBD,F
Girls,67.36,12,Jessica Ramírez #1,Alvarado,64.68,79.38,,,79.38,Single-ply,S,F
Girls,67.36,13,Brianna Islas,Alvarado,66.45,58.97,,,58.97,Single-ply,S,F
Girls,75.07,1,Hannah Patton,Hillsboro,74.12,151.95,68.04,142.88,362.87,Single-ply,SBD,F
Girls,75.07,2,Kalie Whitehall,Venus,69.4,124.74,95.25,122.47,342.46,Single-ply,SBD,F
Girls,75.07,3,Monserat Seranno,Hillsboro,72.3,145.15,65.77,129.27,340.19,Single-ply,SBD,F
Girls,75.07,4,Ellie Ward,Waco Reicher Catholic,69.85,115.67,49.9,117.93,283.5,Single-ply,SBD,F
Girls,75.07,DQ,Karen Montez,Hillsboro,70.94,,,,,Single-ply,SBD,F
Girls,82.33,1,Natalie Lopez,Venus,79.02,165.56,77.11,122.47,365.14,Single-ply,SBD,F
Girls,82.33,2,Shelby Bruggman,Rogers,80.1,127.01,72.57,131.54,331.12,Single-ply,SBD,F
Girls,82.33,3,Lillie Izquierdo,Hillsboro,77.29,140.61,52.16,131.54,324.32,Single-ply,SBD,F
Girls,82.33,4,Nayda Rodriquez,Venus,76.2,140.61,68.04,113.4,322.05,Single-ply,SBD,F
Girls,82.33,5,Allure Cavazos,Waco Reicher Catholic,82.1,122.47,52.16,117.93,292.57,Single-ply,SBD,F
Girls,82.33,6,Bri Hapenney,Waco Reicher Catholic,81.92,111.13,52.16,122.47,285.76,Single-ply,SBD,F
Girls,82.33,7,Lauren Galindo,Weatherford,81.74,95.25,52.16,92.99,240.4,Single-ply,SBD,F
Girls,82.33,DQ,Lydia Pardun,China Spring,75.21,,,,,Single-ply,SBD,F
Girls,90.04,1,Macy Haverstroh,Alvarado,82.74,124.74,54.43,122.47,301.64,Single-ply,SBD,F
Girls,90.04,2,Brianna Lopez,Maypearl,89.09,81.65,,,81.65,Single-ply,S,F
Girls,90.04,DQ,Dezne Taylor,Alvarado,89.13,,,,,Single-ply,SBD,F
Girls,100.02,1,Jazmine Kuper,Springtown,97.98,215.46,138.35,165.56,519.36,Single-ply,SBD,F
Girls,100.02,2,Emily Crowder,Alvarado,99.2,138.35,88.45,149.69,376.48,Single-ply,SBD,F
Girls,100.02,3,Estafana Whitmer,Meridian,96.16,163.29,65.77,145.15,374.21,Single-ply,SBD,F
Girls,100.02,4,McKayla Bible,China Spring,91.44,90.72,45.36,95.25,231.33,Single-ply,SBD,F
Girls,117.71,1,Jaycee Brown,Alvarado,100.88,136.08,65.77,145.15,347,Single-ply,SBD,F
Girls,117.71,2,Kellie Blake,Maypearl,106.87,136.08,86.18,122.47,344.73,Single-ply,SBD,F
Girls,117.71,3,Gigi Miller,China Spring,102.33,122.47,77.11,124.74,324.32,Single-ply,SBD,F
Girls,117.71,DQ,Monica Hernandez,Hillsboro,104.14,,,,,Single-ply,SBD,F
Girls,117.71+,1,Blake Jarvis,Springtown,118.57,163.29,72.57,127.01,362.87,Single-ply,SBD,F
Girls,117.71+,2,Valerie Lee,Alvarado,131.09,131.54,83.91,136.08,351.53,Single-ply,SBD,F
