Division,WeightClassKg,Place,Name,Team,BodyweightKg,Best3SquatKg,Best3BenchKg,Best3DeadliftKg,TotalKg,Equipment,Event,Sex,BirthDate
Girls,44.23,1,Brayleigh McGill,Panhandle,44.18,95.25,45.36,122.47,263.08,Single-ply,SBD,F,
Girls,44.23,2,Aubrey Jaramillo,Clarendon,38.46,74.84,43.09,86.18,204.12,Single-ply,SBD,F,
Girls,44.23,3,Natalie Kelley,Quanah,43.27,72.57,36.29,86.18,195.04,Single-ply,SBD,F,
Girls,44.23,4,Ariyana Gomez,Dumas,44.18,49.9,29.48,61.23,140.61,Single-ply,SBD,F,
Girls,44.23,5,Natalie Vera,Dumas,37.47,45.36,20.41,47.63,113.4,Single-ply,SBD,F,
Girls,47.85,1,Grecia Almanza,Dimmitt,47.81,95.25,49.9,99.79,244.94,Single-ply,SBD,F,
Girls,47.85,2,Emma Rangel,Sunray,46.81,102.06,34.02,95.25,231.33,Single-ply,SBD,F,
Girls,47.85,3,Brin Mowry,Canyon,46.9,90.72,34.02,106.59,231.33,Single-ply,SBD,F,
Girls,47.85,4,Camryn Kelso,Vega,46.45,88.45,31.75,83.91,204.12,Single-ply,SBD,F,
Girls,47.85,5,Damita Estrada,Dumas,47.81,72.57,31.75,99.79,204.12,Single-ply,SBD,F,
Girls,47.85,6,Alondra Tarango,Bovina,46.27,70.31,29.48,77.11,176.9,Single-ply,SBD,F,
Girls,47.85,7,Jolie Maples,Amarillo Highland Park,47.63,56.7,29.48,90.72,176.9,Single-ply,SBD,F,
Girls,47.85,8,Cassidy Reyes,Bovina,45.9,61.23,27.22,77.11,165.56,Single-ply,SBD,F,
Girls,51.94,1,Britney Olivas,Dumas,51.89,129.27,72.57,115.67,317.51,Single-ply,SBD,F,
Girls,51.94,2,Brianna Cortez,Perryton,51.89,129.27,47.63,120.2,297.1,Single-ply,SBD,F,
Girls,51.94,3,Evyn Winborne,Panhandle,50.62,97.52,52.16,117.93,267.62,Single-ply,SBD,F,
Girls,51.94,4,Isabel Navarrete,Perryton,50.53,97.52,52.16,104.33,254.01,Single-ply,SBD,F,
Girls,51.94,5,Jadyn Coffee,Panhandle,51.26,102.06,47.63,104.33,254.01,Single-ply,SBD,F,
Girls,51.94,6,Genesis Flores,Perryton,51.07,92.99,49.9,88.45,231.33,Single-ply,SBD,F,
Girls,51.94,7,America Arenivar,Dumas,51.35,74.84,47.63,102.06,224.53,Single-ply,SBD,F,
Girls,51.94,8,Ady Perez,Sunray,48.08,90.72,34.02,92.99,217.72,Single-ply,SBD,F,
Girls,51.94,9,Kendi Ashcraft,Quanah,48.99,88.45,36.29,90.72,215.46,Single-ply,SBD,F,
Girls,51.94,10,Karen Jaquez,Perryton,51.8,79.38,43.09,90.72,213.19,Single-ply,SBD,F,
Girls,51.94,11,Madilyn Ellerbrook,Childress,50.44,81.65,29.48,74.84,185.97,Single-ply,SBD,F,
Girls,56.02,1,Vanessa Martinez,Dumas,55.07,120.2,61.23,111.13,292.57,Single-ply,SBD,F,
Girls,56.02,2,Denesia Garcia,Dumas,55.34,97.52,63.5,92.99,254.01,Single-ply,SBD,F,
Girls,56.02,3,Esperanza Perez,Plainview,55.16,99.79,43.09,95.25,238.14,Single-ply,SBD,F,
Girls,56.02,4,Daniella Saucedo,Perryton,53.61,86.18,45.36,86.18,217.72,Single-ply,SBD,F,
Girls,56.02,5,Camery Applegate,Panhandle,55.88,72.57,31.75,70.31,174.63,Single-ply,SBD,F,
Girls,56.02,DQ,Bailey Dettle,Dalhart,55.79,,,,,Single-ply,SBD,F,
Girls,56.02,DQ,Mackenzie Sharon,Amarillo Highland Park,52.8,,,,,Single-ply,SBD,F,
Girls,60.1,1,Destiny Cervantes,Dumas,58.42,147.42,86.18,136.08,369.68,Single-ply,SBD,F,
Girls,60.1,2,Daniela Bustillos,Sunray,58.88,136.08,56.7,136.08,328.85,Single-ply,SBD,F,
Girls,60.1,3,Mariana Rosales,Tulia,56.79,120.2,49.9,127.01,297.1,Single-ply,SBD,F,
Girls,60.1,4,Gladys Gonzalez,Sunray,60.06,111.13,54.43,113.4,278.96,Single-ply,SBD,F,
Girls,60.1,5,Areli Mercado,Tulia,58.97,104.33,47.63,104.33,256.28,Single-ply,SBD,F,
Girls,60.1,6,Sable Ortiz,Perryton,60.06,97.52,47.63,111.13,256.28,Single-ply,SBD,F,
Girls,60.1,7,Alicia De La Cruz,Bovina,57.7,81.65,31.75,92.99,206.38,Single-ply,SBD,F,
Girls,60.1,8,Destiny Amaya,Amarillo Highland Park,58.06,68.04,29.48,81.65,179.17,Single-ply,SBD,F,
Girls,60.1,9,Sariya Romero,Amarillo Highland Park,58.51,56.7,36.29,61.23,154.22,Single-ply,SBD,F,
Girls,60.1,DQ,Alicia Monreal,Perryton,59.42,,,,,Single-ply,SBD,F,
Girls,60.1,DQ,Diana Jiminez,Perryton,59.69,,,,,Single-ply,SBD,F,
Girls,67.36,1,Leslie Morales,Perryton,66.5,151.95,88.45,149.69,390.09,Single-ply,SBD,F,
Girls,67.36,2,Madilyn Cathey,Panhandle,67.04,154.22,70.31,138.35,362.87,Single-ply,SBD,F,
Girls,67.36,3,Cailin Laprade,Plainview,66.77,129.27,63.5,124.74,317.51,Single-ply,SBD,F,
Girls,67.36,4,Breanna Villarreal,Plainview,66.59,133.81,54.43,124.74,312.98,Single-ply,SBD,F,
Girls,67.36,5,Evelyn Becerril,Perryton,63.41,115.67,49.9,133.81,299.37,Single-ply,SBD,F,
Girls,67.36,6,Fatima Estrada,Perryton,66.13,113.4,52.16,120.2,285.76,Single-ply,SBD,F,
Girls,67.36,7,Sadie Brookins,Tulia,65.14,115.67,45.36,122.47,283.5,Single-ply,SBD,F,
Girls,67.36,8,Jenny Vaquera,Plainview,62.6,104.33,49.9,124.74,278.96,Single-ply,SBD,F,
Girls,67.36,9,Karyme Rojo,Perryton,65.41,106.59,52.16,113.4,272.16,Single-ply,SBD,F,
Girls,67.36,10,Lani Sumrall,Childress,65.95,86.18,56.7,99.79,242.67,Single-ply,SBD,F,
Girls,67.36,11,Katie Castro,Plainview,64.32,104.33,36.29,97.52,238.14,Single-ply,SBD,F,
Girls,67.36,12,Jasmine Aguilar,Tulia,62.32,86.18,40.82,108.86,235.87,Single-ply,SBD,F,
Girls,67.36,13,Josalyn Mcanear,Childress,66.68,86.18,43.09,99.79,229.06,Single-ply,SBD,F,
Girls,67.36,DQ,Shantel Ramos,Dumas,67.04,92.99,70.31,,,Single-ply,SBD,F,
Girls,75.07,1,Alyson Ortiz,Perryton,74.66,158.76,83.91,158.76,401.43,Single-ply,SBD,F,
Girls,75.07,2,Vanessa Hernandez,Perryton,73.57,154.22,70.31,133.81,358.34,Single-ply,SBD,F,
Girls,75.07,3,Lupita Ramirez,Perryton,69.4,133.81,72.57,147.42,353.8,Single-ply,SBD,F,
Girls,75.07,4,Marlene Rodriguez,Dumas,74.48,131.54,63.5,133.81,328.85,Single-ply,SBD,F,
Girls,75.07,5,Savannah Cantu,Tulia,69.67,129.27,58.97,131.54,319.78,Single-ply,SBD,F,
Girls,75.07,6,Alexis Rodriguez,Plainview,68.95,129.27,58.97,124.74,312.98,Single-ply,SBD,F,
Girls,75.07,7,Makayla Ramirez,Plainview,70.03,131.54,49.9,122.47,303.91,Single-ply,SBD,F,
Girls,75.07,8,Maria Francia,Perryton,74.39,122.47,58.97,117.93,299.37,Single-ply,SBD,F,
Girls,75.07,9,Mya Valenzuela,Perryton,72.21,113.4,61.23,122.47,297.1,Single-ply,SBD,F,
Girls,75.07,10,Brooke McKinney,Canyon,72.48,115.67,58.97,122.47,297.1,Single-ply,SBD,F,
Girls,75.07,11,Zowie Watt,Vega,74.48,113.4,49.9,117.93,281.23,Single-ply,SBD,F,
Girls,75.07,12,Jazlyn Piedra,Childress,73.21,124.74,61.23,90.72,276.69,Single-ply,SBD,F,
Girls,75.07,13,Marisol Rodriguez,Bovina,68.58,106.59,29.48,115.67,251.74,Single-ply,SBD,F,
Girls,75.07,14,Lilliana Lopez,Perryton,72.57,113.4,49.9,77.11,240.4,Single-ply,SBD,F,
Girls,75.07,15,Isabella Carrasco,Lubbock Cooper,74.39,83.91,38.56,74.84,197.31,Single-ply,SBD,F,
Girls,82.33,1,Lyssa Dunnam,Dumas,81.65,201.85,113.4,172.37,487.61,Single-ply,SBD,F,
Girls,82.33,2,Jacquelyn Olivas,Vega,80.83,172.37,90.72,136.08,399.16,Single-ply,SBD,F,
Girls,82.33,3,Mackenzie Pritt,Childress,80.65,142.88,77.11,136.08,356.07,Single-ply,SBD,F,
Girls,82.33,4,Hazel Guerrero,Childress,80.01,131.54,74.84,140.61,347,Single-ply,SBD,F,
Girls,82.33,5,Juliet Gonzales,Amarillo Highland Park,77.11,124.74,54.43,147.42,326.59,Single-ply,SBD,F,
Girls,82.33,6,Genesis Mendoza,Perryton,80.38,129.27,58.97,99.79,288.03,Single-ply,SBD,F,
Girls,82.33,7,D'Aubrione White,Plainview,77.93,113.4,43.09,120.2,276.69,Single-ply,SBD,F,
Girls,82.33,8,Harleen Sandhu,Vega,75.75,95.25,40.82,92.99,229.06,Single-ply,SBD,F,
Girls,82.33,9,Megan Tolleson,Tulia,77.75,54.43,45.36,95.25,195.04,Single-ply,SBD,F,
Girls,90.04,1,Marisol Ramirez,Perryton,83.01,145.15,68.04,145.15,358.34,Single-ply,SBD,F,
Girls,90.04,2,Veronica Salinas,Tulia,87.82,149.69,63.5,136.08,349.27,Single-ply,SBD,F,
Girls,90.04,3,Kaidie Hackler,Childress,84.37,138.35,70.31,136.08,344.73,Single-ply,SBD,F,
Girls,90.04,4,Daniela Llamas,Perryton,88.81,124.74,56.7,111.13,292.57,Single-ply,SBD,F,
Girls,90.04,5,Celia Mullen,Memphis,83.01,102.06,56.7,102.06,260.82,Single-ply,SBD,F,
Girls,90.04,6,Pearl Garcia,Lubbock Cooper,85.55,92.99,36.29,115.67,244.94,Single-ply,SBD,F,
Girls,90.04,7,Diana Felix,Amarillo Highland Park,89.63,68.04,31.75,90.72,190.51,Single-ply,SBD,F,
Girls,100.02,1,Itzel Cigarroa,Perryton,91.53,142.88,79.38,149.69,371.95,Single-ply,SBD,F,
Girls,100.02,2,Mallory Rodriguez,Plainview,96.62,138.35,61.23,138.35,337.93,Single-ply,SBD,F,
Girls,100.02,3,Brianna Bustamante,Dumas,96.25,145.15,49.9,140.61,335.66,Single-ply,SBD,F,
Girls,100.02,4,Macie Dickson,Lubbock Cooper,91.99,111.13,70.31,136.08,317.51,Single-ply,SBD,F,
Girls,100.02,5,Clarissa Rivera,Dimmitt,94.17,115.67,63.5,131.54,310.71,Single-ply,SBD,F,
Girls,100.02,6,Nilea Garcia,Bovina,93.8,120.2,49.9,138.35,308.44,Single-ply,SBD,F,
Girls,100.02,7,Arianna Salas,Lubbock Cooper,91.17,127.01,68.04,111.13,306.17,Single-ply,SBD,F,
Girls,100.02,8,Mikaela Mercado,Amarillo Highland Park,94.48,74.84,40.82,86.18,201.85,Single-ply,SBD,F,
Girls,117.71,1,Renijah Sledge,Tulia,117.39,142.88,72.57,158.76,374.21,Single-ply,SBD,F,
Girls,117.71,2,Yaritza Pena,Dumas,108.77,113.4,52.16,124.74,290.3,Single-ply,SBD,F,
Girls,117.71,3,Jennifer Montes,Dalhart,104.6,99.79,56.7,115.67,272.16,Single-ply,SBD,F,
Girls,117.71,4,Raylee Guerra,Memphis,103.51,102.06,58.97,102.06,263.08,Single-ply,SBD,F,
Girls,117.71,DQ,Abby Vargas,Perryton,112.4,,,,,Single-ply,SBD,F,
Girls,117.71+,1,Marisol Mendoza,Dumas,124.65,197.31,92.99,163.29,453.59,Single-ply,SBD,F,
Girls,117.71+,2,Arlene Solis,Dimmitt,119.66,136.08,70.31,138.35,344.73,Single-ply,SBD,F,
Girls,117.71+,3,Jamee Tate,Memphis,185.97,90.72,102.06,147.42,340.19,Single-ply,SBD,F,
Girls,,NS,Heather Hicks,Memphis,,,,,,Single-ply,SBD,F,
Girls,,NS,Ariana Castellon,Tulia,,,,,,Single-ply,SBD,F,
Girls,,NS,Marley Xon Gonzales,Dalhart,,,,,,Single-ply,SBD,F,
Girls,,NS,Caryce Guerrero,Dalhart,,,,,,Single-ply,SBD,F,
Girls,,NS,Anahi Saldana Canchola,Dalhart,,,,,,Single-ply,SBD,F,
